Title: * PMOS
Date: Wed Mar 17 21:34:08 2021
Plotname: Operating Point
Flags: real
No. Variables: 16
No. Points:            1
Offset:   0.0000000000000000e+000
Command: Linear Technology Corporation LTspice XVII -- Alternate Solver
Variables:
	0	V(vdd)	voltage
	1	V(vgs)	voltage
	2	Id(Mp_l_6p0)	device_current
	3	Ig(Mp_l_6p0)	device_current
	4	Ib(Mp_l_6p0)	device_current
	5	Is(Mp_l_6p0)	device_current
	6	Id(Mp_l_3p0)	device_current
	7	Ig(Mp_l_3p0)	device_current
	8	Ib(Mp_l_3p0)	device_current
	9	Is(Mp_l_3p0)	device_current
	10	Id(Mp_l_0p6)	device_current
	11	Ig(Mp_l_0p6)	device_current
	12	Ib(Mp_l_0p6)	device_current
	13	Is(Mp_l_0p6)	device_current
	14	I(Vvgs)	device_current
	15	I(Vvdd)	device_current
Values:
0		4.500000000000000e+000
	0.000000000000000e+000
	5.076497190113367e-004
	-0.000000000000000e+000
	4.510000000000000e-012
	-5.076497235213367e-004
	4.988074525440750e-004
	-0.000000000000000e+000
	4.510000000000000e-012
	-4.988074570540749e-004
	4.441593041796940e-004
	-0.000000000000000e+000
	4.510000000000000e-012
	-4.441593086896940e-004
	0.000000000000000e+000
	-1.450616489265106e-003
