#Id(Mn_l_6p0)	d(Id(Mn_l_6p0))/Id(Mn_l_6p0)
iD	gm/iD @ L = 6,0 µm
5.011831e-012	1.060875e-002
5.012097e-012	1.137828e-002
5.012402e-012	1.303015e-002
5.012750e-012	1.491528e-002
5.013149e-012	1.707681e-002
5.013606e-012	1.955783e-002
5.014130e-012	2.239271e-002
5.014729e-012	2.564174e-002
5.015416e-012	2.935642e-002
5.016201e-012	3.361411e-002
5.017102e-012	3.848332e-002
5.018132e-012	4.405833e-002
5.019313e-012	5.045039e-002
5.020664e-012	5.775312e-002
5.022212e-012	6.611152e-002
5.023985e-012	7.567858e-002
5.026014e-012	8.662375e-002
5.028338e-012	9.914995e-002
5.031000e-012	1.134760e-001
5.034047e-012	1.298704e-001
5.037538e-012	1.486169e-001
5.041534e-012	1.700475e-001
5.046111e-012	1.945505e-001
5.051351e-012	2.225433e-001
5.057352e-012	2.545393e-001
5.064224e-012	2.910860e-001
5.072093e-012	3.327961e-001
5.081104e-012	3.804125e-001
5.091423e-012	4.347266e-001
5.103238e-012	4.966490e-001
5.116768e-012	5.672180e-001
5.132261e-012	6.475476e-001
5.150002e-012	7.389330e-001
5.170316e-012	8.428245e-001
5.193578e-012	9.607722e-001
5.220214e-012	1.094526e+000
5.250715e-012	1.246031e+000
5.285640e-012	1.417353e+000
5.325631e-012	1.610748e+000
5.371422e-012	1.828647e+000
5.423855e-012	2.073632e+000
5.483893e-012	2.348375e+000
5.552638e-012	2.655647e+000
5.631352e-012	2.998241e+000
5.721479e-012	3.378910e+000
5.824675e-012	3.800276e+000
5.942833e-012	4.264721e+000
6.078121e-012	4.774291e+000
6.233020e-012	5.330500e+000
6.410372e-012	5.934257e+000
6.613428e-012	6.585686e+000
6.845911e-012	7.283969e+000
7.112082e-012	8.027266e+000
7.416817e-012	8.812639e+000
7.765700e-012	9.635962e+000
8.165117e-012	1.049196e+001
8.622381e-012	1.137437e+001
9.145859e-012	1.227600e+001
9.745127e-012	1.318899e+001
1.043114e-011	1.410503e+001
1.121644e-011	1.501577e+001
1.211538e-011	1.591295e+001
1.314436e-011	1.678885e+001
1.432216e-011	1.763646e+001
1.567028e-011	1.844967e+001
1.721328e-011	1.922350e+001
1.897927e-011	1.995405e+001
2.100041e-011	2.063859e+001
2.331346e-011	2.127553e+001
2.596048e-011	2.186422e+001
2.898952e-011	2.240496e+001
3.245557e-011	2.289880e+001
3.642145e-011	2.334733e+001
4.095900e-011	2.375268e+001
4.615031e-011	2.411724e+001
5.208919e-011	2.444366e+001
5.888282e-011	2.473467e+001
6.665365e-011	2.499303e+001
7.554158e-011	2.522143e+001
8.570632e-011	2.542252e+001
9.733029e-011	2.559881e+001
1.106217e-010	2.575262e+001
1.258183e-010	2.588613e+001
1.431912e-010	2.600134e+001
1.630499e-010	2.610008e+001
1.857474e-010	2.618400e+001
2.116860e-010	2.625459e+001
2.413247e-010	2.631320e+001
2.751862e-010	2.636098e+001
3.138664e-010	2.639899e+001
3.580438e-010	2.642818e+001
4.084909e-010	2.644935e+001
4.660870e-010	2.646322e+001
5.318325e-010	2.647039e+001
6.068652e-010	2.647140e+001
6.924782e-010	2.646672e+001
7.901415e-010	2.645676e+001
9.015241e-010	2.644184e+001
1.028521e-009	2.642226e+001
1.173283e-009	2.639826e+001
1.338247e-009	2.637007e+001
1.526179e-009	2.633783e+001
1.740210e-009	2.630172e+001
1.983884e-009	2.626185e+001
2.261215e-009	2.621833e+001
2.576737e-009	2.617126e+001
2.935579e-009	2.612074e+001
3.343532e-009	2.606684e+001
3.807132e-009	2.600965e+001
4.333754e-009	2.594924e+001
4.931708e-009	2.588570e+001
5.610361e-009	2.581913e+001
6.380255e-009	2.574966e+001
7.253255e-009	2.567738e+001
8.242701e-009	2.560246e+001
9.363589e-009	2.552507e+001
1.063276e-008	2.544536e+001
1.206913e-008	2.536357e+001
1.369393e-008	2.527994e+001
1.553095e-008	2.519471e+001
1.760690e-008	2.510818e+001
1.995172e-008	2.502066e+001
2.259896e-008	2.493248e+001
2.558621e-008	2.484400e+001
2.895559e-008	2.475556e+001
3.275433e-008	2.466756e+001
3.703529e-008	2.458036e+001
4.185773e-008	2.449431e+001
4.728805e-008	2.440975e+001
5.340063e-008	2.432698e+001
6.027881e-008	2.424627e+001
6.801599e-008	2.416778e+001
7.671676e-008	2.409163e+001
8.649830e-008	2.401784e+001
9.749179e-008	2.394630e+001
1.098440e-007	2.387679e+001
1.237190e-007	2.380897e+001
1.393002e-007	2.374231e+001
1.567921e-007	2.367613e+001
1.764225e-007	2.360967e+001
1.984449e-007	2.354195e+001
2.231403e-007	2.347186e+001
2.508200e-007	2.339819e+001
2.818276e-007	2.331960e+001
3.165411e-007	2.323470e+001
3.553750e-007	2.314203e+001
3.987821e-007	2.304015e+001
4.472550e-007	2.292759e+001
5.013269e-007	2.280299e+001
5.615725e-007	2.266506e+001
6.286077e-007	2.251262e+001
7.030886e-007	2.234468e+001
7.857105e-007	2.216042e+001
8.772053e-007	2.195921e+001
9.783379e-007	2.174066e+001
1.089902e-006	2.150458e+001
1.212717e-006	2.125101e+001
1.347617e-006	2.098021e+001
1.495450e-006	2.069264e+001
1.657065e-006	2.038899e+001
1.833308e-006	2.007009e+001
2.025012e-006	1.973695e+001
2.232984e-006	1.939072e+001
2.458003e-006	1.903263e+001
2.700807e-006	1.866403e+001
2.962083e-006	1.828633e+001
3.242463e-006	1.790097e+001
3.542515e-006	1.750941e+001
3.862736e-006	1.711312e+001
4.203549e-006	1.671351e+001
4.565297e-006	1.631202e+001
4.948241e-006	1.590998e+001
5.352561e-006	1.550867e+001
5.778353e-006	1.510934e+001
6.225632e-006	1.471308e+001
6.694335e-006	1.432094e+001
7.184324e-006	1.393390e+001
7.695391e-006	1.355279e+001
8.227264e-006	1.317838e+001
8.779612e-006	1.281137e+001
9.352052e-006	1.245230e+001
9.944157e-006	1.210167e+001
1.055546e-005	1.175991e+001
1.118547e-005	1.142733e+001
1.183366e-005	1.110418e+001
1.249950e-005	1.079065e+001
1.318244e-005	1.048685e+001
1.388192e-005	1.019284e+001
1.459740e-005	9.908634e+000
1.532833e-005	9.634185e+000
1.607416e-005	9.369422e+000
1.683438e-005	9.114201e+000
1.760848e-005	8.868386e+000
1.839597e-005	8.631799e+000
1.919638e-005	8.404234e+000
2.000928e-005	8.185457e+000
2.083423e-005	7.975246e+000
2.167086e-005	7.773349e+000
2.251879e-005	7.579496e+000
2.337767e-005	7.393435e+000
2.424720e-005	7.214893e+000
2.512708e-005	7.043594e+000
2.601705e-005	6.879259e+000
2.691686e-005	6.721639e+000
2.782630e-005	6.570451e+000
2.874517e-005	6.425427e+000
2.967330e-005	6.286321e+000
3.061053e-005	6.152879e+000
3.155673e-005	6.024845e+000
3.251178e-005	5.901988e+000
3.347557e-005	5.784076e+000
3.444803e-005	5.670862e+000
3.542907e-005	5.562156e+000
3.641865e-005	5.457760e+000
3.741671e-005	5.357438e+000
3.842323e-005	5.261011e+000
3.943816e-005	5.168301e+000
4.046151e-005	5.079134e+000
4.149326e-005	4.993328e+000
4.253340e-005	4.910733e+000
4.358196e-005	4.831199e+000
4.463893e-005	4.754562e+000
4.570435e-005	4.680694e+000
4.677822e-005	4.609459e+000
4.786057e-005	4.540723e+000
4.895143e-005	4.474382e+000
5.005084e-005	4.410319e+000
5.115883e-005	4.348415e+000
5.227544e-005	4.288568e+000
5.340070e-005	4.230682e+000
5.453466e-005	4.174673e+000
5.567734e-005	4.120449e+000
5.682881e-005	4.067919e+000
5.798909e-005	4.017002e+000
5.915824e-005	3.967637e+000
6.033628e-005	3.919745e+000
6.152326e-005	3.873260e+000
6.271923e-005	3.828126e+000
6.392424e-005	3.784260e+000
6.513829e-005	3.741620e+000
6.636146e-005	3.700164e+000
6.759378e-005	3.659821e+000
6.883527e-005	3.620555e+000
7.008600e-005	3.582303e+000
7.134597e-005	3.545025e+000
7.261523e-005	3.508711e+000
7.389383e-005	3.473285e+000
7.518177e-005	3.438714e+000
7.647911e-005	3.404984e+000
7.778587e-005	3.372037e+000
7.910208e-005	3.339862e+000
8.042777e-005	3.308422e+000
8.176297e-005	3.277675e+000
8.310770e-005	3.247613e+000
8.446199e-005	3.218196e+000
8.582585e-005	3.189411e+000
8.719933e-005	3.161228e+000
8.858242e-005	3.133628e+000
8.997517e-005	3.106583e+000
9.137757e-005	3.080078e+000
9.278967e-005	3.054102e+000
9.421146e-005	3.028623e+000
9.564298e-005	3.003628e+000
9.708422e-005	2.979101e+000
9.853522e-005	2.955036e+000
9.999597e-005	2.931405e+000
1.014665e-004	2.908203e+000
1.029468e-004	2.885411e+000
1.044369e-004	2.863003e+000
1.059369e-004	2.840991e+000
1.074466e-004	2.819362e+000
1.089662e-004	2.798087e+000
1.104956e-004	2.777163e+000
1.120348e-004	2.756582e+000
1.135839e-004	2.736327e+000
1.151428e-004	2.716398e+000
1.167116e-004	2.696786e+000
1.182903e-004	2.677477e+000
1.198788e-004	2.658457e+000
1.214772e-004	2.639727e+000
1.230855e-004	2.621291e+000
1.247037e-004	2.603118e+000
1.263317e-004	2.585214e+000
1.279696e-004	2.567568e+000
1.296174e-004	2.550162e+000
1.312751e-004	2.533013e+000
1.329426e-004	2.516116e+000
1.346200e-004	2.499444e+000
1.363074e-004	2.482991e+000
1.380045e-004	2.466774e+000
1.397116e-004	2.450768e+000
1.414286e-004	2.434978e+000
1.431554e-004	2.419410e+000
1.448921e-004	2.404030e+000
1.466386e-004	2.388853e+000
1.483950e-004	2.373875e+000
1.501613e-004	2.359083e+000
1.519375e-004	2.344474e+000
1.537235e-004	2.330053e+000
1.555193e-004	2.315816e+000
1.573250e-004	2.301751e+000
1.591405e-004	2.287863e+000
1.609659e-004	2.274132e+000
1.628011e-004	2.260564e+000
1.646461e-004	2.247172e+000
1.665010e-004	2.233937e+000
1.683657e-004	2.220847e+000
1.702401e-004	2.207908e+000
1.721244e-004	2.195125e+000
1.740185e-004	2.182497e+000
1.759224e-004	2.170003e+000
1.778360e-004	2.157658e+000
1.797595e-004	2.145451e+000
1.816927e-004	2.133371e+000
1.836356e-004	2.121425e+000
1.855884e-004	2.109619e+000
1.875508e-004	2.097941e+000
1.895231e-004	2.086391e+000
1.915050e-004	2.074965e+000
1.934967e-004	2.063654e+000
1.954981e-004	2.052472e+000
1.975093e-004	2.041409e+000
1.995301e-004	2.030455e+000
2.015606e-004	2.019624e+000
2.036009e-004	2.008906e+000
2.056508e-004	1.998293e+000
2.077104e-004	1.987789e+000
2.097796e-004	1.977400e+000
2.118586e-004	1.967111e+000
2.139471e-004	1.956927e+000
2.160454e-004	1.946846e+000
2.181532e-004	1.936860e+000
2.202707e-004	1.926988e+000
2.223978e-004	1.917201e+000
2.245345e-004	1.907512e+000
2.266808e-004	1.897924e+000
2.288367e-004	1.888425e+000
2.310022e-004	1.879018e+000
2.331773e-004	1.869698e+000
2.353619e-004	1.860467e+000
2.375561e-004	1.851332e+000
2.397599e-004	1.842285e+000
2.419732e-004	1.833311e+000
2.441960e-004	1.824424e+000
2.464284e-004	1.815627e+000
2.486702e-004	1.806912e+000
2.509216e-004	1.798274e+000
2.531825e-004	1.789711e+000
2.554528e-004	1.781233e+000
2.577327e-004	1.772839e+000
2.600220e-004	1.764505e+000
2.623208e-004	1.756243e+000
2.646290e-004	1.748073e+000
2.669467e-004	1.739972e+000
2.692738e-004	1.731938e+000
2.716104e-004	1.723983e+000
2.739563e-004	1.716082e+000
2.763117e-004	1.708258e+000
2.786765e-004	1.700509e+000
2.810506e-004	1.692823e+000
2.834341e-004	1.685200e+000
2.858270e-004	1.677639e+000
2.882293e-004	1.670160e+000
2.906409e-004	1.662740e+000
2.930619e-004	1.655370e+000
2.954922e-004	1.648069e+000
2.979318e-004	1.640826e+000
3.003807e-004	1.633649e+000
3.028390e-004	1.626539e+000
3.053065e-004	1.619475e+000
3.077833e-004	1.612466e+000
3.102694e-004	1.605530e+000
3.127648e-004	1.598648e+000
3.152694e-004	1.591810e+000
3.177833e-004	1.585042e+000
3.203064e-004	1.578317e+000
3.228388e-004	1.571653e+000
3.253803e-004	1.565047e+000
3.279311e-004	1.558483e+000
3.304911e-004	1.551976e+000
3.330602e-004	1.545518e+000
3.356386e-004	1.539117e+000
3.382261e-004	1.532764e+000
3.408228e-004	1.526457e+000
3.434286e-004	1.520205e+000
3.460436e-004	1.513999e+000
3.486677e-004	1.507846e+000
3.513010e-004	1.501739e+000
3.539434e-004	1.495666e+000
3.565948e-004	1.489647e+000
3.592554e-004	1.483678e+000
3.619250e-004	1.477752e+000
3.646037e-004	1.471876e+000
3.672915e-004	1.466033e+000
3.699883e-004	1.460240e+000
3.726942e-004	1.454496e+000
3.754091e-004	1.448783e+000
3.781331e-004	1.443119e+000
3.808661e-004	1.437494e+000
3.836080e-004	1.431915e+000
3.863590e-004	1.426375e+000
3.891189e-004	1.420872e+000
3.918879e-004	1.415415e+000
3.946658e-004	1.409995e+000
3.974526e-004	1.404612e+000
4.002484e-004	1.399265e+000
4.030532e-004	1.393969e+000
4.058669e-004	1.388701e+000
4.086895e-004	1.383468e+000
4.115210e-004	1.378277e+000
4.143614e-004	1.373121e+000
4.172107e-004	1.368006e+000
4.200688e-004	1.362917e+000
4.229358e-004	1.357869e+000
4.258117e-004	1.352860e+000
4.286965e-004	1.347884e+000
4.315901e-004	1.342941e+000
4.344925e-004	1.338029e+000
4.374037e-004	1.333156e+000
4.403238e-004	1.328314e+000
4.432526e-004	1.323503e+000
4.461902e-004	1.318729e+000
4.491366e-004	1.313985e+000
4.520918e-004	1.309271e+000
4.550557e-004	1.304587e+000
4.580284e-004	1.299939e+000
4.610098e-004	1.295320e+000
4.640000e-004	1.290736e+000
4.669988e-004	1.286181e+000
4.700064e-004	1.281647e+000
4.730227e-004	1.277154e+000
4.760476e-004	1.272688e+000
4.790813e-004	1.268250e+000
4.821236e-004	1.263839e+000
4.851745e-004	1.259455e+000
4.882341e-004	1.255109e+000
4.913024e-004	1.250783e+000
4.943793e-004	1.246478e+000
4.974647e-004	1.242210e+000
5.005588e-004	1.237974e+000
5.036615e-004	1.233757e+000
5.067728e-004	1.229571e+000
5.098926e-004	1.225415e+000
5.130211e-004	1.221278e+000
5.161581e-004	1.217160e+000
5.193035e-004	1.213083e+000
5.224576e-004	1.209024e+000
5.256202e-004	1.204983e+000
5.287913e-004	1.200982e+000
5.319709e-004	1.196999e+000
5.351590e-004	1.193044e+000
5.383556e-004	1.189117e+000
5.415606e-004	1.185197e+000
5.447741e-004	1.181304e+000
5.479961e-004	1.177450e+000
5.512265e-004	1.173612e+000
5.544653e-004	1.169800e+000
5.577126e-004	1.166005e+000
5.609683e-004	1.162227e+000
5.642324e-004	1.158485e+000
5.675048e-004	1.154758e+000
5.707857e-004	1.151058e+000
5.740749e-004	1.147383e+000
5.773725e-004	1.143713e+000
5.806784e-004	1.140079e+000
5.839927e-004	1.136469e+000
5.873153e-004	1.132864e+000
5.906462e-004	1.129294e+000
5.939854e-004	1.125748e+000
5.973330e-004	1.122207e+000
6.006887e-004	1.118699e+000
6.040529e-004	1.115206e+000
6.074252e-004	1.111736e+000
6.108058e-004	1.108289e+000
6.141947e-004	1.104846e+000
6.175917e-004	1.101436e+000
6.209970e-004	1.098049e+000
6.244106e-004	1.094675e+000
6.278323e-004	1.091324e+000
6.312623e-004	1.087985e+000
6.347004e-004	1.084668e+000
6.381467e-004	1.081374e+000
6.416011e-004	1.078092e+000
6.450637e-004	1.074822e+000
6.485344e-004	1.071583e+000
6.520133e-004	1.068366e+000
6.555003e-004	1.065151e+000
6.589954e-004	1.061966e+000
6.624986e-004	1.058793e+000
6.660098e-004	1.055641e+000
6.695293e-004	1.052508e+000
6.730567e-004	1.049379e+000
6.765922e-004	1.046270e+000
6.801357e-004	1.043190e+000
6.836873e-004	1.040129e+000
6.872469e-004	1.037071e+000
6.908145e-004	1.034024e+000
6.943901e-004	1.031013e+000
6.979738e-004	1.028013e+000
7.015654e-004	1.025015e+000
7.051649e-004	1.022044e+000
7.087725e-004	1.019092e+000
7.123880e-004	1.016151e+000
7.160114e-004	1.013220e+000
7.196427e-004	1.010315e+000
7.232820e-004	1.007421e+000
7.269292e-004	1.004536e+000
7.305843e-004	1.001678e+000
7.342473e-004	9.988289e-001
7.379182e-004	9.959899e-001
7.415969e-004	9.931684e-001
7.452835e-004	9.903644e-001
7.489779e-004	9.875699e-001
7.526802e-004	9.847925e-001
7.563903e-004	9.820322e-001
7.601082e-004	9.792888e-001
7.638339e-004	9.765544e-001
7.675674e-004	9.738291e-001
7.713087e-004	9.711204e-001
7.750578e-004	9.684282e-001
7.788146e-004	9.657522e-001
7.825792e-004	9.630850e-001
7.863515e-004	9.604338e-001
7.901316e-004	9.577912e-001
7.939193e-004	9.551645e-001
7.977148e-004	9.525536e-001
8.015180e-004	9.499510e-001
8.053288e-004	9.473639e-001
8.091474e-004	9.447922e-001
8.129736e-004	9.422286e-001
8.168074e-004	9.396803e-001
8.206490e-004	9.371470e-001
8.244981e-004	9.346145e-001
8.283549e-004	9.321041e-001
8.322193e-004	9.296084e-001
8.360912e-004	9.271204e-001
8.399708e-004	9.246469e-001
8.438580e-004	9.221811e-001
8.477527e-004	9.197296e-001
8.516550e-004	9.172855e-001
8.555648e-004	9.148558e-001
8.594822e-004	9.124468e-001
8.634072e-004	9.100383e-001
8.673395e-004	9.076438e-001
8.712795e-004	9.052630e-001
8.752269e-004	9.028893e-001
8.791818e-004	9.005292e-001
8.831442e-004	8.981828e-001
8.871141e-004	8.958496e-001
8.910914e-004	8.935168e-001
8.950761e-004	8.911973e-001
8.990683e-004	8.888975e-001
9.030679e-004	8.866042e-001
9.070750e-004	8.843176e-001
9.110894e-004	8.820503e-001
9.151112e-004	8.797893e-001
9.191404e-004	8.775285e-001
9.231769e-004	8.752868e-001
9.272209e-004	8.730576e-001
9.312721e-004	8.708347e-001
9.353307e-004	8.686304e-001
9.393967e-004	8.664260e-001
9.434699e-004	8.642340e-001
9.475505e-004	8.620541e-001
9.516383e-004	8.598802e-001
9.557334e-004	8.577245e-001
9.598358e-004	8.555685e-001
9.639455e-004	8.534245e-001
9.680624e-004	8.512923e-001
9.721865e-004	8.491719e-001
9.763179e-004	8.470571e-001
9.804565e-004	8.449598e-001
9.846024e-004	8.428681e-001
9.887554e-004	8.407760e-001
9.929156e-004	8.386954e-001
9.970829e-004	8.366261e-001
1.001257e-003	8.345797e-001
1.005439e-003	8.325212e-001
1.009628e-003	8.304855e-001
1.013824e-003	8.284606e-001
1.018027e-003	8.264239e-001
1.022237e-003	8.244210e-001
1.026455e-003	8.224173e-001
1.030679e-003	8.204245e-001
1.034911e-003	8.184311e-001
1.039149e-003	8.164484e-001
1.043395e-003	8.144874e-001
1.047647e-003	8.125258e-001
1.051907e-003	8.105745e-001
1.056174e-003	8.086227e-001
1.060448e-003	8.066922e-001
1.064728e-003	8.047608e-001
1.069016e-003	8.028398e-001
1.073311e-003	8.009289e-001
1.077613e-003	7.990173e-001
1.081921e-003	7.971265e-001
1.086237e-003	7.952455e-001
1.090559e-003	7.933638e-001
1.094889e-003	7.914919e-001
1.099225e-003	7.896297e-001
1.103569e-003	7.877667e-001
1.107919e-003	7.859240e-001
1.112276e-003	7.840803e-001
1.116640e-003	7.822462e-001
1.121011e-003	7.804216e-001
1.125389e-003	7.786064e-001
1.129773e-003	7.768006e-001
1.134165e-003	7.749835e-001
1.138563e-003	7.731963e-001
1.142968e-003	7.714080e-001
1.147380e-003	7.696188e-001
1.151799e-003	7.678590e-001
1.156224e-003	7.660879e-001
1.160656e-003	7.643260e-001
1.165095e-003	7.625729e-001
1.169541e-003	7.608289e-001
1.173993e-003	7.590936e-001
1.178453e-003	7.573573e-001
1.182919e-003	7.556396e-001
1.187391e-003	7.539208e-001
1.191871e-003	7.522008e-001
1.196356e-003	7.504994e-001
1.200849e-003	7.488161e-001
1.205349e-003	7.471219e-001
1.209855e-003	7.454363e-001
1.214367e-003	7.437590e-001
1.218887e-003	7.420902e-001
1.223413e-003	7.404296e-001
1.227945e-003	7.387679e-001
1.232484e-003	7.371239e-001
1.237030e-003	7.354785e-001
1.241582e-003	7.338320e-001
1.246141e-003	7.322031e-001
1.250707e-003	7.305914e-001
1.255279e-003	7.289691e-001
1.259857e-003	7.273548e-001
1.264442e-003	7.257484e-001
1.269034e-003	7.241500e-001
1.273632e-003	7.225594e-001
1.278237e-003	7.209674e-001
1.282848e-003	7.193923e-001
1.287465e-003	7.178159e-001
1.292089e-003	7.162471e-001
1.296720e-003	7.146859e-001
1.301357e-003	7.131234e-001
1.306000e-003	7.115685e-001
1.310650e-003	7.100300e-001
1.315306e-003	7.084989e-001
1.319969e-003	7.069575e-001
1.324638e-003	7.054237e-001
1.329313e-003	7.039147e-001
1.333995e-003	7.023954e-001
1.338683e-003	7.008835e-001
1.343378e-003	6.993788e-001
1.348078e-003	6.978727e-001
1.352786e-003	6.963910e-001
1.357499e-003	6.949078e-001
1.362219e-003	6.934145e-001
1.366945e-003	6.919369e-001
1.371677e-003	6.904747e-001
1.376416e-003	6.890026e-001
1.381161e-003	6.875459e-001
1.385912e-003	6.860960e-001
1.390669e-003	6.846362e-001
1.395433e-003	6.831917e-001
1.400203e-003	6.817540e-001
1.404979e-003	6.803231e-001
1.409761e-003	6.788988e-001
1.414550e-003	6.774730e-001
1.419345e-003	6.760538e-001
1.424145e-003	6.746413e-001
1.428952e-003	6.732353e-001
1.433766e-003	6.718360e-001
1.438585e-003	6.704350e-001
1.443410e-003	6.690405e-001
1.448242e-003	6.676525e-001
1.453080e-003	6.662709e-001
1.457923e-003	6.648958e-001
1.462773e-003	6.635190e-001
1.467629e-003	6.621565e-001
1.472491e-003	6.607923e-001
1.477359e-003	6.594344e-001
1.482234e-003	6.580828e-001
1.487114e-003	6.567295e-001
1.492000e-003	6.553902e-001
1.496892e-003	6.540571e-001
1.501790e-003	6.527222e-001
1.506695e-003	6.513857e-001
1.511605e-003	6.500631e-001
1.516521e-003	6.487464e-001
1.521443e-003	6.474281e-001
1.526371e-003	6.461157e-001
1.531305e-003	6.448169e-001
1.536245e-003	6.435163e-001
1.541191e-003	6.422141e-001
1.546143e-003	6.409252e-001
1.551101e-003	6.396347e-001
1.556064e-003	6.383500e-001
1.561034e-003	6.370710e-001
1.566009e-003	6.357978e-001
1.570991e-003	6.345303e-001
1.575978e-003	6.332610e-001
1.580971e-003	6.319974e-001
1.585969e-003	6.307468e-001
1.590974e-003	6.294944e-001
1.595985e-003	6.282403e-001
1.601001e-003	6.269991e-001
1.606023e-003	6.257561e-001
1.611051e-003	6.245186e-001
1.616084e-003	6.232938e-001
1.621124e-003	6.220672e-001
1.626169e-003	6.208388e-001
1.631219e-003	6.196230e-001
1.636276e-003	6.184054e-001
1.641338e-003	6.171932e-001
1.646406e-003	6.159934e-001
1.651480e-003	6.147847e-001
1.656559e-003	6.135883e-001
1.661644e-003	6.123972e-001
1.666735e-003	6.111972e-001
1.671831e-003	6.100165e-001
1.676934e-003	6.088339e-001
1.682041e-003	6.076496e-001
1.687155e-003	6.064841e-001
1.692274e-003	6.053100e-001
1.697398e-003	6.041409e-001
1.702528e-003	6.029769e-001
1.707664e-003	6.018180e-001
1.712805e-003	6.006640e-001
1.717952e-003	5.995082e-001
1.723105e-003	5.983641e-001
1.728263e-003	5.972182e-001
1.733426e-003	5.960773e-001
1.738595e-003	5.949412e-001
1.743770e-003	5.938099e-001
1.748950e-003	5.926768e-001
1.754135e-003	5.915486e-001
1.759326e-003	5.904318e-001
1.764523e-003	5.893132e-001
1.769725e-003	5.881993e-001
1.774932e-003	5.870901e-001
1.780145e-003	5.859790e-001
1.785364e-003	5.848727e-001
1.790587e-003	5.837711e-001
1.795817e-003	5.826741e-001
1.801051e-003	5.815882e-001
1.806291e-003	5.804939e-001
1.811537e-003	5.794043e-001
1.816787e-003	5.783257e-001
1.822044e-003	5.772452e-001
1.827305e-003	5.761692e-001
1.832572e-003	5.750914e-001
1.837844e-003	5.740244e-001
1.843122e-003	5.729618e-001
1.848404e-003	5.718974e-001
1.853693e-003	5.708374e-001
1.858986e-003	5.697818e-001
1.864285e-003	5.687306e-001
1.869589e-003	5.676776e-001
1.874898e-003	5.666351e-001
1.880213e-003	5.655907e-001
1.885532e-003	5.645506e-001
1.890857e-003	5.635148e-001
1.896188e-003	5.624833e-001
1.901523e-003	5.614560e-001
1.906864e-003	5.604269e-001
1.912210e-003	5.594020e-001
1.917561e-003	5.583812e-001
1.922917e-003	5.573647e-001
1.928278e-003	5.563523e-001
1.933645e-003	5.553380e-001
1.939017e-003	5.543279e-001
1.944394e-003	5.533279e-001
1.949775e-003	5.523319e-001
1.955163e-003	5.513280e-001
1.960555e-003	5.503342e-001
1.965952e-003	5.493444e-001
1.971355e-003	5.483468e-001
1.976762e-003	5.473651e-001
1.982175e-003	5.463755e-001
1.987592e-003	5.454017e-001
1.993015e-003	5.444200e-001
1.998443e-003	5.434424e-001
2.003876e-003	5.424803e-001
2.009313e-003	5.415105e-001
2.014756e-003	5.405445e-001
2.020204e-003	5.395824e-001
2.025657e-003	5.386241e-001
2.031115e-003	5.376583e-001
2.036577e-003	5.367077e-001
2.042045e-003	5.357609e-001
2.047518e-003	5.348065e-001
2.052995e-003	5.338559e-001
2.058478e-003	5.329204e-001
2.063965e-003	5.319773e-001
2.069458e-003	5.310380e-001
2.074955e-003	5.301136e-001
2.080457e-003	5.291816e-001
2.085964e-003	5.282533e-001
2.091476e-003	5.273175e-001
2.096993e-003	5.263966e-001
2.102515e-003	5.254792e-001
2.108041e-003	5.245545e-001
2.113573e-003	5.236444e-001
2.119109e-003	5.227378e-001
2.124650e-003	5.218238e-001
2.130196e-003	5.209134e-001
2.135747e-003	5.200065e-001
2.141302e-003	5.191032e-001
2.146862e-003	5.182034e-001
2.152427e-003	5.173072e-001
2.157997e-003	5.164252e-001
2.163572e-003	5.155250e-001
2.169151e-003	5.146284e-001
2.174735e-003	5.137567e-001
2.180323e-003	5.128669e-001
2.185917e-003	5.119806e-001
2.191515e-003	5.111084e-001
2.197118e-003	5.102289e-001
2.202725e-003	5.093528e-001
2.208337e-003	5.084801e-001
2.213954e-003	5.076107e-001
2.219576e-003	5.067552e-001
2.225202e-003	5.058924e-001
2.230833e-003	5.050226e-001
2.236468e-003	5.041560e-001
2.242108e-003	5.033032e-001
2.247753e-003	5.024536e-001
2.253402e-003	5.015970e-001
2.259056e-003	5.007539e-001
2.264714e-003	4.999139e-001
2.270377e-003	4.990669e-001
2.276045e-003	4.982129e-001
2.281717e-003	4.973724e-001
2.287394e-003	4.965452e-001
2.293075e-003	4.957110e-001
2.298761e-003	4.948698e-001
2.304451e-003	4.940419e-001
2.310146e-003	4.932171e-001
2.315845e-003	4.923853e-001
2.321549e-003	4.915668e-001
2.327257e-003	4.907512e-001
2.332970e-003	4.899188e-001
2.338686e-003	4.890995e-001
2.344408e-003	4.883031e-001
2.350134e-003	4.874898e-001
2.355865e-003	4.866697e-001
2.361600e-003	4.858625e-001
2.367339e-003	4.850583e-001
2.373083e-003	4.842572e-001
2.378831e-003	4.834589e-001
2.384583e-003	4.826539e-001
2.390340e-003	4.818519e-001
2.396101e-003	4.810626e-001
2.401867e-003	4.802762e-001
2.407637e-003	4.794830e-001
2.413411e-003	4.786928e-001
2.419190e-003	4.779151e-001
2.424973e-003	4.771210e-001
2.430760e-003	4.763395e-001
2.436551e-003	4.755704e-001
2.442347e-003	4.747850e-001
2.448147e-003	4.740120e-001
2.453952e-003	4.732419e-001
2.459760e-003	4.724651e-001
2.465573e-003	4.716912e-001
2.471390e-003	4.709295e-001
2.477212e-003	4.701706e-001
2.483037e-003	4.694050e-001
2.488867e-003	4.686423e-001
2.494701e-003	4.678823e-001
2.500539e-003	4.671251e-001
2.506382e-003	4.663707e-001
2.512228e-003	4.656189e-001
2.518079e-003	4.648699e-001
2.523934e-003	4.641144e-001
2.529793e-003	4.633709e-001
2.535657e-003	4.626299e-001
2.541524e-003	4.618826e-001
2.547395e-003	4.611470e-001
2.553271e-003	4.604049e-001
2.559151e-003	4.596656e-001
2.565035e-003	4.589379e-001
2.570923e-003	4.582038e-001
2.576815e-003	4.574633e-001
2.582711e-003	4.567345e-001
2.588611e-003	4.560173e-001
2.594515e-003	4.552847e-001
2.600423e-003	4.545547e-001
2.606336e-003	4.538452e-001
2.612252e-003	4.531292e-001
2.618172e-003	4.524069e-001
2.624097e-003	4.516872e-001
2.630025e-003	4.509701e-001
2.635957e-003	4.502555e-001
2.641894e-003	4.495522e-001
2.647834e-003	4.488426e-001
2.653778e-003	4.481268e-001
2.659726e-003	4.474310e-001
2.665679e-003	4.467289e-001
2.671635e-003	4.460205e-001
2.677595e-003	4.453234e-001
2.683559e-003	4.446287e-001
2.689527e-003	4.439364e-001
2.695499e-003	4.432379e-001
2.701474e-003	4.425419e-001
2.707454e-003	4.418569e-001
2.713437e-003	4.411657e-001
2.719424e-003	4.404770e-001
2.725416e-003	4.397906e-001
2.731411e-003	4.391066e-001
2.737409e-003	4.384250e-001
2.743412e-003	4.377458e-001
2.749419e-003	4.370690e-001
2.755429e-003	4.363860e-001
2.761443e-003	4.357138e-001
2.767461e-003	4.350440e-001
2.773483e-003	4.343681e-001
2.779508e-003	4.336945e-001
2.785537e-003	4.330316e-001
2.791570e-003	4.323627e-001
2.797607e-003	4.316960e-001
2.803647e-003	4.310400e-001
2.809692e-003	4.303696e-001
2.815739e-003	4.297099e-001
2.821791e-003	4.290606e-001
2.827847e-003	4.283970e-001
2.833906e-003	4.277358e-001
2.839968e-003	4.270850e-001
2.846035e-003	4.264365e-001
2.852105e-003	4.257901e-001
2.858179e-003	4.251378e-001
2.864256e-003	4.244878e-001
2.870337e-003	4.238480e-001
2.876422e-003	4.232023e-001
2.882510e-003	4.225508e-001
2.888602e-003	4.219176e-001
2.894698e-003	4.212785e-001
2.900797e-003	4.206335e-001
2.906899e-003	4.200067e-001
2.913006e-003	4.193741e-001
2.919116e-003	4.187356e-001
2.925229e-003	4.180992e-001
2.931346e-003	4.174730e-001
2.937467e-003	4.168488e-001
2.943591e-003	4.162189e-001
2.949719e-003	4.155910e-001
2.955850e-003	4.149653e-001
2.961984e-003	4.143495e-001
2.968123e-003	4.137280e-001
2.974264e-003	4.131007e-001
2.980409e-003	4.124833e-001
2.986558e-003	4.118680e-001
2.992710e-003	4.112547e-001
2.998866e-003	4.106435e-001
3.005025e-003	4.100342e-001
3.011187e-003	4.094193e-001
3.017353e-003	4.088065e-001
3.023522e-003	4.082033e-001
3.029695e-003	4.076022e-001
3.035872e-003	4.069954e-001
3.042051e-003	4.063829e-001
3.048234e-003	4.057801e-001
3.054420e-003	4.051870e-001
3.060610e-003	4.045881e-001
3.066803e-003	4.039837e-001
3.072999e-003	4.033888e-001
3.079199e-003	4.028035e-001
3.085403e-003	4.022049e-001
3.091609e-003	4.016084e-001
3.097819e-003	4.010213e-001
3.104032e-003	4.004286e-001
3.110248e-003	3.998379e-001
3.116468e-003	3.992566e-001
3.122691e-003	3.986771e-001
3.128917e-003	3.980847e-001
3.135147e-003	3.975017e-001
3.141379e-003	3.969279e-001
3.147616e-003	3.963412e-001
3.153855e-003	3.957639e-001
3.160097e-003	3.951884e-001
3.166343e-003	3.946074e-001
3.172592e-003	3.940356e-001
3.178844e-003	3.934657e-001
3.185100e-003	3.928903e-001
3.191358e-003	3.923168e-001
3.197620e-003	3.917524e-001
3.203885e-003	3.911826e-001
3.210153e-003	3.906146e-001
3.216424e-003	3.900557e-001
3.222699e-003	3.894913e-001
3.228976e-003	3.889216e-001
3.235257e-003	3.883609e-001
3.241541e-003	3.878020e-001
3.247828e-003	3.872448e-001
3.254118e-003	3.866895e-001
3.260411e-003	3.861288e-001
3.266707e-003	3.855699e-001
3.273007e-003	3.850199e-001
3.279309e-003	3.844716e-001
3.285615e-003	3.838259e-001
