Title: * NMOS
Date: Wed Mar 17 21:33:40 2021
Plotname: Operating Point
Flags: real
No. Variables: 16
No. Points:            1
Offset:   0.0000000000000000e+000
Command: Linear Technology Corporation LTspice XVII -- Alternate Solver
Variables:
	0	V(vdd)	voltage
	1	V(vgs)	voltage
	2	Id(Mn_l_6p0)	device_current
	3	Ig(Mn_l_6p0)	device_current
	4	Ib(Mn_l_6p0)	device_current
	5	Is(Mn_l_6p0)	device_current
	6	Id(Mn_l_3p0)	device_current
	7	Ig(Mn_l_3p0)	device_current
	8	Ib(Mn_l_3p0)	device_current
	9	Is(Mn_l_3p0)	device_current
	10	Id(Mn_l_0p6)	device_current
	11	Ig(Mn_l_0p6)	device_current
	12	Ib(Mn_l_0p6)	device_current
	13	Is(Mn_l_0p6)	device_current
	14	I(Vvgs)	device_current
	15	I(Vvdd)	device_current
Values:
0		4.500000000000000e+000
	5.000000000000000e+000
	2.535873183170593e-003
	0.000000000000000e+000
	-4.510000000000000e-012
	-2.535873178660593e-003
	2.196602306443127e-003
	0.000000000000000e+000
	-4.510000000000000e-012
	-2.196602301933127e-003
	9.567654935228688e-004
	0.000000000000000e+000
	-4.510000000000000e-012
	-9.567654890128688e-004
	0.000000000000000e+000
	-5.689240983136589e-003
