Checking Wells and Substrates in 'opamp:opamp{lay}' ...
   Geometry collection found 375 well pieces, took 0.044 secs
   Geometry analysis used 10 threads and took 0.016 secs
NetValues propagation took 0.003 secs
Checking short circuits in 13 well contacts
   Additional analysis took 0.004 secs
No Well errors found (took 0.075 secs)
