	V(vgs)	Id(Mn_l_0p6)	Id(Mn_l_3p0)	Id(Mn_l_6p0)
0	0.0	5.510342e-12	5.5101392e-12	5.5101756e-12
1	0.005	5.5103964e-12	5.5101613e-12	5.5102034e-12
2	0.01	5.5104584e-12	5.510187e-12	5.510236e-12
3	0.015	5.510531e-12	5.510217e-12	5.5102737e-12
4	0.02	5.510614e-12	5.5102515e-12	5.510317e-12
5	0.025	5.510711e-12	5.5102914e-12	5.5103678e-12
6	0.03	5.5108227e-12	5.5103383e-12	5.5104263e-12
7	0.035	5.5109524e-12	5.510392e-12	5.510494e-12
8	0.04	5.5111024e-12	5.5104545e-12	5.510573e-12
9	0.045	5.511276e-12	5.510527e-12	5.5106644e-12
10	0.05	5.5114767e-12	5.510611e-12	5.5107702e-12
11	0.055	5.511709e-12	5.510708e-12	5.510893e-12
12	0.06	5.511978e-12	5.5108214e-12	5.511035e-12
13	0.065	5.5122894e-12	5.5109524e-12	5.5112004e-12
14	0.07	5.51265e-12	5.511104e-12	5.5113917e-12
15	0.075	5.5130666e-12	5.5112802e-12	5.5116137e-12
16	0.08	5.5135493e-12	5.5114845e-12	5.511871e-12
17	0.085	5.5141083e-12	5.511721e-12	5.5121693e-12
18	0.09	5.5147545e-12	5.5119954e-12	5.5125154e-12
19	0.095	5.515503e-12	5.5123133e-12	5.5129165e-12
20	0.1	5.516369e-12	5.5126823e-12	5.5133814e-12
21	0.105	5.5173717e-12	5.51311e-12	5.5139205e-12
22	0.11	5.518532e-12	5.5136056e-12	5.5145454e-12
23	0.115	5.5198745e-12	5.5141807e-12	5.51527e-12
24	0.12	5.521429e-12	5.5148473e-12	5.5161106e-12
25	0.125	5.5232277e-12	5.51562e-12	5.5170846e-12
26	0.13	5.5253094e-12	5.516516e-12	5.5182144e-12
27	0.135	5.527719e-12	5.517555e-12	5.5195236e-12
28	0.14	5.5305075e-12	5.5187595e-12	5.521042e-12
29	0.145	5.5337354e-12	5.520156e-12	5.5228027e-12
30	0.15	5.5374707e-12	5.5217753e-12	5.5248436e-12
31	0.155	5.541794e-12	5.5236523e-12	5.52721e-12
32	0.16	5.546798e-12	5.525829e-12	5.5299537e-12
33	0.165	5.552589e-12	5.5283525e-12	5.5331347e-12
34	0.17	5.5592917e-12	5.5312786e-12	5.536823e-12
35	0.175	5.5670486e-12	5.534671e-12	5.5410993e-12
36	0.18	5.5760266e-12	5.538604e-12	5.546057e-12
37	0.185	5.586417e-12	5.543164e-12	5.551805e-12
38	0.19	5.5984423e-12	5.548451e-12	5.5584695e-12
39	0.195	5.61236e-12	5.5545807e-12	5.5661964e-12
40	0.2	5.6284673e-12	5.5616874e-12	5.5751545e-12
41	0.205	5.647109e-12	5.569927e-12	5.5855407e-12
42	0.21	5.668684e-12	5.57948e-12	5.5975823e-12
43	0.215	5.6936526e-12	5.590556e-12	5.611543e-12
44	0.22	5.7225496e-12	5.6033967e-12	5.6277288e-12
45	0.225	5.7559925e-12	5.618284e-12	5.646494e-12
46	0.23	5.7946963e-12	5.6355445e-12	5.66825e-12
47	0.235	5.839488e-12	5.655556e-12	5.693473e-12
48	0.24	5.891325e-12	5.678756e-12	5.7227157e-12
49	0.245	5.9513154e-12	5.705654e-12	5.756618e-12
50	0.25	6.0207408e-12	5.7368377e-12	5.7959223e-12
51	0.255	6.1010845e-12	5.7729906e-12	5.841489e-12
52	0.26	6.194062e-12	5.8149045e-12	5.894316e-12
53	0.265	6.30166e-12	5.8634963e-12	5.955559e-12
54	0.27	6.4261756e-12	5.9198306e-12	6.0265586e-12
55	0.275	6.5702678e-12	5.9851395e-12	6.1088678e-12
56	0.28	6.737011e-12	6.0608528e-12	6.204288e-12
57	0.285	6.9299653e-12	6.148627e-12	6.314906e-12
58	0.29	7.1532467e-12	6.250382e-12	6.4431407e-12
59	0.295	7.411618e-12	6.3683447e-12	6.5917966e-12
60	0.3	7.710589e-12	6.5050938e-12	6.764123e-12
61	0.305	8.056533e-12	6.6636197e-12	6.9638865e-12
62	0.31	8.456824e-12	6.8473877e-12	7.1954513e-12
63	0.315	8.91999e-12	7.0604148e-12	7.463876e-12
64	0.32	9.455894e-12	7.307355e-12	7.775023e-12
65	0.325	1.0075947e-11	7.593604e-12	8.135685e-12
66	0.33	1.0793343e-11	7.925411e-12	8.553732e-12
67	0.335	1.1623342e-11	8.310021e-12	9.038285e-12
68	0.34	1.2583592e-11	8.7558285e-12	9.599912e-12
69	0.345	1.3694498e-11	9.272558e-12	1.0250854e-11
70	0.35	1.4979653e-11	9.87148e-12	1.1005296e-11
71	0.355	1.6466339e-11	1.0565652e-11	1.1879667e-11
72	0.36	1.818609e-11	1.1370196e-11	1.2893002e-11
73	0.365	2.0175363e-11	1.2302637e-11	1.4067346e-11
74	0.37	2.2476297e-11	1.3383274e-11	1.5428232e-11
75	0.375	2.5137595e-11	1.4635614e-11	1.700523e-11
76	0.38	2.821554e-11	1.6086892e-11	1.8832585e-11
77	0.385	3.1775162e-11	1.776864e-11	2.0949945e-11
78	0.39	3.589161e-11	1.9717379e-11	2.3403215e-11
79	0.395	4.0651683e-11	2.1975394e-11	2.6245539e-11
80	0.4	4.615565e-11	2.4591643e-11	2.953843e-11
81	0.405	5.2519298e-11	2.7622803e-11	3.335309e-11
82	0.41	5.987635e-11	3.113448e-11	3.7771904e-11
83	0.415	6.838116e-11	3.5202605e-11	4.2890202e-11
84	0.42	7.821194e-11	3.9915047e-11	4.8818272e-11
85	0.425	8.957433e-11	4.5373483e-11	5.5683683e-11
86	0.43	1.0270562e-10	5.1695533e-11	6.363397e-11
87	0.435	1.1787954e-10	5.9017256e-11	7.283972e-11
88	0.44	1.3541182e-10	6.749601e-11	8.3498146e-11
89	0.445	1.5566645e-10	7.731374e-11	9.583718e-11
90	0.45	1.7906307e-10	8.868077e-11	1.10120205e-10
91	0.455	2.0608525e-10	1.0184023e-10	1.2665151e-10
92	0.46	2.3729008e-10	1.1707305e-10	1.4578252e-10
93	0.465	2.7331915e-10	1.3470375e-10	1.6791901e-10
94	0.47	3.1491118e-10	1.551072e-10	1.9352935e-10
95	0.475	3.6291625e-10	1.787162e-10	2.23154e-10
96	0.48	4.183124e-10	2.0603033e-10	2.5741642e-10
97	0.485	4.8222437e-10	2.3762609e-10	2.9703554e-10
98	0.49	5.5594496e-10	2.7416847e-10	3.4284e-10
99	0.495	6.409597e-10	3.164243e-10	3.9578468e-10
100	0.5	7.389744e-10	3.6527753e-10	4.5696927e-10
101	0.505	8.5194723e-10	4.2174664e-10	5.276597e-10
102	0.51	9.821248e-10	4.870046e-10	6.0931277e-10
103	0.515	1.1320833e-09	5.6240185e-10	7.0360384e-10
104	0.52	1.3047746e-09	6.494921e-10	8.124586e-10
105	0.525	1.50358e-09	7.5006246e-10	9.380896e-10
106	0.53	1.7323697e-09	8.6616686e-10	1.0830369e-09
107	0.535	1.9955708e-09	1.000165e-09	1.2502155e-09
108	0.54	2.2982445e-09	1.1547662e-09	1.4429679e-09
109	0.545	2.6461728e-09	1.3330789e-09	1.6651247e-09
110	0.55	3.0459566e-09	1.5386676e-09	1.9210726e-09
111	0.555	3.505127e-09	1.7756172e-09	2.2158317e-09
112	0.56	4.0322705e-09	2.0486046e-09	2.5551434e-09
113	0.565	4.6371698e-09	2.362982e-09	2.9455676e-09
114	0.57	5.330963e-09	2.7248688e-09	3.3945953e-09
115	0.575	6.1263234e-09	3.1412566e-09	3.910774e-09
116	0.58	7.0376625e-09	3.6201273e-09	4.503848e-09
117	0.585	8.081357e-09	4.1705857e-09	5.1849187e-09
118	0.59	9.2760075e-09	4.80301e-09	5.966623e-09
119	0.595	1.06427285e-08	5.529218e-09	6.863338e-09
120	0.6	1.22054775e-08	6.3626593e-09	7.891402e-09
121	0.605	1.3991427e-08	7.318624e-09	9.069377e-09
122	0.61	1.6031384e-08	8.414485e-09	1.0418332e-08
123	0.615	1.836027e-08	9.669963e-09	1.1962171e-08
124	0.62	2.101766e-08	1.1107429e-08	1.3727994e-08
125	0.625	2.4048406e-08	1.2752241e-08	1.5746515e-08
126	0.63	2.7503326e-08	1.4633128e-08	1.8052527e-08
127	0.635	3.1440013e-08	1.678261e-08	2.0685427e-08
128	0.64	3.592375e-08	1.9237492e-08	2.3689815e-08
129	0.645	4.1028535e-08	2.2039387e-08	2.7116174e-08
130	0.65	4.6838274e-08	2.523535e-08	3.102163e-08
131	0.655	5.3448133e-08	2.887855e-08	3.5470837e-08
132	0.66	6.096605e-08	3.3029057e-08	4.0536932e-08
133	0.665	6.9514506e-08	3.775473e-08	4.630269e-08
134	0.67	7.923243e-08	4.3132196e-08	5.286176e-08
135	0.675	9.027745e-08	4.924798e-08	6.0320104e-08
136	0.68	1.02828345e-07	5.619977e-08	6.879758e-08
137	0.685	1.1708773e-07	6.409784e-08	7.842978e-08
138	0.69	1.3328511e-07	7.306665e-08	8.936996e-08
139	0.695	1.5168014e-07	8.3246604e-08	1.01791315e-07
140	0.7	1.7256613e-07	9.479607e-08	1.1588937e-07
141	0.705	1.9627383e-07	1.0789352e-07	1.3188462e-07
142	0.71	2.2317528e-07	1.2273996e-07	1.5002539e-07
143	0.715	2.536879e-07	1.3956152e-07	1.705908e-07
144	0.72	2.882785e-07	1.5861225e-07	1.9389398e-07
145	0.725	3.2746715e-07	1.8017711e-07	2.2028524e-07
146	0.73	3.7183088e-07	2.0457503e-07	2.501554e-07
147	0.735	4.2200693e-07	2.3216212e-07	2.8393885e-07
148	0.74	4.786953e-07	2.633349e-07	3.2211665e-07
149	0.745	5.426607e-07	2.9853342e-07	3.6521917e-07
150	0.75	6.14733e-07	3.3824423e-07	4.138283e-07
151	0.755	6.9580716e-07	3.8300297e-07	4.685792e-07
152	0.76	7.868408e-07	4.3339682e-07	5.301611e-07
153	0.765	8.8885116e-07	4.900659e-07	5.993174e-07
154	0.77	1.002909e-06	5.5370424e-07	6.7684425e-07
155	0.775	1.1301319e-06	6.2506e-07	7.635888e-07
156	0.78	1.2716747e-06	7.049342e-07	8.604449e-07
157	0.785	1.4287189e-06	7.9417845e-07	9.683487e-07
158	0.79	1.6024588e-06	8.9369126e-07	1.0882717e-06
159	0.795	1.7940887e-06	1.0044134e-06	1.221213e-06
160	0.8	2.004786e-06	1.127321e-06	1.3681902e-06
161	0.805	2.2356958e-06	1.2634176e-06	1.5302284e-06
162	0.81	2.4879134e-06	1.4137254e-06	1.7083491e-06
163	0.815	2.762468e-06	1.5792737e-06	1.903558e-06
164	0.82	3.060307e-06	1.7610881e-06	2.1168316e-06
165	0.825	3.38228e-06	1.9601775e-06	2.3491052e-06
166	0.83	3.7291268e-06	2.1775215e-06	2.6012588e-06
167	0.835	4.1014646e-06	2.4140568e-06	2.8741065e-06
168	0.84	4.49978e-06	2.6706648e-06	3.1683844e-06
169	0.845	4.9244227e-06	2.9481585e-06	3.4847412e-06
170	0.85	5.3756007e-06	3.2472726e-06	3.8237304e-06
171	0.855	5.853381e-06	3.5686514e-06	4.185802e-06
172	0.86	6.3576904e-06	3.9128427e-06	4.5713005e-06
173	0.865	6.888321e-06	4.2802894e-06	4.9804617e-06
174	0.87	7.4449363e-06	4.671326e-06	5.413411e-06
175	0.875	8.02708e-06	5.0861768e-06	5.870169e-06
176	0.88	8.634189e-06	5.5249534e-06	6.35065e-06
177	0.885	9.265602e-06	5.9876593e-06	6.8546715e-06
178	0.89	9.9205745e-06	6.4741926e-06	7.3819606e-06
179	0.895	1.0598294e-05	6.9843513e-06	7.93216e-06
180	0.9	1.1297889e-05	7.5178414e-06	8.504838e-06
181	0.905	1.2018446e-05	8.074284e-06	9.099501e-06
182	0.91	1.2759022e-05	8.653225e-06	9.715599e-06
183	0.915	1.3518658e-05	9.254147e-06	1.035254e-05
184	0.92	1.4296385e-05	9.876475e-06	1.1009697e-05
185	0.925	1.5091243e-05	1.0519593e-05	1.1686418e-05
186	0.93	1.5902282e-05	1.118285e-05	1.2382037e-05
187	0.935	1.6728573e-05	1.1865571e-05	1.3095883e-05
188	0.94	1.7569218e-05	1.2567064e-05	1.3827284e-05
189	0.945	1.8423354e-05	1.3286636e-05	1.4575577e-05
190	0.95	1.929015e-05	1.4023593e-05	1.5340112e-05
191	0.955	2.0168824e-05	1.4777251e-05	1.6120264e-05
192	0.96	2.1058633e-05	1.5546939e-05	1.6915425e-05
193	0.965	2.1958884e-05	1.633201e-05	1.7725015e-05
194	0.97	2.2868928e-05	1.7131837e-05	1.8548491e-05
195	0.975	2.3788163e-05	1.794583e-05	1.9385334e-05
196	0.98	2.4716033e-05	1.877342e-05	2.0235064e-05
197	0.985	2.565203e-05	1.9614077e-05	2.1097232e-05
198	0.99	2.6595688e-05	2.0467305e-05	2.1971424e-05
199	0.995	2.754658e-05	2.1332642e-05	2.285726e-05
200	1.0	2.8504324e-05	2.2209662e-05	2.3754395e-05
201	1.005	2.9468574e-05	2.3097971e-05	2.4662519e-05
202	1.01	3.043902e-05	2.3997216e-05	2.5581347e-05
203	1.015	3.141538e-05	2.4907073e-05	2.6510628e-05
204	1.02	3.2397416e-05	2.5827248e-05	2.7450144e-05
205	1.025	3.338491e-05	2.6757483e-05	2.8399696e-05
206	1.03	3.4377663e-05	2.7697548e-05	2.9359115e-05
207	1.035	3.5375517e-05	2.8647237e-05	3.0328256e-05
208	1.04	3.6378326e-05	2.9606375e-05	3.1306998e-05
209	1.045	3.7385962e-05	3.0574807e-05	3.2295236e-05
210	1.05	3.839832e-05	3.155241e-05	3.3292883e-05
211	1.055	3.941531e-05	3.253906e-05	3.429988e-05
212	1.06	4.043686e-05	3.353468e-05	3.5316167e-05
213	1.065	4.1462896e-05	3.453919e-05	3.6341713e-05
214	1.07	4.249338e-05	3.555253e-05	3.737649e-05
215	1.075	4.3528256e-05	3.6574664e-05	3.8420487e-05
216	1.08	4.45675e-05	3.7605558e-05	3.94737e-05
217	1.085	4.561108e-05	3.8645187e-05	4.0536135e-05
218	1.09	4.665898e-05	3.9693554e-05	4.160781e-05
219	1.095	4.7711186e-05	4.075065e-05	4.268874e-05
220	1.1	4.8767684e-05	4.1816482e-05	4.377896e-05
221	1.105	4.982847e-05	4.289107e-05	4.4878496e-05
222	1.11	5.0893545e-05	4.397444e-05	4.5987385e-05
223	1.115	5.1962903e-05	4.5066605e-05	4.710567e-05
224	1.12	5.3036543e-05	4.6167606e-05	4.8233393e-05
225	1.125	5.4114476e-05	4.7277474e-05	4.9370603e-05
226	1.13	5.51967e-05	4.8396243e-05	5.051734e-05
227	1.135	5.6283217e-05	4.9523955e-05	5.167366e-05
228	1.14	5.7374036e-05	5.0660652e-05	5.2839616e-05
229	1.145	5.8469155e-05	5.1806375e-05	5.4015254e-05
230	1.15	5.9568585e-05	5.296117e-05	5.520062e-05
231	1.155	6.0672322e-05	5.412508e-05	5.6395776e-05
232	1.16	6.1780374e-05	5.5298147e-05	5.760077e-05
233	1.165	6.289274e-05	5.648042e-05	5.8815647e-05
234	1.17	6.4009415e-05	5.767194e-05	6.004046e-05
235	1.175	6.5130414e-05	5.8872753e-05	6.127526e-05
236	1.18	6.6255714e-05	6.0082897e-05	6.25201e-05
237	1.185	6.738533e-05	6.130242e-05	6.377501e-05
238	1.19	6.851924e-05	6.2531355e-05	6.5040054e-05
239	1.195	6.965745e-05	6.3769745e-05	6.631527e-05
240	1.2	7.079996e-05	6.501764e-05	6.76007e-05
241	1.205	7.1946735e-05	6.627506e-05	6.8896385e-05
242	1.21	7.309779e-05	6.7542045e-05	7.020237e-05
243	1.215	7.4253105e-05	6.881864e-05	7.151868e-05
244	1.22	7.541267e-05	7.010486e-05	7.2845374e-05
245	1.225	7.657646e-05	7.140076e-05	7.418248e-05
246	1.23	7.774447e-05	7.2706345e-05	7.553002e-05
247	1.235	7.891669e-05	7.4021664e-05	7.688804e-05
248	1.24	8.009308e-05	7.5346725e-05	7.825656e-05
249	1.245	8.127364e-05	7.6681565e-05	7.9635625e-05
250	1.25	8.245834e-05	7.80262e-05	8.102525e-05
251	1.255	8.3647166e-05	7.938066e-05	8.2425475e-05
252	1.26	8.4840096e-05	8.074496e-05	8.383631e-05
253	1.265	8.60371e-05	8.211912e-05	8.525779e-05
254	1.27	8.723816e-05	8.350316e-05	8.6689935e-05
255	1.275	8.8443245e-05	8.4897096e-05	8.813276e-05
256	1.28	8.9652334e-05	8.630094e-05	8.958629e-05
257	1.285	9.08654e-05	8.771471e-05	9.105055e-05
258	1.29	9.208241e-05	8.913841e-05	9.252555e-05
259	1.295	9.3303344e-05	9.057206e-05	9.401131e-05
260	1.3	9.452817e-05	9.201566e-05	9.5507836e-05
261	1.305	9.575686e-05	9.346922e-05	9.701516e-05
262	1.31	9.698939e-05	9.493276e-05	9.853327e-05
263	1.315	9.822571e-05	9.640627e-05	0.00010006221
264	1.32	9.946581e-05	9.788977e-05	0.00010160196
265	1.325	0.00010070965	9.938325e-05	0.000103152546
266	1.33	0.0001019572	0.000100886726	0.00010471398
267	1.335	0.000103208426	0.00010240019	0.000106286265
268	1.34	0.0001044633	0.00010392365	0.000107869404
269	1.345	0.00010572179	0.000105457104	0.000109463406
270	1.35	0.000106983854	0.000107000546	0.000111068286
271	1.355	0.00010824947	0.00010855398	0.000112684036
272	1.36	0.0001095186	0.000110117406	0.00011431067
273	1.365	0.00011079121	0.00011169082	0.00011594818
274	1.37	0.00011206727	0.00011327421	0.00011759659
275	1.375	0.000113346745	0.00011486759	0.00011925588
276	1.38	0.0001146296	0.00011647094	0.00012092606
277	1.385	0.0001159158	0.00011808425	0.00012260713
278	1.39	0.00011720531	0.00011970753	0.0001242991
279	1.395	0.00011849811	0.00012134077	0.00012600196
280	1.4	0.000119794146	0.00012298395	0.00012771571
281	1.405	0.000121093406	0.00012463708	0.00012944036
282	1.41	0.00012239584	0.00012630015	0.0001311759
283	1.415	0.00012370142	0.00012797312	0.00013292232
284	1.42	0.0001250101	0.00012965602	0.00013467962
285	1.425	0.00012632189	0.00013134883	0.00013644781
286	1.43	0.0001276367	0.00013305154	0.00013822688
287	1.435	0.00012895453	0.00013476412	0.00014001683
288	1.44	0.00013027534	0.00013648657	0.00014181765
289	1.445	0.0001315991	0.00013821891	0.00014362934
290	1.45	0.00013292578	0.00013996109	0.0001454519
291	1.455	0.00013425533	0.00014171311	0.0001472853
292	1.46	0.00013558773	0.00014347496	0.00014912957
293	1.465	0.00013692296	0.00014524662	0.00015098469
294	1.47	0.00013826096	0.0001470281	0.00015285065
295	1.475	0.00013960173	0.00014881935	0.00015472746
296	1.48	0.00014094522	0.0001506204	0.0001566151
297	1.485	0.0001422914	0.00015243121	0.00015851356
298	1.49	0.00014364025	0.00015425177	0.00016042285
299	1.495	0.00014499172	0.00015608207	0.00016234294
300	1.5	0.00014634579	0.0001579221	0.00016427385
301	1.505	0.00014770243	0.00015977184	0.00016621556
302	1.51	0.00014906161	0.00016163127	0.00016816806
303	1.515	0.00015042331	0.00016350039	0.00017013134
304	1.52	0.00015178748	0.00016537917	0.00017210541
305	1.525	0.00015315409	0.00016726762	0.00017409025
306	1.53	0.00015452314	0.0001691657	0.00017608584
307	1.535	0.00015589457	0.00017107339	0.0001780922
308	1.54	0.00015726837	0.00017299071	0.0001801093
309	1.545	0.00015864451	0.00017491762	0.00018213716
310	1.55	0.00016002294	0.00017685411	0.00018417573
311	1.555	0.00016140367	0.00017880017	0.00018622502
312	1.56	0.00016278666	0.00018075576	0.00018828503
313	1.565	0.00016417186	0.00018272089	0.00019035576
314	1.57	0.00016555926	0.00018469556	0.00019243718
315	1.575	0.00016694883	0.00018667971	0.00019452929
316	1.58	0.00016834054	0.00018867335	0.00019663207
317	1.585	0.00016973438	0.00019067645	0.00019874553
318	1.59	0.00017113032	0.00019268903	0.00020086966
319	1.595	0.00017252832	0.00019471103	0.00020300444
320	1.6	0.00017392836	0.00019674246	0.00020514986
321	1.605	0.00017533041	0.0001987833	0.00020730591
322	1.61	0.00017673447	0.00020083353	0.0002094726
323	1.615	0.00017814049	0.00020289313	0.00021164991
324	1.62	0.00017954844	0.0002049621	0.00021383782
325	1.625	0.00018095832	0.0002070404	0.00021603632
326	1.63	0.00018237009	0.00020912803	0.00021824542
327	1.635	0.00018378373	0.00021122498	0.0002204651
328	1.64	0.00018519923	0.00021333122	0.00022269535
329	1.645	0.00018661655	0.00021544674	0.00022493616
330	1.65	0.00018803567	0.0002175715	0.00022718753
331	1.655	0.00018945658	0.00021970553	0.00022944943
332	1.66	0.00019087923	0.00022184878	0.00023172186
333	1.665	0.00019230362	0.00022400125	0.00023400482
334	1.67	0.00019372972	0.00022616291	0.00023629829
335	1.675	0.00019515753	0.00022833375	0.00023860227
336	1.68	0.00019658699	0.00023051375	0.00024091674
337	1.685	0.0001980181	0.0002327029	0.0002432417
338	1.69	0.00019945085	0.00023490118	0.00024557713
339	1.695	0.00020088519	0.00023710857	0.00024792302
340	1.7	0.00020232113	0.00023932508	0.00025027935
341	1.705	0.00020375864	0.00024155065	0.00025264613
342	1.71	0.00020519768	0.00024378528	0.00025502336
343	1.715	0.00020663826	0.00024602897	0.000257411
344	1.72	0.00020808034	0.0002482817	0.00025980908
345	1.725	0.0002095239	0.0002505434	0.00026221754
346	1.73	0.00021096894	0.00025281415	0.0002646364
347	1.735	0.00021241543	0.00025509385	0.00026706562
348	1.74	0.00021386334	0.00025738252	0.00026950525
349	1.745	0.00021531267	0.00025968015	0.0002719552
350	1.75	0.0002167634	0.00026198672	0.00027441554
351	1.755	0.00021821549	0.0002643022	0.00027688622
352	1.76	0.00021966895	0.00026662656	0.00027936723
353	1.765	0.00022112373	0.00026895982	0.00028185855
354	1.77	0.00022257985	0.00027130192	0.0002843602
355	1.775	0.00022403727	0.0002736529	0.00028687215
356	1.78	0.00022549598	0.0002760127	0.00028939437
357	1.785	0.00022695596	0.0002783813	0.0002919269
358	1.79	0.0002284172	0.00028075872	0.00029446968
359	1.795	0.00022987966	0.0002831449	0.00029702275
360	1.8	0.00023134335	0.0002855399	0.00029958604
361	1.805	0.00023280825	0.0002879436	0.00030215958
362	1.81	0.00023427432	0.00029035605	0.00030474336
363	1.815	0.0002357416	0.0002927772	0.00030733735
364	1.82	0.00023721	0.00029520708	0.00030994153
365	1.825	0.00023867957	0.00029764563	0.00031255593
366	1.83	0.00024015024	0.00030009283	0.0003151805
367	1.835	0.00024162204	0.0003025487	0.00031781528
368	1.84	0.00024309492	0.0003050132	0.0003204602
369	1.845	0.00024456892	0.0003074863	0.00032311532
370	1.85	0.00024604396	0.00030996802	0.00032578054
371	1.855	0.00024752005	0.00031245832	0.0003284559
372	1.86	0.00024899718	0.0003149572	0.0003311414
373	1.865	0.00025047534	0.0003174646	0.00033383703
374	1.87	0.00025195448	0.00031998058	0.00033654275
375	1.875	0.00025343464	0.00032250505	0.00033925855
376	1.88	0.0002549158	0.000325038	0.00034198444
377	1.885	0.0002563979	0.00032757947	0.0003447204
378	1.89	0.00025788098	0.0003301294	0.00034746644
379	1.895	0.00025936498	0.0003326878	0.00035022252
380	1.9	0.00026084995	0.00033525462	0.00035298863
381	1.905	0.0002623358	0.00033782987	0.0003557648
382	1.91	0.00026382256	0.0003404135	0.00035855095
383	1.915	0.00026531023	0.00034300552	0.00036134713
384	1.92	0.00026679874	0.00034560592	0.0003641533
385	1.925	0.00026828816	0.00034821467	0.00036696947
386	1.93	0.00026977842	0.00035083177	0.00036979563
387	1.935	0.0002712695	0.00035345717	0.0003726317
388	1.94	0.00027276145	0.0003560909	0.00037547777
389	1.945	0.00027425418	0.0003587329	0.0003783338
390	1.95	0.00027574773	0.0003613832	0.00038119973
391	1.955	0.0002772421	0.0003640417	0.0003840756
392	1.96	0.00027873722	0.0003667085	0.00038696136
393	1.965	0.00028023313	0.0003693835	0.00038985704
394	1.97	0.0002817298	0.0003720667	0.00039276262
395	1.975	0.00028322724	0.0003747581	0.00039567807
396	1.98	0.0002847254	0.00037745768	0.00039860338
397	1.985	0.00028622427	0.00038016538	0.00040153856
398	1.99	0.0002877239	0.00038288126	0.00040448358
399	1.995	0.0002892242	0.00038560526	0.00040743846
400	2.0	0.00029072523	0.00038833736	0.00041040312
401	2.005	0.00029222693	0.00039107754	0.00041337765
402	2.01	0.0002937293	0.00039382582	0.00041636196
403	2.015	0.00029523237	0.00039658215	0.00041935605
404	2.02	0.00029673608	0.00039934655	0.00042235994
405	2.025	0.00029824043	0.00040211895	0.00042537358
406	2.03	0.0002997454	0.00040489936	0.000428397
407	2.035	0.00030125104	0.0004076878	0.00043143018
408	2.04	0.00030275728	0.00041048418	0.00043447307
409	2.045	0.00030426413	0.00041328854	0.0004375257
410	2.05	0.00030577157	0.00041610084	0.00044058805
411	2.055	0.0003072796	0.0004189211	0.0004436601
412	2.06	0.00030878824	0.00042174922	0.00044674188
413	2.065	0.00031029742	0.00042458528	0.0004498333
414	2.07	0.00031180718	0.00042742922	0.00045293442
415	2.075	0.0003133175	0.000430281	0.00045604518
416	2.08	0.00031482836	0.00043314067	0.0004591656
417	2.085	0.00031633978	0.00043600815	0.00046229566
418	2.09	0.0003178517	0.00043888346	0.00046543535
419	2.095	0.00031936416	0.00044176658	0.00046858465
420	2.1	0.00032087712	0.00044465746	0.00047174358
421	2.105	0.00032239058	0.00044755614	0.00047491209
422	2.11	0.00032390456	0.00045046254	0.0004780902
423	2.115	0.000325419	0.0004533767	0.00048127785
424	2.12	0.00032693395	0.00045629859	0.00048447508
425	2.125	0.00032844936	0.00045922818	0.0004876819
426	2.13	0.00032996523	0.00046216545	0.0004908982
427	2.135	0.00033148157	0.0004651104	0.0004941241
428	2.14	0.00033299837	0.00046806302	0.00049735943
429	2.145	0.0003345156	0.0004710233	0.00050060434
430	2.15	0.00033603326	0.00047399118	0.00050385867
431	2.155	0.00033755135	0.00047696667	0.00050712255
432	2.16	0.00033906987	0.00047994975	0.0005103959
433	2.165	0.0003405888	0.00048294044	0.0005136787
434	2.17	0.00034210813	0.00048593865	0.00051697093
435	2.175	0.00034362788	0.00048894447	0.00052027265
436	2.18	0.000345148	0.00049195776	0.00052358373
437	2.185	0.0003466685	0.00049497857	0.0005269043
438	2.19	0.0003481894	0.00049800694	0.00053023425
439	2.195	0.00034971067	0.00050104276	0.00053357356
440	2.2	0.0003512323	0.000504086	0.0005369223
441	2.205	0.00035275432	0.00050713675	0.0005402804
442	2.21	0.00035427665	0.0005101949	0.00054364785
443	2.215	0.00035579933	0.00051326054	0.0005470247
444	2.22	0.0003573224	0.0005163335	0.0005504108
445	2.225	0.00035884575	0.0005194139	0.0005538063
446	2.23	0.00036036945	0.0005225017	0.0005572111
447	2.235	0.00036189347	0.0005255968	0.0005606252
448	2.24	0.0003634178	0.00052869925	0.0005640486
449	2.245	0.00036494245	0.00053180906	0.0005674813
450	2.25	0.0003664674	0.0005349262	0.00057092326
451	2.255	0.00036799267	0.0005380506	0.00057437446
452	2.26	0.0003695182	0.0005411823	0.0005778349
453	2.265	0.00037104404	0.00054432126	0.0005813046
454	2.27	0.00037257015	0.00054746744	0.00058478356
455	2.275	0.00037409656	0.0005506209	0.0005882717
456	2.28	0.0003756232	0.0005537815	0.00059176906
457	2.285	0.00037715014	0.0005569494	0.0005952756
458	2.29	0.00037867733	0.0005601244	0.0005987913
459	2.295	0.00038020476	0.0005633067	0.00060231617
460	2.3	0.00038173248	0.00056649605	0.00060585025
461	2.305	0.0003832604	0.0005696925	0.00060939346
462	2.31	0.00038478858	0.00057289616	0.00061294576
463	2.315	0.000386317	0.00057610695	0.00061650726
464	2.32	0.00038784562	0.0005793248	0.0006200778
465	2.325	0.0003893745	0.0005825497	0.0006236575
466	2.33	0.00039090356	0.0005857817	0.0006272462
467	2.335	0.00039243288	0.0005890207	0.0006308441
468	2.34	0.00039396237	0.0005922668	0.000634451
469	2.345	0.0003954921	0.0005955199	0.00063806697
470	2.35	0.000397022	0.00059878	0.00064169196
471	2.355	0.0003985521	0.0006020471	0.000645326
472	2.36	0.0004000824	0.00060532114	0.0006489691
473	2.365	0.0004016129	0.00060860213	0.00065262115
474	2.37	0.00040314358	0.0006118901	0.0006562822
475	2.375	0.0004046744	0.00061518495	0.0006599523
476	2.38	0.00040620545	0.0006184867	0.0006636313
477	2.385	0.00040773663	0.0006217954	0.0006673193
478	2.39	0.000409268	0.000625111	0.0006710162
479	2.395	0.00041079952	0.0006284334	0.00067472213
480	2.4	0.0004123312	0.0006317627	0.00067843695
481	2.405	0.00041386302	0.00063509884	0.0006821607
482	2.41	0.00041539498	0.00063844176	0.00068589335
483	2.415	0.0004169271	0.0006417915	0.0006896349
484	2.42	0.00041845939	0.00064514804	0.0006933853
485	2.425	0.00041999176	0.00064851134	0.0006971446
486	2.43	0.0004215243	0.0006518814	0.0007009128
487	2.435	0.00042305698	0.0006552582	0.0007046898
488	2.44	0.00042458976	0.00065864174	0.00070847565
489	2.445	0.00042612266	0.000662032	0.0007122703
490	2.45	0.00042765567	0.000665429	0.0007160738
491	2.455	0.00042918883	0.0006688326	0.0007198861
492	2.46	0.00043072208	0.0006722429	0.0007237072
493	2.465	0.00043225545	0.00067565986	0.00072753703
494	2.47	0.0004337889	0.00067908346	0.00073137565
495	2.475	0.00043532246	0.0006825137	0.00073522306
496	2.48	0.00043685612	0.0006859505	0.0007390792
497	2.485	0.00043838986	0.00068939396	0.0007429441
498	2.49	0.00043992372	0.000692844	0.0007468177
499	2.495	0.00044145764	0.0006963005	0.00075069995
500	2.5	0.00044299164	0.00069976365	0.00075459096
501	2.505	0.00044452574	0.00070323335	0.00075849064
502	2.51	0.00044605992	0.0007067095	0.000762399
503	2.515	0.00044759415	0.0007101922	0.000766316
504	2.52	0.00044912848	0.0007136814	0.0007702417
505	2.525	0.00045066286	0.00071717706	0.00077417603
506	2.53	0.0004521973	0.0007206792	0.00077811896
507	2.535	0.0004537318	0.0007241877	0.0007820705
508	2.54	0.0004552664	0.00072770275	0.00078603067
509	2.545	0.000456801	0.00073122414	0.00078999944
510	2.55	0.00045833568	0.000734752	0.0007939768
511	2.555	0.0004598704	0.0007382862	0.0007979627
512	2.56	0.00046140517	0.0007418267	0.0008019572
513	2.565	0.00046294	0.00074537366	0.0008059602
514	2.57	0.00046447484	0.00074892695	0.00080997177
515	2.575	0.00046600975	0.0007524866	0.0008139919
516	2.58	0.00046754468	0.0007560525	0.00081802043
517	2.585	0.00046907965	0.00075962476	0.00082205754
518	2.59	0.00047061464	0.00076320325	0.00082610315
519	2.595	0.00047214967	0.000766788	0.0008301572
520	2.6	0.00047368472	0.0007703791	0.00083421974
521	2.605	0.0004752198	0.0007739764	0.0008382907
522	2.61	0.00047675488	0.0007775799	0.00084237015
523	2.615	0.00047829	0.0007811896	0.000846458
524	2.62	0.00047982513	0.0007848055	0.00085055426
525	2.625	0.00048136027	0.00078842766	0.00085465895
526	2.63	0.0004828954	0.0007920559	0.000858772
527	2.635	0.00048443058	0.00079569034	0.0008628935
528	2.64	0.00048596575	0.00079933094	0.0008670233
529	2.645	0.00048750092	0.00080297765	0.0008711615
530	2.65	0.0004890361	0.0008066305	0.00087530806
531	2.655	0.00049057126	0.0008102894	0.0008794629
532	2.66	0.0004921064	0.0008139544	0.00088362617
533	2.665	0.0004936416	0.0008176255	0.0008877977
534	2.67	0.00049517676	0.00082130264	0.0008919775
535	2.675	0.00049671193	0.0008249858	0.0008961656
536	2.68	0.00049824704	0.000828675	0.000900362
537	2.685	0.00049978215	0.0008323702	0.00090456667
538	2.69	0.00050131726	0.00083607144	0.00090877956
539	2.695	0.0005028524	0.00083977863	0.0009130007
540	2.7	0.0005043874	0.0008434918	0.0009172301
541	2.705	0.0005059225	0.00084721093	0.0009214677
542	2.71	0.00050745753	0.000850936	0.0009257135
543	2.715	0.0005089925	0.000854667	0.00092996756
544	2.72	0.0005105275	0.0008584039	0.00093422976
545	2.725	0.00051206246	0.0008621467	0.0009385001
546	2.73	0.00051359733	0.0008658954	0.00094277866
547	2.735	0.0005151322	0.00086965	0.0009470653
548	2.74	0.0005166671	0.00087341043	0.00095136015
549	2.745	0.0005182019	0.0008771767	0.0009556631
550	2.75	0.00051973667	0.00088094885	0.00095997413
551	2.755	0.0005212714	0.00088472676	0.00096429326
552	2.76	0.0005228061	0.0008885105	0.00096862053
553	2.765	0.0005243407	0.00089230004	0.00097295584
554	2.77	0.0005258753	0.0008960953	0.0009772993
555	2.775	0.0005274099	0.0008998964	0.0009816507
556	2.78	0.00052894437	0.00090370316	0.0009860102
557	2.785	0.00053047884	0.0009075157	0.0009903777
558	2.79	0.00053201325	0.000911334	0.0009947532
559	2.795	0.0005335476	0.00091515796	0.0009991368
560	2.8	0.0005350819	0.0009189876	0.0010035284
561	2.805	0.00053661613	0.0009228229	0.0010079279
562	2.81	0.0005381503	0.0009266639	0.0010123354
563	2.815	0.00053968444	0.0009305106	0.0010167508
564	2.82	0.0005412185	0.0009343629	0.0010211742
565	2.825	0.0005427525	0.0009382208	0.0010256056
566	2.83	0.00054428645	0.00094208436	0.0010300449
567	2.835	0.00054582034	0.0009459535	0.001034492
568	2.84	0.0005473541	0.0009498282	0.0010389471
569	2.845	0.0005488879	0.0009537084	0.0010434102
570	2.85	0.00055042154	0.00095759425	0.0010478811
571	2.855	0.00055195513	0.00096148567	0.0010523597
572	2.86	0.0005534887	0.00096538255	0.0010568463
573	2.865	0.00055502215	0.00096928497	0.0010613408
574	2.87	0.0005565555	0.0009731929	0.001065843
575	2.875	0.0005580888	0.0009771063	0.0010703531
576	2.88	0.0005596221	0.0009810252	0.0010748709
577	2.885	0.0005611552	0.0009849495	0.0010793967
578	2.89	0.0005626883	0.0009888794	0.0010839301
579	2.895	0.0005642213	0.0009928145	0.0010884714
580	2.9	0.0005657542	0.0009967552	0.0010930203
581	2.905	0.00056728703	0.0010007013	0.0010975772
582	2.91	0.00056881976	0.0010046528	0.0011021416
583	2.915	0.0005703524	0.0010086097	0.0011067138
584	2.92	0.00057188503	0.0010125719	0.0011112937
585	2.925	0.0005734175	0.0010165394	0.0011158814
586	2.93	0.0005749499	0.0010205123	0.0011204766
587	2.935	0.0005764822	0.0010244906	0.0011250797
588	2.94	0.0005780144	0.0010284741	0.0011296903
589	2.945	0.00057954655	0.0010324629	0.0011343086
590	2.95	0.0005810786	0.0010364571	0.0011389346
591	2.955	0.00058261055	0.0010404565	0.0011435682
592	2.96	0.0005841424	0.0010444612	0.0011482094
593	2.965	0.0005856742	0.0010484711	0.0011528583
594	2.97	0.0005872058	0.0010524862	0.0011575146
595	2.975	0.00058873737	0.0010565066	0.0011621786
596	2.98	0.0005902689	0.0010605323	0.0011668502
597	2.985	0.00059180026	0.001064563	0.0011715293
598	2.99	0.0005933315	0.001068599	0.0011762159
599	2.995	0.0005948627	0.0010726403	0.0011809102
600	3.0	0.0005963937	0.0010766865	0.0011856119
601	3.005	0.0005979247	0.001080738	0.0011903212
602	3.01	0.00059945555	0.0010847946	0.001195038
603	3.015	0.0006009863	0.0010888564	0.0011997622
604	3.02	0.000602517	0.0010929232	0.0012044939
605	3.025	0.00060404756	0.0010969951	0.0012092331
606	3.03	0.00060557795	0.0011010721	0.0012139797
607	3.035	0.0006071083	0.0011051542	0.0012187338
608	3.04	0.0006086385	0.0011092413	0.0012234953
609	3.045	0.0006101687	0.0011133335	0.0012282643
610	3.05	0.00061169866	0.0011174306	0.0012330406
611	3.055	0.0006132286	0.0011215329	0.0012378243
612	3.06	0.00061475835	0.0011256401	0.0012426155
613	3.065	0.00061628805	0.0011297524	0.0012474139
614	3.07	0.0006178176	0.0011338695	0.0012522198
615	3.075	0.00061934703	0.0011379917	0.001257033
616	3.08	0.0006208764	0.0011421188	0.0012618535
617	3.085	0.0006224056	0.0011462509	0.0012666815
618	3.09	0.0006239347	0.0011503878	0.0012715166
619	3.095	0.0006254637	0.0011545297	0.0012763591
620	3.1	0.0006269926	0.0011586766	0.0012812088
621	3.105	0.0006285214	0.0011628283	0.0012860659
622	3.11	0.00063005	0.0011669849	0.0012909302
623	3.115	0.00063157856	0.0011711463	0.0012958018
624	3.12	0.000633107	0.0011753126	0.0013006806
625	3.125	0.0006346353	0.0011794837	0.0013055666
626	3.13	0.00063616346	0.0011836598	0.0013104599
627	3.135	0.0006376915	0.0011878405	0.0013153604
628	3.14	0.0006392194	0.0011920261	0.001320268
629	3.145	0.00064074725	0.0011962166	0.001325183
630	3.15	0.000642275	0.0012004117	0.001330105
631	3.155	0.0006438025	0.0012046116	0.0013350341
632	3.16	0.00064532994	0.0012088163	0.0013399705
633	3.165	0.0006468573	0.0012130258	0.001344914
634	3.17	0.0006483845	0.0012172399	0.0013498645
635	3.175	0.0006499116	0.0012214588	0.0013548223
636	3.18	0.00065143855	0.0012256823	0.0013597871
637	3.185	0.00065296533	0.0012299106	0.001364759
638	3.19	0.00065449206	0.0012341436	0.001369738
639	3.195	0.0006560186	0.0012383813	0.0013747241
640	3.2	0.0006575451	0.0012426235	0.0013797171
641	3.205	0.00065907143	0.0012468705	0.0013847174
642	3.21	0.00066059764	0.0012511221	0.0013897246
643	3.215	0.00066212367	0.0012553782	0.0013947388
644	3.22	0.00066364964	0.001259639	0.00139976
645	3.225	0.00066517544	0.0012639045	0.0014047882
646	3.23	0.0006667011	0.0012681744	0.0014098234
647	3.235	0.0006682267	0.001272449	0.0014148656
648	3.24	0.00066975213	0.0012767281	0.0014199148
649	3.245	0.0006712774	0.0012810117	0.0014249709
650	3.25	0.0006728026	0.0012853	0.0014300339
651	3.255	0.00067432766	0.0012895927	0.0014351038
652	3.26	0.0006758526	0.00129389	0.0014401808
653	3.265	0.00067737733	0.0012981917	0.0014452646
654	3.27	0.00067890197	0.0013024979	0.0014503553
655	3.275	0.0006804265	0.0013068087	0.0014554528
656	3.28	0.0006819509	0.0013111238	0.0014605572
657	3.285	0.00068347517	0.0013154434	0.0014656686
658	3.29	0.0006849993	0.0013197676	0.0014707866
659	3.295	0.0006865233	0.0013240961	0.0014759116
660	3.3	0.00068804715	0.001328429	0.0014810434
661	3.305	0.00068957085	0.0013327664	0.0014861821
662	3.31	0.00069109444	0.0013371081	0.0014913274
663	3.315	0.0006926179	0.0013414542	0.0014964796
664	3.32	0.00069414126	0.0013458047	0.0015016387
665	3.325	0.00069566444	0.0013501595	0.0015068044
666	3.33	0.0006971875	0.0013545187	0.0015119769
667	3.335	0.00069871044	0.0013588823	0.0015171561
668	3.34	0.0007002332	0.0013632501	0.0015223421
669	3.345	0.00070175587	0.0013676223	0.0015275348
670	3.35	0.0007032784	0.0013719988	0.0015327343
671	3.355	0.00070480077	0.0013763795	0.0015379403
672	3.36	0.0007063231	0.0013807645	0.0015431531
673	3.365	0.00070784515	0.0013851539	0.0015483726
674	3.37	0.00070936716	0.0013895475	0.0015535987
675	3.375	0.000710889	0.0013939453	0.0015588314
676	3.38	0.0007124107	0.0013983473	0.0015640708
677	3.385	0.00071393227	0.0014027536	0.0015693168
678	3.39	0.0007154537	0.0014071641	0.0015745695
679	3.395	0.000716975	0.0014115789	0.0015798288
680	3.4	0.0007184962	0.0014159977	0.0015850946
681	3.405	0.00072001724	0.0014204208	0.001590367
682	3.41	0.00072153815	0.001424848	0.001595646
683	3.415	0.0007230589	0.0014292793	0.0016009316
684	3.42	0.0007245795	0.0014337149	0.0016062238
685	3.425	0.0007261	0.0014381546	0.0016115224
686	3.43	0.0007276203	0.0014425984	0.0016168276
687	3.435	0.00072914053	0.0014470463	0.0016221392
688	3.44	0.0007306606	0.0014514982	0.0016274574
689	3.445	0.0007321806	0.0014559543	0.001632782
690	3.45	0.0007337004	0.0014604145	0.0016381133
691	3.455	0.00073522003	0.0014648787	0.0016434508
692	3.46	0.00073673954	0.0014693469	0.001648795
693	3.465	0.00073825894	0.0014738193	0.0016541454
694	3.47	0.0007397782	0.0014782957	0.0016595024
695	3.475	0.0007412973	0.001482776	0.0016648658
696	3.48	0.0007428163	0.0014872605	0.0016702355
697	3.485	0.0007443352	0.0014917488	0.0016756117
698	3.49	0.0007458539	0.0014962412	0.0016809943
699	3.495	0.0007473724	0.0015007375	0.0016863833
700	3.5	0.00074889086	0.0015052379	0.0016917785
701	3.505	0.00075040915	0.0015097421	0.0016971802
702	3.51	0.0007519273	0.0015142503	0.0017025883
703	3.515	0.0007534453	0.0015187626	0.0017080026
704	3.52	0.0007549632	0.0015232785	0.0017134233
705	3.525	0.0007564809	0.0015277986	0.0017188502
706	3.53	0.00075799855	0.0015323225	0.0017242834
707	3.535	0.000759516	0.0015368502	0.0017297231
708	3.54	0.0007610333	0.0015413819	0.0017351689
709	3.545	0.0007625505	0.0015459175	0.0017406209
710	3.55	0.0007640676	0.0015504569	0.0017460793
711	3.555	0.0007655845	0.0015550001	0.0017515438
712	3.56	0.0007671013	0.0015595471	0.0017570147
713	3.565	0.0007686179	0.001564098	0.0017624917
714	3.57	0.00077013444	0.0015686528	0.0017679749
715	3.575	0.0007716508	0.0015732114	0.0017734643
716	3.58	0.000773167	0.0015777737	0.0017789599
717	3.585	0.00077468314	0.0015823398	0.0017844617
718	3.59	0.0007761991	0.0015869098	0.0017899696
719	3.595	0.0007777149	0.0015914834	0.0017954838
720	3.6	0.00077923056	0.0015960608	0.0018010039
721	3.605	0.0007807461	0.0016006419	0.0018065303
722	3.61	0.00078226154	0.0016052268	0.0018120628
723	3.615	0.0007837768	0.0016098154	0.0018176014
724	3.62	0.00078529195	0.0016144078	0.001823146
725	3.625	0.0007868069	0.0016190037	0.0018286968
726	3.63	0.0007883218	0.0016236034	0.0018342537
727	3.635	0.0007898365	0.0016282068	0.0018398166
728	3.64	0.00079135114	0.0016328138	0.0018453854
729	3.645	0.0007928656	0.0016374246	0.0018509604
730	3.65	0.0007943799	0.0016420389	0.0018565415
731	3.655	0.00079589407	0.001646657	0.0018621285
732	3.66	0.0007974081	0.0016512786	0.0018677214
733	3.665	0.00079892203	0.0016559039	0.0018733206
734	3.67	0.0008004358	0.0016605328	0.0018789255
735	3.675	0.0008019494	0.0016651652	0.0018845365
736	3.68	0.0008034629	0.0016698012	0.0018901534
737	3.685	0.0008049763	0.0016744409	0.0018957763
738	3.69	0.00080648955	0.001679084	0.001901405
739	3.695	0.00080800266	0.0016837309	0.0019070398
740	3.7	0.0008095156	0.0016883811	0.0019126805
741	3.705	0.0008110284	0.001693035	0.0019183271
742	3.71	0.0008125411	0.0016976923	0.0019239795
743	3.715	0.0008140537	0.0017023532	0.0019296379
744	3.72	0.0008155661	0.0017070177	0.001935302
745	3.725	0.0008170784	0.0017116854	0.0019409722
746	3.73	0.0008185906	0.0017163568	0.0019466481
747	3.735	0.0008201026	0.0017210317	0.0019523299
748	3.74	0.00082161446	0.00172571	0.0019580175
749	3.745	0.00082312623	0.0017303919	0.0019637109
750	3.75	0.0008246378	0.001735077	0.00196941
751	3.755	0.0008261493	0.0017397658	0.001975115
752	3.76	0.00082766067	0.0017444578	0.0019808258
753	3.765	0.0008291719	0.0017491534	0.0019865425
754	3.77	0.000830683	0.0017538522	0.0019922648
755	3.775	0.00083219394	0.0017585546	0.0019979929
756	3.78	0.0008337048	0.0017632602	0.0020037265
757	3.785	0.00083521544	0.0017679693	0.002009466
758	3.79	0.000836726	0.0017726818	0.0020152114
759	3.795	0.0008382364	0.0017773976	0.0020209623
760	3.8	0.00083974673	0.0017821168	0.002026719
761	3.805	0.0008412569	0.0017868393	0.0020324814
762	3.81	0.0008427669	0.0017915651	0.0020382493
763	3.815	0.0008442768	0.0017962942	0.002044023
764	3.82	0.0008457866	0.0018010268	0.0020498023
765	3.825	0.0008472962	0.0018057625	0.0020555875
766	3.83	0.0008488057	0.0018105016	0.002061378
767	3.835	0.0008503151	0.001815244	0.0020671743
768	3.84	0.00085182436	0.0018199895	0.002072976
769	3.845	0.00085333345	0.0018247385	0.0020787835
770	3.85	0.0008548424	0.0018294905	0.0020845965
771	3.855	0.0008563513	0.001834246	0.002090415
772	3.86	0.00085786	0.0018390046	0.0020962392
773	3.865	0.0008593686	0.0018437664	0.002102069
774	3.87	0.0008608771	0.0018485314	0.0021079043
775	3.875	0.00086238544	0.0018532997	0.002113745
776	3.88	0.0008638936	0.0018580712	0.0021195915
777	3.885	0.0008654017	0.0018628458	0.0021254432
778	3.89	0.0008669096	0.0018676237	0.0021313005
779	3.895	0.0008684175	0.0018724046	0.0021371634
780	3.9	0.0008699252	0.0018771888	0.0021430317
781	3.905	0.0008714327	0.0018819761	0.0021489053
782	3.91	0.0008729402	0.0018867665	0.0021547845
783	3.915	0.00087444746	0.0018915602	0.0021606693
784	3.92	0.0008759547	0.0018963568	0.0021665595
785	3.925	0.00087746175	0.0019011566	0.002172455
786	3.93	0.0008789687	0.0019059596	0.0021783558
787	3.935	0.00088047545	0.0019107657	0.0021842623
788	3.94	0.00088198215	0.0019155747	0.002190174
789	3.945	0.0008834887	0.0019203869	0.002196091
790	3.95	0.00088499516	0.0019252021	0.0022020135
791	3.955	0.00088650145	0.0019300204	0.0022079414
792	3.96	0.0008880076	0.0019348417	0.0022138746
793	3.965	0.00088951364	0.0019396662	0.0022198132
794	3.97	0.0008910196	0.0019444936	0.002225757
795	3.975	0.00089252536	0.001949324	0.0022317064
796	3.98	0.0008940311	0.0019541576	0.0022376608
797	3.985	0.0008955366	0.001958994	0.0022436206
798	3.99	0.00089704205	0.0019638333	0.0022495857
799	3.995	0.00089854735	0.001968676	0.0022555562
800	4.0	0.00090005255	0.0019735214	0.0022615318
801	4.005	0.00090155756	0.0019783697	0.0022675125
802	4.01	0.0009030625	0.0019832212	0.0022734988
803	4.015	0.0009045673	0.0019880754	0.00227949
804	4.02	0.00090607203	0.0019929328	0.0022854868
805	4.025	0.0009075766	0.0019977929	0.0022914885
806	4.03	0.000909081	0.002002656	0.0022974955
807	4.035	0.00091058534	0.002007522	0.0023035076
808	4.04	0.00091208954	0.0020123909	0.0023095252
809	4.045	0.0009135936	0.0020172626	0.0023155478
810	4.05	0.0009150976	0.0020221374	0.0023215753
811	4.055	0.00091660145	0.002027015	0.0023276082
812	4.06	0.0009181052	0.0020318956	0.0023336462
813	4.065	0.00091960875	0.0020367787	0.0023396893
814	4.07	0.00092111225	0.002041665	0.0023457378
815	4.075	0.0009226156	0.0020465541	0.0023517911
816	4.08	0.00092411885	0.002051446	0.0023578494
817	4.085	0.00092562195	0.0020563407	0.002363913
818	4.09	0.00092712493	0.002061238	0.0023699817
819	4.095	0.00092862785	0.0020661384	0.0023760553
820	4.1	0.0009301306	0.0020710416	0.002382134
821	4.105	0.0009316332	0.0020759476	0.002388218
822	4.11	0.0009331358	0.0020808561	0.0023943067
823	4.115	0.0009346382	0.0020857677	0.0024004006
824	4.12	0.0009361405	0.002090682	0.0024064996
825	4.125	0.00093764265	0.002095599	0.0024126035
826	4.13	0.0009391447	0.0021005187	0.0024187122
827	4.135	0.0009406466	0.0021054412	0.0024248261
828	4.14	0.0009421485	0.0021103665	0.002430945
829	4.145	0.0009436502	0.0021152946	0.0024370688
830	4.15	0.0009451518	0.0021202252	0.0024431974
831	4.155	0.00094665325	0.0021251584	0.002449331
832	4.16	0.0009481546	0.0021300947	0.00245547
833	4.165	0.00094965583	0.0021350335	0.0024616134
834	4.17	0.000951157	0.0021399749	0.0024677617
835	4.175	0.000952658	0.002144919	0.0024739152
836	4.18	0.0009541589	0.002149866	0.0024800734
837	4.185	0.0009556597	0.0021548155	0.0024862366
838	4.19	0.0009571604	0.0021597676	0.0024924045
839	4.195	0.00095866097	0.0021647222	0.0024985773
840	4.2	0.0009601614	0.0021696796	0.002504755
841	4.205	0.00096166175	0.0021746398	0.0025109376
842	4.21	0.00096316193	0.0021796024	0.002517125
843	4.215	0.00096466206	0.0021845677	0.0025233172
844	4.22	0.0009661621	0.0021895354	0.0025295143
845	4.225	0.0009676619	0.0021945059	0.0025357162
846	4.23	0.0009691617	0.0021994791	0.0025419227
847	4.235	0.00097066135	0.0022044547	0.0025481342
848	4.24	0.00097216095	0.002209433	0.0025543503
849	4.245	0.0009736604	0.0022144136	0.0025605713
850	4.25	0.0009751597	0.0022193969	0.002566797
851	4.255	0.0009766589	0.0022243827	0.0025730273
852	4.26	0.000978158	0.002229371	0.0025792625
853	4.265	0.000979657	0.002234362	0.0025855023
854	4.27	0.0009811559	0.0022393556	0.0025917469
855	4.275	0.0009826547	0.0022443514	0.002597996
856	4.28	0.0009841534	0.00224935	0.00260425
857	4.285	0.000985652	0.002254351	0.0026105088
858	4.29	0.0009871504	0.0022593543	0.002616772
859	4.295	0.0009886487	0.0022643604	0.00262304
860	4.3	0.000990147	0.0022693689	0.0026293127
861	4.305	0.0009916452	0.0022743796	0.0026355898
862	4.31	0.0009931432	0.002279393	0.0026418718
863	4.315	0.0009946411	0.0022844088	0.0026481582
864	4.32	0.0009961389	0.002289427	0.0026544493
865	4.325	0.0009976366	0.0022944477	0.002660745
866	4.33	0.0009991342	0.0022994708	0.0026670455
867	4.335	0.0010006316	0.0023044962	0.0026733503
868	4.34	0.001002129	0.0023095242	0.0026796598
869	4.345	0.0010036263	0.0023145545	0.0026859737
870	4.35	0.0010051235	0.0023195872	0.0026922922
871	4.355	0.0010066206	0.0023246224	0.0026986154
872	4.36	0.0010081176	0.0023296599	0.002704943
873	4.365	0.0010096144	0.0023346997	0.0027112751
874	4.37	0.0010111112	0.002339742	0.0027176118
875	4.375	0.0010126078	0.0023447867	0.002723953
876	4.38	0.0010141043	0.0023498335	0.0027302986
877	4.385	0.0010156007	0.002354883	0.0027366488
878	4.39	0.0010170972	0.0023599344	0.0027430032
879	4.395	0.0010185933	0.0023649884	0.0027493623
880	4.4	0.0010200895	0.0023700446	0.0027557258
881	4.405	0.0010215855	0.0023751033	0.002762094
882	4.41	0.0010230815	0.002380164	0.0027684662
883	4.415	0.0010245773	0.0023852272	0.002774843
884	4.42	0.001026073	0.0023902927	0.0027812242
885	4.425	0.0010275687	0.0023953605	0.0027876098
886	4.43	0.0010290642	0.0024004306	0.0027939999
887	4.435	0.0010305597	0.0024055028	0.0028003943
888	4.44	0.001032055	0.0024105774	0.002806793
889	4.445	0.0010335501	0.0024156542	0.002813196
890	4.45	0.0010350454	0.0024207332	0.0028196035
891	4.455	0.0010365404	0.0024258145	0.0028260155
892	4.46	0.0010380353	0.0024308981	0.0028324316
893	4.465	0.0010395302	0.0024359839	0.0028388521
894	4.47	0.0010410248	0.002441072	0.0028452768
895	4.475	0.0010425195	0.002446162	0.002851706
896	4.48	0.001044014	0.0024512545	0.0028581393
897	4.485	0.0010455084	0.002456349	0.002864577
898	4.49	0.0010470027	0.0024614458	0.002871019
899	4.495	0.001048497	0.0024665447	0.0028774652
900	4.5	0.0010499911	0.0024716458	0.0028839158
901	4.505	0.0010514852	0.0024767492	0.0028903706
902	4.51	0.0010529791	0.0024818545	0.0028968295
903	4.515	0.001054473	0.0024869621	0.0029032927
904	4.52	0.0010559667	0.002492072	0.0029097602
905	4.525	0.0010574604	0.0024971839	0.0029162318
906	4.53	0.001058954	0.0025022977	0.0029227077
907	4.535	0.0010604474	0.002507414	0.0029291876
908	4.54	0.0010619408	0.0025125323	0.002935672
909	4.545	0.0010634342	0.0025176527	0.0029421602
910	4.55	0.0010649273	0.002522775	0.0029486527
911	4.555	0.0010664205	0.0025278996	0.0029551494
912	4.56	0.0010679134	0.0025330263	0.0029616503
913	4.565	0.0010694063	0.002538155	0.0029681553
914	4.57	0.0010708991	0.0025432857	0.0029746643
915	4.575	0.0010723919	0.0025484187	0.0029811775
916	4.58	0.0010738844	0.0025535536	0.002987695
917	4.585	0.001075377	0.0025586905	0.0029942163
918	4.59	0.0010768694	0.0025638295	0.0030007418
919	4.595	0.0010783618	0.0025689707	0.0030072713
920	4.6	0.0010798541	0.0025741137	0.003013805
921	4.605	0.0010813462	0.002579259	0.0030203427
922	4.61	0.0010828383	0.002584406	0.0030268845
923	4.615	0.0010843303	0.0025895552	0.00303343
924	4.62	0.0010858221	0.0025947064	0.00303998
925	4.625	0.001087314	0.0025998594	0.0030465338
926	4.63	0.0010888056	0.0026050147	0.0030530917
927	4.635	0.0010902972	0.0026101717	0.0030596536
928	4.64	0.0010917888	0.002615331	0.0030662194
929	4.645	0.0010932803	0.002620492	0.0030727892
930	4.65	0.0010947715	0.002625655	0.003079363
931	4.655	0.0010962628	0.00263082	0.0030859406
932	4.66	0.001097754	0.002635987	0.0030925225
933	4.665	0.0010992452	0.0026411559	0.003099108
934	4.67	0.0011007361	0.0026463266	0.0031056977
935	4.675	0.001102227	0.0026514994	0.0031122912
936	4.68	0.0011037178	0.002656674	0.0031188887
937	4.685	0.0011052085	0.0026618508	0.00312549
938	4.69	0.0011066992	0.0026670292	0.0031320953
939	4.695	0.0011081898	0.0026722096	0.0031387045
940	4.7	0.0011096803	0.002677392	0.0031453173
941	4.705	0.0011111706	0.0026825762	0.0031519344
942	4.71	0.0011126609	0.0026877623	0.0031585551
943	4.715	0.0011141511	0.0026929502	0.0031651796
944	4.72	0.0011156412	0.00269814	0.003171808
945	4.725	0.0011171313	0.0027033316	0.0031784405
946	4.73	0.0011186212	0.0027085254	0.0031850766
947	4.735	0.0011201111	0.0027137208	0.0031917165
948	4.74	0.0011216009	0.002718918	0.00319836
949	4.745	0.0011230906	0.0027241171	0.0032050076
950	4.75	0.0011245802	0.002729318	0.0032116591
951	4.755	0.0011260697	0.0027345207	0.0032183141
952	4.76	0.0011275592	0.0027397254	0.003224973
953	4.765	0.0011290485	0.0027449317	0.0032316358
954	4.77	0.0011305378	0.00275014	0.0032383022
955	4.775	0.001132027	0.00275535	0.0032449723
956	4.78	0.0011335161	0.0027605616	0.0032516462
957	4.785	0.0011350051	0.0027657752	0.0032583238
958	4.79	0.0011364941	0.0027709906	0.003265005
959	4.795	0.0011379829	0.0027762079	0.00327169
960	4.8	0.0011394718	0.0027814268	0.0032783789
961	4.805	0.0011409604	0.0027866473	0.003285071
962	4.81	0.0011424491	0.0027918697	0.0032917673
963	4.815	0.0011439376	0.002797094	0.003298467
964	4.82	0.0011454261	0.0028023198	0.0033051705
965	4.825	0.0011469144	0.0028075473	0.0033118776
966	4.83	0.0011484027	0.0028127767	0.0033185882
967	4.835	0.001149891	0.002818008	0.0033253026
968	4.84	0.0011513791	0.0028232408	0.0033320207
969	4.845	0.0011528671	0.0028284753	0.0033387423
970	4.85	0.001154355	0.0028337114	0.0033454674
971	4.855	0.0011558429	0.0028389494	0.0033521962
972	4.86	0.0011573308	0.002844189	0.0033589287
973	4.865	0.0011588185	0.0028494303	0.0033656647
974	4.87	0.0011603062	0.0028546734	0.0033724043
975	4.875	0.0011617937	0.0028599182	0.0033791473
976	4.88	0.0011632813	0.0028651643	0.003385894
977	4.885	0.0011647686	0.0028704123	0.0033926442
978	4.89	0.0011662559	0.0028756622	0.003399398
979	4.895	0.0011677432	0.0028809134	0.0034061554
980	4.9	0.0011692304	0.0028861663	0.003412916
981	4.905	0.0011707175	0.0028914209	0.0034196805
982	4.91	0.0011722045	0.0028966772	0.0034264482
983	4.915	0.0011736915	0.002901935	0.0034332196
984	4.92	0.0011751783	0.0029071944	0.0034399945
985	4.925	0.0011766652	0.0029124557	0.0034467727
986	4.93	0.0011781519	0.0029177184	0.0034535544
987	4.935	0.0011796386	0.0029229827	0.0034603397
988	4.94	0.0011811251	0.0029282486	0.0034671284
989	4.945	0.0011826116	0.002933516	0.0034739205
990	4.95	0.001184098	0.0029387851	0.003480716
991	4.955	0.0011855843	0.0029440557	0.003487515
992	4.96	0.0011870706	0.002949328	0.0034943172
993	4.965	0.0011885568	0.0029546018	0.003501123
994	4.97	0.0011900429	0.0029598773	0.0035079322
995	4.975	0.001191529	0.0029651541	0.0035147448
996	4.98	0.0011930149	0.0029704326	0.0035215607
997	4.985	0.0011945008	0.0029757125	0.00352838
998	4.99	0.0011959866	0.002980994	0.0035352027
999	4.995	0.0011974723	0.0029862772	0.0035420288
1000	5.0	0.001198958	0.0029915618	0.0035488582
