* NMOS
.global gnd
MN_L_0p6 VDD VGS gnd gnd NMOS L=0.6U W=3U M=1
MN_L_3p0 VDD VGS gnd gnd NMOS L=3U W=15U M=1
MN_L_6p0 VDD VGS gnd gnd NMOS L=6U W=30U M=1
VVDD VDD gnd 4.5
.TEMP 125
.INCLUDE /home/mvico/tfg/recursos/OpAmp/tecnologia/C5_models.txt
.DC VVGS 0 5 0.005
VVGS VGS gnd 5
.END
