	V(vgs)	Id(Mn_l_0p6)	Id(Mn_l_3p0)	Id(Mn_l_6p0)
0	2.0	0.0	0.0	0.0
1	2.0	1.9141605e-06	2.5735476e-06	2.675602e-06
2	2.0	3.818182e-06	5.1352577e-06	5.339391e-06
3	2.0	5.7120733e-06	7.685133e-06	7.99137e-06
4	2.0	7.5958446e-06	1.0223177e-05	1.0631538e-05
5	2.0	9.469504e-06	1.2749392e-05	1.3259899e-05
6	2.0	1.1333063e-05	1.5263782e-05	1.5876452e-05
7	2.0	1.3186529e-05	1.776635e-05	1.8481203e-05
8	2.0	1.5029913e-05	2.0257095e-05	2.107415e-05
9	2.0	1.6863223e-05	2.2736027e-05	2.3655293e-05
10	2.0	1.8686469e-05	2.5203142e-05	2.6224638e-05
11	2.0	2.049966e-05	2.7658449e-05	2.8782184e-05
12	2.0	2.2302804e-05	3.0101945e-05	3.132793e-05
13	2.0	2.4095914e-05	3.2533637e-05	3.3861885e-05
14	2.0	2.5878995e-05	3.495353e-05	3.6384045e-05
15	2.0	2.765206e-05	3.736162e-05	3.8894414e-05
16	2.0	2.9415118e-05	3.9757913e-05	4.139299e-05
17	2.0	3.1168176e-05	4.2142416e-05	4.3879776e-05
18	2.0	3.291124e-05	4.4515127e-05	4.6354777e-05
19	2.0	3.464433e-05	4.687605e-05	4.8817987e-05
20	2.0	3.6367444e-05	4.9225193e-05	5.1269417e-05
21	2.0	3.8080598e-05	5.1562554e-05	5.3709064e-05
22	2.0	3.9783798e-05	5.3888132e-05	5.6136927e-05
23	2.0	4.1477055e-05	5.6201938e-05	5.8553014e-05
24	2.0	4.3160377e-05	5.850397e-05	6.095732e-05
25	2.0	4.4833774e-05	6.0794235e-05	6.334985e-05
26	2.0	4.6497255e-05	6.307273e-05	6.573061e-05
27	2.0	4.815083e-05	6.533947e-05	6.809959e-05
28	2.0	4.9794504e-05	6.759444e-05	7.04568e-05
29	2.0	5.142829e-05	6.983765e-05	7.2802235e-05
30	2.0	5.3052197e-05	7.206912e-05	7.513591e-05
31	2.0	5.4666234e-05	7.428882e-05	7.7457815e-05
32	2.0	5.6270408e-05	7.6496784e-05	7.976795e-05
33	2.0	5.786473e-05	7.8692996e-05	8.2066326e-05
34	2.0	5.944921e-05	8.087747e-05	8.4352934e-05
35	2.0	6.1023853e-05	8.30502e-05	8.662779e-05
36	2.0	6.258867e-05	8.52112e-05	8.889088e-05
37	2.0	6.414367e-05	8.736046e-05	9.114222e-05
38	2.0	6.5688866e-05	8.949799e-05	9.3381794e-05
39	2.0	6.722426e-05	9.162379e-05	9.560962e-05
40	2.0	6.874986e-05	9.373787e-05	9.7825694e-05
41	2.0	7.026568e-05	9.584022e-05	0.00010003001
42	2.0	7.177174e-05	9.793086e-05	0.000102222584
43	2.0	7.326803e-05	0.00010000978	0.00010440341
44	2.0	7.475456e-05	0.00010207699	0.00010657249
45	2.0	7.623134e-05	0.000104132494	0.000108729815
46	2.0	7.7698394e-05	0.00010617628	0.00011087541
47	2.0	7.915572e-05	0.00010820837	0.00011300926
48	2.0	8.060332e-05	0.00011022876	0.00011513136
49	2.0	8.204121e-05	0.000112237445	0.00011724173
50	2.0	8.346939e-05	0.00011423444	0.000119340366
51	2.0	8.4887884e-05	0.000116219744	0.00012142726
52	2.0	8.629669e-05	0.000118193355	0.00012350242
53	2.0	8.769582e-05	0.00012015528	0.00012556587
54	2.0	8.9085275e-05	0.00012210553	0.00012761758
55	2.0	9.046507e-05	0.00012404409	0.00012965755
56	2.0	9.183522e-05	0.00012597098	0.0001316858
57	2.0	9.319572e-05	0.00012788619	0.00013370231
58	2.0	9.454659e-05	0.00012978974	0.00013570712
59	2.0	9.5887815e-05	0.0001316816	0.00013770019
60	2.0	9.721943e-05	0.00013356183	0.00013968155
61	2.0	9.854143e-05	0.00013543037	0.0001416512
62	2.0	9.985382e-05	0.00013728726	0.00014360913
63	2.0	0.00010115661	0.0001391325	0.00014555533
64	2.0	0.00010244982	0.00014096608	0.00014748983
65	2.0	0.00010373344	0.00014278802	0.0001494126
66	2.0	0.00010500748	0.0001445983	0.00015132368
67	2.0	0.00010627195	0.00014639695	0.00015322305
68	2.0	0.00010752686	0.00014818396	0.00015511071
69	2.0	0.000108772205	0.00014995932	0.00015698666
70	2.0	0.000110008004	0.00015172306	0.00015885092
71	2.0	0.00011123426	0.00015347515	0.00016070346
72	2.0	0.00011245097	0.00015521563	0.00016254431
73	2.0	0.00011365815	0.00015694447	0.00016437347
74	2.0	0.0001148558	0.0001586617	0.00016619093
75	2.0	0.00011604393	0.00016036732	0.0001679967
76	2.0	0.00011722253	0.00016206132	0.00016979076
77	2.0	0.00011839162	0.0001637437	0.00017157313
78	2.0	0.000119551194	0.00016541447	0.00017334383
79	2.0	0.000120701254	0.00016707364	0.00017510283
80	2.0	0.00012184181	0.0001687212	0.00017685015
81	2.0	0.00012297287	0.00017035718	0.00017858579
82	2.0	0.0001240944	0.00017198155	0.00018030974
83	2.0	0.00012520644	0.00017359432	0.00018202202
84	2.0	0.00012630898	0.00017519551	0.00018372262
85	2.0	0.000127402	0.0001767851	0.00018541153
86	2.0	0.00012848551	0.00017836313	0.00018708878
87	2.0	0.00012955951	0.00017992957	0.00018875435
88	2.0	0.000130624	0.00018148443	0.00019040825
89	2.0	0.00013167897	0.00018302773	0.00019205049
90	2.0	0.0001327244	0.00018455945	0.00019368104
91	2.0	0.00013376029	0.0001860796	0.00019529994
92	2.0	0.00013478665	0.00018758819	0.00019690719
93	2.0	0.00013580344	0.00018908523	0.00019850276
94	2.0	0.00013681065	0.0001905707	0.0002000867
95	2.0	0.00013780828	0.00019204462	0.00020165896
96	2.0	0.00013879631	0.00019350699	0.00020321956
97	2.0	0.00013977471	0.00019495781	0.00020476851
98	2.0	0.00014074346	0.0001963971	0.00020630582
99	2.0	0.00014170256	0.00019782485	0.00020783147
100	2.0	0.00014265194	0.00019924105	0.00020934548
101	2.0	0.00014359162	0.00020064574	0.00021084785
102	2.0	0.00014452153	0.0002020389	0.00021233858
103	2.0	0.00014544166	0.00020342051	0.00021381766
104	2.0	0.00014635196	0.00020479062	0.00021528511
105	2.0	0.00014725239	0.00020614921	0.00021674091
106	2.0	0.0001481429	0.00020749628	0.00021818509
107	2.0	0.00014902347	0.00020883186	0.00021961764
108	2.0	0.00014989403	0.00021015591	0.00022103856
109	2.0	0.00015075452	0.00021146848	0.00022244785
110	2.0	0.00015160491	0.00021276953	0.0002238455
111	2.0	0.00015244514	0.0002140591	0.00022523156
112	2.0	0.00015327513	0.00021533718	0.00022660599
113	2.0	0.00015409484	0.00021660377	0.00022796879
114	2.0	0.0001549042	0.00021785888	0.00022932
115	2.0	0.00015570318	0.00021910251	0.00023065957
116	2.0	0.00015649167	0.00022033468	0.00023198755
117	2.0	0.00015726966	0.00022155537	0.00023330392
118	2.0	0.00015803707	0.0002227646	0.00023460868
119	2.0	0.00015879386	0.00022396237	0.00023590185
120	2.0	0.00015953998	0.00022514869	0.00023718343
121	2.0	0.00016027538	0.00022632355	0.0002384534
122	2.0	0.00016100003	0.00022748698	0.00023971178
123	2.0	0.00016171389	0.00022863895	0.00024095857
124	2.0	0.00016241697	0.0002297795	0.00024219378
125	2.0	0.00016310923	0.00023090861	0.00024341741
126	2.0	0.00016379067	0.0002320263	0.00024462945
127	2.0	0.00016446131	0.00023313257	0.00024582993
128	2.0	0.00016512116	0.00023422742	0.00024701882
129	2.0	0.00016577027	0.00023531086	0.00024819616
130	2.0	0.00016640866	0.00023638291	0.0002493619
131	2.0	0.00016703639	0.00023744356	0.0002505161
132	2.0	0.00016765352	0.00023849281	0.00025165876
133	2.0	0.00016826014	0.00023953068	0.00025278985
134	2.0	0.00016885634	0.00024055717	0.0002539094
135	2.0	0.0001694422	0.0002415723	0.0002550174
136	2.0	0.00017001783	0.00024257605	0.00025611385
137	2.0	0.00017058336	0.00024356846	0.00025719876
138	2.0	0.00017113892	0.0002445495	0.00025827216
139	2.0	0.00017168462	0.00024551922	0.00025933402
140	2.0	0.0001722206	0.0002464776	0.00026038435
141	2.0	0.00017274705	0.00024742464	0.00026142318
142	2.0	0.00017326407	0.0002483604	0.00026245049
143	2.0	0.00017377184	0.0002492848	0.00026346627
144	2.0	0.00017427052	0.00025019792	0.00026447058
145	2.0	0.00017476028	0.00025109976	0.00026546337
146	2.0	0.00017524126	0.00025199034	0.0002664447
147	2.0	0.00017571365	0.00025286962	0.00026741452
148	2.0	0.00017617761	0.00025373767	0.00026837288
149	2.0	0.00017663332	0.00025459446	0.00026931977
150	2.0	0.00017708093	0.00025544	0.0002702552
151	2.0	0.00017752062	0.00025627436	0.00027117916
152	2.0	0.00017795256	0.00025709748	0.00027209168
153	2.0	0.00017837691	0.00025790944	0.00027299277
154	2.0	0.00017879384	0.0002587102	0.0002738824
155	2.0	0.0001792035	0.0002594998	0.00027476065
156	2.0	0.00017960608	0.00026027826	0.00027562748
157	2.0	0.00018000172	0.0002610456	0.0002764829
158	2.0	0.00018039056	0.00026180185	0.00027732694
159	2.0	0.00018077278	0.00026254696	0.0002781596
160	2.0	0.00018114853	0.00026328105	0.00027898088
161	2.0	0.00018151794	0.00026400408	0.0002797908
162	2.0	0.00018188116	0.0002647161	0.0002805894
163	2.0	0.00018223835	0.00026541713	0.00028137665
164	2.0	0.00018258962	0.00026610718	0.00028215258
165	2.0	0.00018293512	0.00026678626	0.00028291723
166	2.0	0.000183275	0.00026745445	0.00028367058
167	2.0	0.00018360936	0.0002681118	0.00028441264
168	2.0	0.00018393835	0.00026875825	0.0002851435
169	2.0	0.00018426208	0.0002693939	0.0002858631
170	2.0	0.00018458067	0.0002700188	0.00028657148
171	2.0	0.00018489425	0.00027063297	0.00028726866
172	2.0	0.00018520292	0.00027123644	0.0002879547
173	2.0	0.0001855068	0.00027182925	0.00028862956
174	2.0	0.000185806	0.00027241147	0.0002892933
175	2.0	0.00018610062	0.00027298316	0.00028994595
176	2.0	0.00018639075	0.00027354437	0.00029058754
177	2.0	0.00018667652	0.00027409516	0.00029121808
178	2.0	0.00018695802	0.00027463556	0.0002918376
179	2.0	0.00018723533	0.00027516566	0.00029244617
180	2.0	0.00018750856	0.00027568554	0.00029304376
181	2.0	0.0001877778	0.00027619523	0.00029363047
182	2.0	0.00018804312	0.00027669486	0.00029420631
183	2.0	0.00018830462	0.0002771845	0.0002947713
184	2.0	0.00018856238	0.00027766422	0.00029532556
185	2.0	0.00018881648	0.0002781341	0.00029586905
186	2.0	0.000189067	0.00027859426	0.00029640185
187	2.0	0.00018931401	0.0002790448	0.00029692403
188	2.0	0.00018955761	0.0002794858	0.00029743562
189	2.0	0.00018979785	0.00027991738	0.0002979367
190	2.0	0.0001900348	0.00028033968	0.0002984273
191	2.0	0.00019026853	0.00028075278	0.00029890754
192	2.0	0.00019049912	0.00028115683	0.00029937745
193	2.0	0.00019072663	0.00028155197	0.0002998371
194	2.0	0.00019095112	0.0002819383	0.00030028657
195	2.0	0.00019117266	0.00028231594	0.00030072598
196	2.0	0.0001913913	0.00028268507	0.00030115538
197	2.0	0.0001916071	0.00028304584	0.00030157485
198	2.0	0.00019182013	0.00028339837	0.0003019845
199	2.0	0.00019203042	0.00028374282	0.00030238443
200	2.0	0.00019223806	0.00028407935	0.00030277477
201	2.0	0.00019244308	0.0002844081	0.0003031556
202	2.0	0.00019264553	0.00028472926	0.00030352702
203	2.0	0.00019284547	0.00028504297	0.0003038892
204	2.0	0.00019304296	0.00028534938	0.00030424222
205	2.0	0.00019323803	0.00028564868	0.00030458622
206	2.0	0.00019343072	0.000285941	0.00030492136
207	2.0	0.0001936211	0.00028622654	0.00030524773
208	2.0	0.00019380919	0.00028650547	0.00030556554
209	2.0	0.00019399506	0.00028677788	0.00030587488
210	2.0	0.00019417872	0.00028704404	0.00030617593
211	2.0	0.00019436024	0.00028730402	0.00030646886
212	2.0	0.00019453965	0.000287558	0.00030675382
213	2.0	0.00019471698	0.00028780618	0.00030703095
214	2.0	0.00019489229	0.00028804867	0.00030730045
215	2.0	0.0001950656	0.00028828566	0.00030756247
216	2.0	0.00019523695	0.00028851727	0.00030781722
217	2.0	0.00019540638	0.00028874364	0.00030806483
218	2.0	0.00019557391	0.00028896498	0.00030830552
219	2.0	0.00019573959	0.00028918136	0.00030853943
220	2.0	0.00019590346	0.00028939295	0.00030876676
221	2.0	0.00019606554	0.00028959988	0.00030898766
222	2.0	0.00019622584	0.0002898023	0.00030920235
223	2.0	0.00019638444	0.00029000032	0.000309411
224	2.0	0.00019654134	0.00029019406	0.00030961377
225	2.0	0.00019669656	0.00029038367	0.00030981086
226	2.0	0.00019685016	0.00029056924	0.00031000242
227	2.0	0.00019700214	0.0002907509	0.00031018863
228	2.0	0.00019715255	0.0002909288	0.00031036965
229	2.0	0.00019730139	0.00029110294	0.00031054567
230	2.0	0.00019744871	0.00029127355	0.00031071686
231	2.0	0.00019759453	0.00029144067	0.00031088333
232	2.0	0.00019773887	0.0002916044	0.0003110453
233	2.0	0.00019788176	0.00029176485	0.00031120286
234	2.0	0.00019802323	0.00029192213	0.0003113562
235	2.0	0.00019816328	0.0002920763	0.0003115055
236	2.0	0.00019830196	0.00029222746	0.00031165083
237	2.0	0.00019843929	0.00029237565	0.00031179233
238	2.0	0.00019857528	0.00029252103	0.0003119302
239	2.0	0.00019870994	0.00029266364	0.00031206448
240	2.0	0.0001988433	0.00029280357	0.00031219536
241	2.0	0.00019897542	0.00029294088	0.00031232295
242	2.0	0.00019910626	0.00029307563	0.00031244734
243	2.0	0.00019923589	0.0002932079	0.00031256868
244	2.0	0.0001993643	0.00029333777	0.00031268704
245	2.0	0.00019949151	0.0002934653	0.00031280253
246	2.0	0.00019961754	0.00029359056	0.00031291525
247	2.0	0.00019974241	0.0002937136	0.00031302532
248	2.0	0.00019986616	0.00029383446	0.00031313283
249	2.0	0.00019998878	0.00029395323	0.0003132378
250	2.0	0.00020011028	0.00029406993	0.00031334042
251	2.0	0.00020023072	0.00029418463	0.00031344072
252	2.0	0.00020035007	0.0002942974	0.00031353874
253	2.0	0.00020046838	0.0002944083	0.00031363463
254	2.0	0.00020058564	0.00029451732	0.0003137284
255	2.0	0.00020070188	0.00029462454	0.00031382017
256	2.0	0.0002008171	0.00029473	0.00031391
257	2.0	0.00020093135	0.00029483376	0.0003139979
258	2.0	0.0002010446	0.00029493586	0.00031408397
259	2.0	0.0002011569	0.0002950363	0.00031416828
260	2.0	0.00020126824	0.00029513516	0.00031425088
261	2.0	0.00020137866	0.0002952325	0.00031433182
262	2.0	0.00020148815	0.0002953283	0.00031441115
263	2.0	0.00020159672	0.00029542262	0.00031448892
264	2.0	0.0002017044	0.0002955155	0.00031456517
265	2.0	0.0002018112	0.00029560697	0.00031463997
266	2.0	0.00020191712	0.00029569707	0.00031471334
267	2.0	0.00020202219	0.00029578584	0.00031478534
268	2.0	0.00020212641	0.00029587327	0.000314856
269	2.0	0.0002022298	0.00029595944	0.00031492536
270	2.0	0.00020233236	0.00029604434	0.00031499346
271	2.0	0.00020243411	0.000296128	0.00031506037
272	2.0	0.00020253507	0.0002962105	0.00031512606
273	2.0	0.00020263523	0.0002962918	0.0003151906
274	2.0	0.0002027346	0.00029637196	0.00031525403
275	2.0	0.00020283322	0.000296451	0.00031531637
276	2.0	0.00020293109	0.00029652898	0.00031537766
277	2.0	0.00020302819	0.00029660584	0.0003154379
278	2.0	0.00020312457	0.00029668168	0.00031549716
279	2.0	0.00020322022	0.00029675648	0.00031555546
280	2.0	0.00020331514	0.00029683026	0.0003156128
281	2.0	0.00020340936	0.00029690308	0.0003156692
282	2.0	0.00020350289	0.00029697493	0.0003157247
283	2.0	0.00020359571	0.00029704583	0.00031577933
284	2.0	0.00020368787	0.00029711582	0.0003158331
285	2.0	0.00020377936	0.0002971849	0.00031588608
286	2.0	0.00020387018	0.00029725308	0.00031593823
287	2.0	0.00020396034	0.00029732042	0.00031598957
288	2.0	0.00020404985	0.0002973869	0.00031604018
289	2.0	0.00020413873	0.00029745253	0.00031609
290	2.0	0.00020422698	0.00029751734	0.0003161391
291	2.0	0.00020431461	0.00029758137	0.0003161875
292	2.0	0.00020440163	0.0002976446	0.0003162352
293	2.0	0.00020448804	0.00029770707	0.00031628224
294	2.0	0.00020457385	0.00029776877	0.00031632857
295	2.0	0.00020465907	0.00029782974	0.0003163743
296	2.0	0.00020474372	0.00029789	0.00031641938
297	2.0	0.00020482777	0.00029794953	0.00031646382
298	2.0	0.00020491127	0.00029800835	0.00031650768
299	2.0	0.0002049942	0.0002980665	0.00031655096
300	2.0	0.00020507658	0.00029812398	0.00031659362
301	2.0	0.0002051584	0.0002981808	0.00031663576
302	2.0	0.00020523969	0.00029823696	0.00031667732
303	2.0	0.00020532044	0.0002982925	0.00031671836
304	2.0	0.00020540066	0.00029834738	0.00031675887
305	2.0	0.00020548036	0.0002984017	0.00031679886
306	2.0	0.00020555955	0.00029845536	0.00031683836
307	2.0	0.00020563822	0.00029850847	0.00031687735
308	2.0	0.0002057164	0.00029856098	0.00031691586
309	2.0	0.00020579407	0.00029861293	0.0003169539
310	2.0	0.00020587126	0.0002986643	0.00031699147
311	2.0	0.00020594794	0.00029871514	0.0003170286
312	2.0	0.00020602417	0.00029876543	0.00031706528
313	2.0	0.0002060999	0.0002988152	0.0003171015
314	2.0	0.00020617517	0.0002988644	0.00031713734
315	2.0	0.00020624998	0.00029891313	0.00031717276
316	2.0	0.00020632433	0.00029896136	0.00031720774
317	2.0	0.00020639822	0.0002990091	0.00031724235
318	2.0	0.00020647167	0.00029905632	0.00031727654
319	2.0	0.00020654468	0.00029910306	0.00031731036
320	2.0	0.00020661725	0.00029914934	0.0003173438
321	2.0	0.00020668938	0.00029919515	0.00031737686
322	2.0	0.00020676109	0.00029924052	0.00031740958
323	2.0	0.00020683237	0.00029928543	0.0003174419
324	2.0	0.00020690323	0.0002993299	0.00031747392
325	2.0	0.00020697368	0.00029937393	0.0003175056
326	2.0	0.00020704373	0.00029941753	0.0003175369
327	2.0	0.00020711336	0.00029946072	0.0003175679
328	2.0	0.0002071826	0.00029950347	0.00031759858
329	2.0	0.00020725143	0.00029954585	0.00031762893
330	2.0	0.00020731988	0.00029958782	0.00031765897
331	2.0	0.00020738794	0.00029962938	0.0003176887
332	2.0	0.00020745563	0.00029967056	0.00031771814
333	2.0	0.00020752293	0.00029971136	0.00031774727
334	2.0	0.00020758985	0.00029975176	0.0003177761
335	2.0	0.00020765641	0.0002997918	0.0003178047
336	2.0	0.0002077226	0.0002998315	0.00031783298
337	2.0	0.00020778841	0.00029987082	0.00031786098
338	2.0	0.00020785388	0.0002999098	0.0003178887
339	2.0	0.00020791899	0.0002999484	0.0003179162
340	2.0	0.00020798374	0.00029998668	0.0003179434
341	2.0	0.00020804816	0.00030002464	0.00031797038
342	2.0	0.00020811222	0.00030006224	0.00031799707
343	2.0	0.00020817596	0.0003000995	0.00031802352
344	2.0	0.00020823935	0.00030013645	0.00031804974
345	2.0	0.0002083024	0.0003001731	0.0003180757
346	2.0	0.00020836512	0.00030020942	0.00031810146
347	2.0	0.00020842752	0.00030024542	0.00031812696
348	2.0	0.0002084896	0.00030028113	0.00031815225
349	2.0	0.00020855136	0.00030031652	0.0003181773
350	2.0	0.0002086128	0.00030035162	0.00031820213
351	2.0	0.00020867391	0.00030038645	0.00031822675
352	2.0	0.00020873472	0.00030042097	0.00031825117
353	2.0	0.00020879523	0.0003004552	0.00031827536
354	2.0	0.00020885545	0.00030048916	0.00031829934
355	2.0	0.00020891534	0.00030052286	0.00031832315
356	2.0	0.00020897495	0.00030055628	0.00031834672
357	2.0	0.00020903426	0.0003005894	0.00031837012
358	2.0	0.00020909327	0.00030062228	0.00031839331
359	2.0	0.000209152	0.0003006549	0.0003184163
360	2.0	0.00020921044	0.00030068727	0.00031843912
361	2.0	0.0002092686	0.00030071937	0.00031846177
362	2.0	0.00020932648	0.0003007512	0.0003184842
363	2.0	0.00020938407	0.00030078282	0.00031850647
364	2.0	0.00020944141	0.0003008142	0.00031852856
365	2.0	0.00020949845	0.0003008453	0.00031855048
366	2.0	0.00020955523	0.00030087619	0.00031857225
367	2.0	0.00020961175	0.00030090683	0.0003185938
368	2.0	0.000209668	0.00030093724	0.00031861523
369	2.0	0.00020972399	0.00030096745	0.00031863648
370	2.0	0.00020977971	0.0003009974	0.00031865755
371	2.0	0.00020983518	0.00030102715	0.00031867847
372	2.0	0.0002098904	0.00030105666	0.00031869925
373	2.0	0.00020994536	0.00030108597	0.00031871986
374	2.0	0.00021000007	0.00030111507	0.00031874035
375	2.0	0.00021005454	0.00030114394	0.00031876066
376	2.0	0.00021010876	0.0003011726	0.0003187808
377	2.0	0.00021016273	0.00030120107	0.00031880083
378	2.0	0.00021021647	0.00030122933	0.0003188207
379	2.0	0.00021026997	0.0003012574	0.00031884044
380	2.0	0.00021032323	0.00030128527	0.00031886002
381	2.0	0.00021037625	0.00030131292	0.0003188795
382	2.0	0.00021042905	0.0003013404	0.00031889882
383	2.0	0.00021048161	0.0003013677	0.000318918
384	2.0	0.00021053395	0.0003013948	0.00031893703
385	2.0	0.00021058606	0.00030142168	0.00031895595
386	2.0	0.00021063795	0.0003014484	0.00031897475
387	2.0	0.00021068961	0.00030147494	0.0003189934
388	2.0	0.00021074105	0.0003015013	0.00031901198
389	2.0	0.00021079229	0.00030152747	0.00031903037
390	2.0	0.0002108433	0.0003015535	0.00031904868
391	2.0	0.0002108941	0.00030157933	0.00031906684
392	2.0	0.0002109447	0.000301605	0.0003190849
393	2.0	0.00021099507	0.0003016305	0.00031910284
394	2.0	0.00021104523	0.00030165582	0.00031912065
395	2.0	0.0002110952	0.00030168096	0.00031913837
396	2.0	0.00021114496	0.00030170596	0.00031915595
397	2.0	0.0002111945	0.00030173082	0.00031917344
398	2.0	0.00021124387	0.0003017555	0.00031919082
399	2.0	0.00021129302	0.00030178	0.00031920808
400	2.0	0.00021134198	0.00030180436	0.00031922525
401	2.0	0.00021139074	0.00030182858	0.0003192423
402	2.0	0.00021143931	0.00030185265	0.00031925924
403	2.0	0.0002114877	0.00030187654	0.0003192761
404	2.0	0.00021153588	0.00030190032	0.00031929283
405	2.0	0.00021158387	0.00030192392	0.00031930947
406	2.0	0.00021163169	0.00030194738	0.000319326
407	2.0	0.00021167932	0.0003019707	0.00031934245
408	2.0	0.00021172676	0.0003019939	0.0003193588
409	2.0	0.00021177401	0.00030201694	0.00031937505
410	2.0	0.00021182108	0.0003020398	0.0003193912
411	2.0	0.00021186798	0.0003020626	0.00031940726
412	2.0	0.00021191471	0.00030208522	0.00031942324
413	2.0	0.00021196125	0.0003021077	0.00031943913
414	2.0	0.00021200761	0.00030213007	0.0003194549
415	2.0	0.00021205381	0.0003021523	0.00031947062
416	2.0	0.00021209983	0.0003021744	0.00031948622
417	2.0	0.00021214568	0.00030219636	0.00031950176
418	2.0	0.00021219137	0.0003022182	0.0003195172
419	2.0	0.00021223688	0.00030223993	0.00031953256
420	2.0	0.00021228223	0.0003022615	0.00031954783
421	2.0	0.00021232742	0.00030228298	0.00031956303
422	2.0	0.00021237243	0.00030230434	0.00031957813
423	2.0	0.00021241729	0.00030232556	0.00031959315
424	2.0	0.00021246198	0.00030234666	0.0003196081
425	2.0	0.00021250652	0.00030236764	0.00031962295
426	2.0	0.00021255089	0.0003023885	0.00031963777
427	2.0	0.00021259511	0.00030240926	0.00031965246
428	2.0	0.00021263918	0.00030242992	0.0003196671
429	2.0	0.0002126831	0.00030245044	0.00031968165
430	2.0	0.00021272685	0.00030247084	0.00031969615
431	2.0	0.00021277045	0.00030249116	0.00031971055
432	2.0	0.0002128139	0.00030251135	0.0003197249
433	2.0	0.00021285721	0.00030253144	0.00031973916
434	2.0	0.00021290037	0.00030255143	0.00031975337
435	2.0	0.00021294337	0.00030257128	0.00031976748
436	2.0	0.00021298624	0.00030259104	0.00031978154
437	2.0	0.00021302895	0.00030261072	0.00031979554
438	2.0	0.00021307153	0.00030263027	0.00031980945
439	2.0	0.00021311396	0.00030264974	0.0003198233
440	2.0	0.00021315625	0.0003026691	0.00031983707
441	2.0	0.0002131984	0.00030268834	0.00031985078
442	2.0	0.0002132404	0.00030270749	0.00031986446
443	2.0	0.00021328227	0.00030272655	0.00031987802
444	2.0	0.000213324	0.00030274552	0.00031989155
445	2.0	0.00021336561	0.00030276438	0.000319905
446	2.0	0.00021340707	0.00030278316	0.0003199184
447	2.0	0.0002134484	0.0003028018	0.00031993174
448	2.0	0.00021348959	0.0003028204	0.00031994501
449	2.0	0.00021353064	0.0003028389	0.00031995823
450	2.0	0.00021357158	0.00030285728	0.00031997138
451	2.0	0.00021361238	0.0003028756	0.00031998448
452	2.0	0.00021365305	0.0003028938	0.00031999752
453	2.0	0.0002136936	0.00030291194	0.00032001047
454	2.0	0.000213734	0.00030292998	0.0003200234
455	2.0	0.0002137743	0.00030294794	0.00032003626
456	2.0	0.00021381446	0.00030296578	0.00032004906
457	2.0	0.00021385451	0.00030298356	0.0003200618
458	2.0	0.00021389443	0.00030300126	0.0003200745
459	2.0	0.00021393423	0.00030301887	0.00032008716
460	2.0	0.0002139739	0.0003030364	0.00032009973
461	2.0	0.00021401345	0.00030305385	0.00032011227
462	2.0	0.00021405288	0.0003030712	0.00032012476
463	2.0	0.00021409219	0.00030308848	0.00032013716
464	2.0	0.00021413139	0.00030310568	0.00032014956
465	2.0	0.00021417046	0.0003031228	0.00032016187
466	2.0	0.00021420943	0.00030313985	0.00032017415
467	2.0	0.00021424827	0.00030315682	0.00032018637
468	2.0	0.000214287	0.0003031737	0.00032019854
469	2.0	0.00021432563	0.00030319052	0.00032021065
470	2.0	0.00021436413	0.00030320726	0.00032022272
471	2.0	0.00021440253	0.0003032239	0.00032023474
472	2.0	0.0002144408	0.0003032405	0.00032024673
473	2.0	0.00021447898	0.000303257	0.00032025867
474	2.0	0.00021451704	0.00030327344	0.00032027054
475	2.0	0.000214555	0.0003032898	0.00032028236
476	2.0	0.00021459284	0.0003033061	0.00032029414
477	2.0	0.00021463058	0.00030332233	0.0003203059
478	2.0	0.00021466821	0.0003033385	0.0003203176
479	2.0	0.00021470574	0.00030335455	0.00032032924
480	2.0	0.00021474317	0.00030337056	0.00032034086
481	2.0	0.00021478048	0.0003033865	0.0003203524
482	2.0	0.00021481769	0.00030340237	0.00032036394
483	2.0	0.0002148548	0.0003034182	0.00032037543
484	2.0	0.0002148918	0.00030343392	0.00032038684
485	2.0	0.00021492872	0.0003034496	0.00032039825
486	2.0	0.00021496552	0.0003034652	0.0003204096
487	2.0	0.00021500222	0.00030348075	0.0003204209
488	2.0	0.00021503883	0.00030349623	0.00032043215
489	2.0	0.00021507534	0.00030351165	0.0003204434
490	2.0	0.00021511175	0.000303527	0.00032045456
491	2.0	0.00021514806	0.00030354227	0.0003204657
492	2.0	0.00021518428	0.0003035575	0.00032047683
493	2.0	0.0002152204	0.00030357265	0.0003204879
494	2.0	0.00021525641	0.00030358776	0.00032049892
495	2.0	0.00021529236	0.0003036028	0.00032050992
496	2.0	0.00021532818	0.0003036178	0.00032052086
497	2.0	0.00021536392	0.0003036327	0.00032053178
498	2.0	0.00021539957	0.00030364757	0.00032054263
499	2.0	0.00021543514	0.00030366235	0.0003205535
500	2.0	0.0002154706	0.0003036771	0.0003205643
501	2.0	0.00021550598	0.0003036918	0.00032057505
502	2.0	0.00021554127	0.00030370642	0.00032058576
503	2.0	0.00021557645	0.000303721	0.00032059647
504	2.0	0.00021561157	0.0003037355	0.00032060713
505	2.0	0.00021564658	0.00030374996	0.00032061775
506	2.0	0.00021568152	0.00030376436	0.0003206283
507	2.0	0.00021571635	0.0003037787	0.00032063888
508	2.0	0.00021575112	0.000303793	0.0003206494
509	2.0	0.00021578578	0.00030380723	0.00032065986
510	2.0	0.00021582037	0.00030382143	0.0003206703
511	2.0	0.00021585487	0.00030383555	0.00032068073
512	2.0	0.00021588929	0.00030384964	0.00032069112
513	2.0	0.00021592362	0.00030386366	0.00032070145
514	2.0	0.00021595787	0.00030387763	0.00032071176
515	2.0	0.00021599204	0.00030389155	0.00032072206
516	2.0	0.00021602612	0.00030390543	0.0003207323
517	2.0	0.00021606013	0.00030391925	0.00032074252
518	2.0	0.00021609405	0.00030393302	0.0003207527
519	2.0	0.00021612788	0.00030394673	0.00032076286
520	2.0	0.00021616164	0.0003039604	0.000320773
521	2.0	0.00021619533	0.00030397403	0.0003207831
522	2.0	0.00021622893	0.0003039876	0.00032079313
523	2.0	0.00021626246	0.00030400112	0.00032080317
524	2.0	0.0002162959	0.0003040146	0.00032081318
525	2.0	0.00021632927	0.000304028	0.00032082314
526	2.0	0.00021636256	0.0003040414	0.0003208331
527	2.0	0.00021639577	0.00030405473	0.000320843
528	2.0	0.00021642892	0.000304068	0.00032085288
529	2.0	0.00021646198	0.00030408124	0.00032086275
530	2.0	0.00021649497	0.00030409443	0.00032087255
531	2.0	0.00021652787	0.00030410758	0.00032088236
532	2.0	0.00021656071	0.00030412068	0.00032089214
533	2.0	0.00021659349	0.00030413375	0.0003209019
534	2.0	0.00021662618	0.00030414676	0.00032091158
535	2.0	0.0002166588	0.00030415974	0.00032092127
536	2.0	0.00021669135	0.00030417266	0.00032093094
537	2.0	0.00021672383	0.00030418555	0.00032094057
538	2.0	0.00021675622	0.0003041984	0.00032095017
539	2.0	0.00021678855	0.00030421116	0.00032095975
540	2.0	0.00021682083	0.00030422394	0.00032096932
541	2.0	0.00021685302	0.00030423663	0.00032097884
542	2.0	0.00021688514	0.00030424932	0.00032098833
543	2.0	0.0002169172	0.00030426192	0.00032099782
544	2.0	0.00021694918	0.00030427452	0.00032100728
545	2.0	0.0002169811	0.00030428707	0.00032101668
546	2.0	0.00021701294	0.00030429958	0.00032102608
547	2.0	0.00021704474	0.00030431204	0.00032103545
548	2.0	0.00021707645	0.00030432447	0.00032104482
549	2.0	0.0002171081	0.00030433683	0.00032105413
550	2.0	0.00021713968	0.00030434917	0.00032106345
551	2.0	0.0002171712	0.00030436149	0.0003210727
552	2.0	0.00021720264	0.00030437377	0.00032108196
553	2.0	0.00021723403	0.000304386	0.00032109118
554	2.0	0.00021726536	0.00030439819	0.00032110038
555	2.0	0.00021729662	0.00030441032	0.00032110958
556	2.0	0.00021732782	0.00030442243	0.00032111874
557	2.0	0.00021735895	0.0003044345	0.00032112785
558	2.0	0.00021739001	0.00030444656	0.00032113696
559	2.0	0.00021742101	0.00030445855	0.00032114607
560	2.0	0.00021745196	0.0003044705	0.00032115512
561	2.0	0.00021748284	0.00030448244	0.00032116417
562	2.0	0.00021751366	0.00030449434	0.0003211732
563	2.0	0.00021754442	0.0003045062	0.0003211822
564	2.0	0.00021757511	0.000304518	0.00032119118
565	2.0	0.00021760576	0.0003045298	0.00032120012
566	2.0	0.00021763633	0.00030454155	0.00032120905
567	2.0	0.00021766685	0.00030455328	0.000321218
568	2.0	0.0002176973	0.00030456495	0.00032122686
569	2.0	0.0002177277	0.0003045766	0.00032123574
570	2.0	0.00021775805	0.0003045882	0.0003212446
571	2.0	0.00021778833	0.0003045998	0.0003212534
572	2.0	0.00021781855	0.0003046113	0.00032126223
573	2.0	0.00021784872	0.00030462284	0.000321271
574	2.0	0.00021787883	0.0003046343	0.00032127977
575	2.0	0.00021790889	0.00030464574	0.00032128853
576	2.0	0.00021793888	0.00030465715	0.00032129724
577	2.0	0.00021796883	0.00030466853	0.00032130597
578	2.0	0.0002179987	0.00030467988	0.00032131464
579	2.0	0.00021802854	0.0003046912	0.0003213233
580	2.0	0.00021805831	0.0003047025	0.00032133196
581	2.0	0.00021808803	0.00030471373	0.0003213406
582	2.0	0.0002181177	0.00030472496	0.0003213492
583	2.0	0.00021814731	0.00030473614	0.0003213578
584	2.0	0.00021817687	0.0003047473	0.00032136636
585	2.0	0.00021820636	0.00030475843	0.00032137492
586	2.0	0.00021823581	0.00030476952	0.00032138344
587	2.0	0.00021826521	0.00030478058	0.00032139197
588	2.0	0.00021829456	0.0003047916	0.00032140047
589	2.0	0.00021832385	0.0003048026	0.00032140894
590	2.0	0.00021835309	0.00030481358	0.0003214174
591	2.0	0.00021838228	0.00030482453	0.00032142585
592	2.0	0.00021841141	0.00030483544	0.00032143426
593	2.0	0.0002184405	0.00030484635	0.00032144267
594	2.0	0.00021846953	0.0003048572	0.00032145105
595	2.0	0.00021849852	0.00030486804	0.00032145943
596	2.0	0.00021852746	0.00030487883	0.00032146779
597	2.0	0.00021855635	0.0003048896	0.0003214761
598	2.0	0.00021858518	0.00030490034	0.00032148443
599	2.0	0.00021861398	0.00030491105	0.00032149276
600	2.0	0.0002186427	0.00030492173	0.00032150102
601	2.0	0.0002186714	0.0003049324	0.0003215093
602	2.0	0.00021870004	0.00030494304	0.00032151755
603	2.0	0.00021872863	0.00030495363	0.0003215258
604	2.0	0.00021875717	0.0003049642	0.000321534
605	2.0	0.00021878567	0.00030497476	0.0003215422
606	2.0	0.00021881412	0.00030498527	0.00032155038
607	2.0	0.00021884253	0.00030499577	0.00032155856
608	2.0	0.00021887087	0.00030500625	0.0003215667
609	2.0	0.0002188992	0.0003050167	0.00032157486
610	2.0	0.00021892745	0.00030502712	0.00032158298
611	2.0	0.00021895567	0.0003050375	0.0003215911
612	2.0	0.00021898384	0.00030504787	0.0003215992
613	2.0	0.00021901197	0.0003050582	0.00032160725
614	2.0	0.00021904006	0.0003050685	0.0003216153
615	2.0	0.0002190681	0.0003050788	0.00032162337
616	2.0	0.0002190961	0.00030508908	0.00032163138
617	2.0	0.00021912405	0.0003050993	0.0003216394
618	2.0	0.00021915195	0.0003051095	0.0003216474
619	2.0	0.00021917981	0.0003051197	0.0003216554
620	2.0	0.00021920764	0.00030512988	0.00032166336
621	2.0	0.0002192354	0.00030514	0.0003216713
622	2.0	0.00021926314	0.00030515014	0.00032167925
623	2.0	0.00021929083	0.0003051602	0.00032168717
624	2.0	0.00021931848	0.00030517028	0.0003216951
625	2.0	0.00021934608	0.00030518032	0.000321703
626	2.0	0.00021937366	0.00030519036	0.0003217109
627	2.0	0.00021940118	0.00030520034	0.00032171875
628	2.0	0.00021942866	0.00030521033	0.0003217266
629	2.0	0.00021945611	0.00030522028	0.00032173443
630	2.0	0.00021948351	0.0003052302	0.00032174226
631	2.0	0.00021951087	0.0003052401	0.0003217501
632	2.0	0.00021953818	0.00030525	0.0003217579
633	2.0	0.00021956547	0.00030525983	0.00032176566
634	2.0	0.00021959271	0.00030526967	0.00032177343
635	2.0	0.00021961992	0.00030527948	0.0003217812
636	2.0	0.00021964707	0.0003052893	0.00032178895
637	2.0	0.0002196742	0.00030529907	0.0003217967
638	2.0	0.0002197013	0.0003053088	0.0003218044
639	2.0	0.00021972835	0.00030531854	0.0003218121
640	2.0	0.00021975535	0.00030532823	0.0003218198
641	2.0	0.00021978232	0.00030533792	0.00032182748
642	2.0	0.00021980926	0.00030534758	0.00032183516
643	2.0	0.00021983616	0.0003053572	0.00032184282
644	2.0	0.00021986302	0.00030536682	0.00032185044
645	2.0	0.00021988984	0.00030537642	0.00032185807
646	2.0	0.00021991663	0.000305386	0.0003218657
647	2.0	0.0002199434	0.00030539554	0.0003218733
648	2.0	0.00021997011	0.0003054051	0.00032188089
649	2.0	0.00021999679	0.0003054146	0.00032188848
650	2.0	0.00022002343	0.0003054241	0.00032189605
651	2.0	0.00022005005	0.00030543358	0.0003219036
652	2.0	0.00022007663	0.00030544304	0.00032191115
653	2.0	0.00022010317	0.00030545247	0.00032191866
654	2.0	0.00022012967	0.00030546187	0.0003219262
655	2.0	0.00022015616	0.00030547127	0.0003219337
656	2.0	0.0002201826	0.00030548064	0.0003219412
657	2.0	0.000220209	0.00030549	0.0003219487
658	2.0	0.00022023538	0.00030549933	0.00032195615
659	2.0	0.00022026172	0.00030550864	0.00032196363
660	2.0	0.00022028803	0.00030551795	0.00032197108
661	2.0	0.00022031431	0.0003055272	0.0003219785
662	2.0	0.00022034055	0.0003055365	0.00032198592
663	2.0	0.00022036675	0.00030554572	0.00032199334
664	2.0	0.00022039295	0.00030555495	0.00032200076
665	2.0	0.0002204191	0.00030556414	0.00032200816
666	2.0	0.00022044522	0.00030557334	0.00032201552
667	2.0	0.0002204713	0.00030558248	0.0003220229
668	2.0	0.00022049736	0.00030559165	0.00032203028
669	2.0	0.00022052339	0.00030560076	0.0003220376
670	2.0	0.00022054938	0.00030560986	0.00032204494
671	2.0	0.00022057536	0.00030561897	0.00032205228
672	2.0	0.0002206013	0.00030562805	0.0003220596
673	2.0	0.0002206272	0.0003056371	0.00032206692
674	2.0	0.00022065309	0.00030564613	0.0003220742
675	2.0	0.00022067894	0.00030565515	0.0003220815
676	2.0	0.00022070477	0.00030566417	0.00032208877
677	2.0	0.00022073057	0.00030567317	0.00032209602
678	2.0	0.00022075634	0.00030568213	0.0003221033
679	2.0	0.00022078208	0.00030569106	0.00032211054
680	2.0	0.0002208078	0.0003057	0.00032211776
681	2.0	0.00022083349	0.00030570893	0.00032212498
682	2.0	0.00022085915	0.00030571784	0.0003221322
683	2.0	0.00022088479	0.00030572672	0.0003221394
684	2.0	0.0002209104	0.0003057356	0.0003221466
685	2.0	0.00022093598	0.00030574444	0.0003221538
686	2.0	0.00022096155	0.00030575326	0.00032216095
687	2.0	0.00022098709	0.00030576208	0.00032216814
688	2.0	0.0002210126	0.0003057709	0.00032217527
689	2.0	0.00022103809	0.0003057797	0.00032218243
690	2.0	0.00022106354	0.00030578845	0.00032218956
691	2.0	0.000221089	0.0003057972	0.0003221967
692	2.0	0.0002211144	0.00030580594	0.00032220382
693	2.0	0.00022113981	0.00030581467	0.00032221092
694	2.0	0.00022116517	0.00030582337	0.00032221802
695	2.0	0.00022119052	0.00030583207	0.0003222251
696	2.0	0.00022121586	0.00030584075	0.0003222322
697	2.0	0.00022124116	0.0003058494	0.00032223927
698	2.0	0.00022126644	0.00030585803	0.0003222463
699	2.0	0.0002212917	0.00030586668	0.00032225339
700	2.0	0.00022131695	0.0003058753	0.00032226043
701	2.0	0.00022134218	0.00030588388	0.00032226744
702	2.0	0.00022136739	0.00030589246	0.00032227449
703	2.0	0.00022139256	0.00030590105	0.0003222815
704	2.0	0.00022141772	0.0003059096	0.0003222885
705	2.0	0.00022144287	0.00030591813	0.0003222955
706	2.0	0.000221468	0.00030592666	0.00032230248
707	2.0	0.00022149312	0.0003059352	0.00032230947
708	2.0	0.0002215182	0.0003059437	0.00032231645
709	2.0	0.00022154328	0.00030595216	0.0003223234
710	2.0	0.00022156833	0.00030596062	0.00032233036
711	2.0	0.00022159338	0.0003059691	0.00032233732
712	2.0	0.0002216184	0.00030597753	0.00032234425
713	2.0	0.00022164341	0.00030598594	0.0003223512
714	2.0	0.00022166841	0.00030599436	0.0003223581
715	2.0	0.00022169338	0.00030600277	0.00032236503
716	2.0	0.00022171834	0.00030601115	0.00032237192
717	2.0	0.00022174329	0.00030601953	0.00032237882
718	2.0	0.00022176822	0.00030602788	0.00032238572
719	2.0	0.00022179315	0.00030603624	0.00032239262
720	2.0	0.00022181806	0.00030604456	0.0003223995
721	2.0	0.00022184294	0.00030605288	0.00032240635
722	2.0	0.00022186783	0.00030606118	0.0003224132
723	2.0	0.00022189271	0.00030606947	0.00032242006
724	2.0	0.00022191757	0.00030607777	0.0003224269
725	2.0	0.0002219424	0.00030608603	0.00032243374
726	2.0	0.00022196725	0.00030609427	0.00032244055
727	2.0	0.00022199207	0.00030610253	0.0003224474
728	2.0	0.0002220169	0.00030611074	0.0003224542
729	2.0	0.00022204171	0.00030611898	0.000322461
730	2.0	0.0002220665	0.0003061272	0.0003224678
731	2.0	0.0002220913	0.00030613536	0.0003224746
732	2.0	0.00022211608	0.00030614354	0.00032248138
733	2.0	0.00022214085	0.00030615172	0.00032248814
734	2.0	0.00022216562	0.00030615987	0.00032249492
735	2.0	0.00022219039	0.00030616802	0.00032250167
736	2.0	0.00022221514	0.00030617614	0.00032250842
737	2.0	0.00022223989	0.00030618426	0.00032251517
738	2.0	0.00022226464	0.00030619238	0.00032252193
739	2.0	0.00022228938	0.00030620047	0.00032252865
740	2.0	0.00022231412	0.00030620856	0.00032253537
741	2.0	0.00022233884	0.00030621662	0.0003225421
742	2.0	0.00022236358	0.00030622468	0.00032254882
743	2.0	0.0002223883	0.00030623275	0.0003225555
744	2.0	0.00022241303	0.00030624078	0.0003225622
745	2.0	0.00022243775	0.0003062488	0.0003225689
746	2.0	0.00022246248	0.00030625684	0.0003225756
747	2.0	0.0002224872	0.00030626485	0.00032258226
748	2.0	0.00022251192	0.00030627285	0.00032258892
749	2.0	0.00022253663	0.00030628082	0.0003225956
750	2.0	0.00022256136	0.0003062888	0.00032260225
751	2.0	0.0002225861	0.00030629677	0.00032260892
752	2.0	0.00022261082	0.00030630472	0.00032261555
753	2.0	0.00022263554	0.00030631266	0.0003226222
754	2.0	0.00022266028	0.0003063206	0.00032262882
755	2.0	0.00022268502	0.00030632853	0.00032263546
756	2.0	0.00022270976	0.00030633644	0.00032264207
757	2.0	0.00022273451	0.00030634433	0.0003226487
758	2.0	0.00022275926	0.00030635225	0.0003226553
759	2.0	0.00022278402	0.00030636013	0.0003226619
760	2.0	0.00022280878	0.000306368	0.0003226685
761	2.0	0.00022283355	0.00030637585	0.00032267507
762	2.0	0.00022285833	0.0003063837	0.00032268168
763	2.0	0.00022288313	0.00030639156	0.00032268825
764	2.0	0.00022290793	0.0003063994	0.0003226948
765	2.0	0.00022293274	0.00030640722	0.00032270138
766	2.0	0.00022295755	0.00030641505	0.00032270793
767	2.0	0.00022298239	0.00030642285	0.0003227145
768	2.0	0.00022300723	0.00030643065	0.00032272105
769	2.0	0.00022303208	0.00030643845	0.0003227276
770	2.0	0.00022305695	0.00030644622	0.00032273412
771	2.0	0.00022308184	0.00030645402	0.00032274067
772	2.0	0.00022310673	0.00030646176	0.0003227472
773	2.0	0.00022313165	0.00030646953	0.0003227537
774	2.0	0.00022315659	0.00030647728	0.00032276023
775	2.0	0.00022318153	0.00030648502	0.00032276675
776	2.0	0.0002232065	0.00030649276	0.00032277324
777	2.0	0.00022323147	0.00030650047	0.00032277973
778	2.0	0.00022325649	0.0003065082	0.00032278625
779	2.0	0.0002232815	0.0003065159	0.00032279274
780	2.0	0.00022330655	0.0003065236	0.0003227992
781	2.0	0.00022333162	0.0003065313	0.0003228057
782	2.0	0.00022335669	0.000306539	0.00032281215
783	2.0	0.00022338181	0.00030654666	0.00032281864
784	2.0	0.00022340694	0.00030655434	0.0003228251
785	2.0	0.0002234321	0.000306562	0.00032283156
786	2.0	0.00022345729	0.00030656968	0.00032283802
787	2.0	0.0002234825	0.0003065773	0.00032284445
788	2.0	0.00022350773	0.00030658496	0.00032285092
789	2.0	0.00022353299	0.0003065926	0.00032285735
790	2.0	0.0002235583	0.00030660024	0.00032286378
791	2.0	0.00022358361	0.00030660786	0.0003228702
792	2.0	0.00022360896	0.00030661546	0.00032287664
793	2.0	0.00022363434	0.0003066231	0.00032288308
794	2.0	0.00022365976	0.00030663068	0.00032288948
795	2.0	0.00022368522	0.00030663828	0.0003228959
796	2.0	0.0002237107	0.00030664587	0.0003229023
797	2.0	0.00022373622	0.00030665347	0.00032290872
798	2.0	0.00022376177	0.00030666107	0.00032291512
799	2.0	0.00022378736	0.00030666863	0.00032292152
800	2.0	0.000223813	0.0003066762	0.00032292792
801	2.0	0.00022383865	0.00030668377	0.0003229343
802	2.0	0.00022386436	0.00030669133	0.0003229407
803	2.0	0.0002238901	0.0003066989	0.00032294707
804	2.0	0.0002239159	0.00030670644	0.00032295345
805	2.0	0.00022394174	0.00030671398	0.00032295982
806	2.0	0.00022396761	0.00030672151	0.0003229662
807	2.0	0.00022399353	0.00030672905	0.00032297257
808	2.0	0.00022401949	0.0003067366	0.00032297894
809	2.0	0.0002240455	0.00030674413	0.0003229853
810	2.0	0.00022407155	0.00030675164	0.00032299166
811	2.0	0.00022409766	0.00030675918	0.000322998
812	2.0	0.00022412383	0.00030676668	0.00032300435
813	2.0	0.00022415003	0.0003067742	0.0003230107
814	2.0	0.0002241763	0.0003067817	0.00032301704
815	2.0	0.00022420261	0.0003067892	0.00032302339
816	2.0	0.00022422898	0.00030679672	0.00032302973
817	2.0	0.00022425539	0.00030680423	0.00032303605
818	2.0	0.00022428187	0.0003068117	0.0003230424
819	2.0	0.0002243084	0.00030681922	0.0003230487
820	2.0	0.000224335	0.0003068267	0.00032305505
821	2.0	0.00022436166	0.00030683418	0.00032306137
822	2.0	0.00022438836	0.00030684166	0.00032306768
823	2.0	0.00022441515	0.00030684916	0.000323074
824	2.0	0.00022444199	0.00030685664	0.0003230803
825	2.0	0.0002244689	0.00030686412	0.00032308663
826	2.0	0.00022449586	0.0003068716	0.00032309294
827	2.0	0.0002245229	0.00030687905	0.00032309926
828	2.0	0.00022455	0.00030688653	0.00032310555
829	2.0	0.00022457718	0.000306894	0.00032311186
830	2.0	0.00022460443	0.0003069015	0.00032311818
831	2.0	0.00022463175	0.00030690894	0.00032312446
832	2.0	0.00022465913	0.00030691642	0.00032313075
833	2.0	0.0002246866	0.0003069239	0.00032313706
834	2.0	0.00022471414	0.00030693135	0.00032314335
835	2.0	0.00022474176	0.00030693883	0.00032314964
836	2.0	0.00022476946	0.00030694628	0.00032315592
837	2.0	0.00022479724	0.00030695376	0.0003231622
838	2.0	0.0002248251	0.0003069612	0.0003231685
839	2.0	0.00022485304	0.0003069687	0.00032317478
840	2.0	0.00022488106	0.00030697617	0.00032318107
841	2.0	0.00022490918	0.00030698362	0.00032318736
842	2.0	0.00022493738	0.0003069911	0.00032319364
843	2.0	0.00022496567	0.00030699855	0.00032319993
844	2.0	0.00022499404	0.00030700603	0.00032320622
845	2.0	0.00022502251	0.0003070135	0.00032321247
846	2.0	0.00022505106	0.000307021	0.00032321876
847	2.0	0.00022507973	0.00030702847	0.00032322505
848	2.0	0.00022510847	0.00030703595	0.0003232313
849	2.0	0.00022513732	0.00030704343	0.0003232376
850	2.0	0.00022516627	0.0003070509	0.00032324388
851	2.0	0.00022519531	0.0003070584	0.00032325013
852	2.0	0.00022522446	0.00030706587	0.00032325642
853	2.0	0.00022525371	0.00030707335	0.00032326268
854	2.0	0.00022528307	0.00030708086	0.00032326896
855	2.0	0.00022531253	0.00030708834	0.00032327522
856	2.0	0.00022534211	0.00030709585	0.0003232815
857	2.0	0.00022537178	0.00030710336	0.00032328776
858	2.0	0.00022540159	0.00030711087	0.00032329405
859	2.0	0.00022543149	0.00030711837	0.00032330034
860	2.0	0.00022546151	0.00030712588	0.0003233066
861	2.0	0.00022549165	0.00030713342	0.00032331288
862	2.0	0.0002255219	0.00030714093	0.00032331914
863	2.0	0.00022555228	0.00030714847	0.00032332542
864	2.0	0.00022558279	0.000307156	0.00032333168
865	2.0	0.0002256134	0.00030716354	0.00032333797
866	2.0	0.00022564415	0.00030717108	0.00032334425
867	2.0	0.00022567503	0.00030717865	0.00032335054
868	2.0	0.00022570603	0.0003071862	0.0003233568
869	2.0	0.00022573717	0.00030719375	0.00032336309
870	2.0	0.00022576844	0.00030720132	0.00032336937
871	2.0	0.00022579983	0.00030720892	0.00032337566
872	2.0	0.00022583138	0.00030721648	0.00032338194
873	2.0	0.00022586304	0.00030722408	0.00032338823
874	2.0	0.00022589487	0.00030723168	0.00032339452
875	2.0	0.00022592682	0.0003072393	0.0003234008
876	2.0	0.00022595892	0.0003072469	0.0003234071
877	2.0	0.00022599117	0.00030725452	0.00032341338
878	2.0	0.00022602356	0.00030726218	0.0003234197
879	2.0	0.0002260561	0.0003072698	0.00032342598
880	2.0	0.0002260888	0.00030727746	0.0003234323
881	2.0	0.00022612166	0.0003072851	0.00032343858
882	2.0	0.00022615466	0.0003072928	0.0003234449
883	2.0	0.00022618783	0.00030730045	0.0003234512
884	2.0	0.00022622115	0.00030730816	0.00032345753
885	2.0	0.00022625463	0.00030731584	0.0003234638
886	2.0	0.00022628828	0.00030732356	0.00032347016
887	2.0	0.0002263221	0.00030733127	0.00032347647
888	2.0	0.00022635607	0.000307339	0.0003234828
889	2.0	0.00022639023	0.00030734675	0.0003234891
890	2.0	0.00022642456	0.00030735452	0.00032349545
891	2.0	0.00022645906	0.00030736226	0.0003235018
892	2.0	0.00022649374	0.00030737006	0.0003235081
893	2.0	0.0002265286	0.00030737784	0.00032351445
894	2.0	0.00022656363	0.00030738566	0.0003235208
895	2.0	0.00022659886	0.00030739346	0.00032352714
896	2.0	0.00022663426	0.0003074013	0.00032353352
897	2.0	0.00022666986	0.00030740915	0.00032353986
898	2.0	0.00022670566	0.000307417	0.00032354624
899	2.0	0.00022674163	0.00030742487	0.0003235526
900	2.0	0.0002267778	0.00030743275	0.00032355898
901	2.0	0.00022681418	0.00030744067	0.00032356536
902	2.0	0.00022685075	0.0003074486	0.00032357173
903	2.0	0.00022688753	0.00030745653	0.00032357813
904	2.0	0.0002269245	0.00030746448	0.0003235845
905	2.0	0.0002269617	0.00030747245	0.0003235909
906	2.0	0.00022699908	0.00030748043	0.0003235973
907	2.0	0.0002270367	0.00030748843	0.00032360374
908	2.0	0.00022707452	0.00030749643	0.00032361015
909	2.0	0.00022711256	0.00030750447	0.00032361658
910	2.0	0.00022715081	0.00030751253	0.000323623
911	2.0	0.0002271893	0.0003075206	0.00032362944
912	2.0	0.00022722801	0.00030752868	0.00032363588
913	2.0	0.00022726694	0.0003075368	0.00032364234
914	2.0	0.00022730611	0.00030754492	0.0003236488
915	2.0	0.0002273455	0.00030755307	0.00032365526
916	2.0	0.00022738513	0.00030756125	0.00032366172
917	2.0	0.000227425	0.00030756943	0.0003236682
918	2.0	0.0002274651	0.00030757766	0.0003236747
919	2.0	0.00022750546	0.00030758587	0.0003236812
920	2.0	0.00022754606	0.00030759413	0.00032368768
921	2.0	0.0002275869	0.0003076024	0.0003236942
922	2.0	0.00022762801	0.0003076107	0.00032370072
923	2.0	0.00022766936	0.00030761902	0.00032370724
924	2.0	0.00022771097	0.00030762737	0.00032371376
925	2.0	0.00022775284	0.00030763572	0.0003237203
926	2.0	0.00022779497	0.00030764414	0.00032372685
927	2.0	0.00022783737	0.00030765255	0.00032373343
928	2.0	0.00022788004	0.000307661	0.00032374
929	2.0	0.00022792298	0.00030766946	0.0003237466
930	2.0	0.00022796619	0.00030767795	0.00032375316
931	2.0	0.00022800968	0.00030768645	0.00032375977
932	2.0	0.00022805345	0.000307695	0.00032376638
933	2.0	0.0002280975	0.00030770357	0.00032377298
934	2.0	0.00022814184	0.00030771215	0.00032377962
935	2.0	0.00022818647	0.0003077208	0.00032378625
936	2.0	0.0002282314	0.00030772944	0.00032379292
937	2.0	0.0002282766	0.0003077381	0.00032379958
938	2.0	0.00022832213	0.00030774684	0.00032380625
939	2.0	0.00022836794	0.00030775557	0.00032381294
940	2.0	0.00022841406	0.00030776433	0.00032381964
941	2.0	0.00022846049	0.00030777315	0.00032382633
942	2.0	0.00022850723	0.00030778197	0.00032383305
943	2.0	0.00022855429	0.00030779085	0.00032383978
944	2.0	0.00022860165	0.00030779972	0.00032384653
945	2.0	0.00022864934	0.00030780866	0.00032385328
946	2.0	0.00022869736	0.00030781762	0.00032386006
947	2.0	0.0002287457	0.0003078266	0.00032386684
948	2.0	0.00022879438	0.00030783564	0.00032387362
949	2.0	0.00022884339	0.0003078447	0.00032388043
950	2.0	0.00022889274	0.00030785377	0.00032388727
951	2.0	0.00022894242	0.0003078629	0.0003238941
952	2.0	0.00022899245	0.00030787208	0.00032390095
953	2.0	0.00022904282	0.00030788127	0.00032390782
954	2.0	0.00022909355	0.0003078905	0.0003239147
955	2.0	0.00022914463	0.00030789978	0.0003239216
956	2.0	0.00022919607	0.0003079091	0.00032392849
957	2.0	0.00022924787	0.00030791844	0.0003239354
958	2.0	0.00022930004	0.0003079278	0.00032394237
959	2.0	0.00022935258	0.00030793724	0.00032394932
960	2.0	0.00022940547	0.0003079467	0.00032395628
961	2.0	0.00022945876	0.00030795622	0.00032396326
962	2.0	0.00022951243	0.00030796576	0.00032397028
963	2.0	0.00022956646	0.00030797534	0.0003239773
964	2.0	0.0002296209	0.00030798497	0.00032398434
965	2.0	0.00022967572	0.00030799463	0.00032399138
966	2.0	0.00022973093	0.00030800435	0.00032399845
967	2.0	0.00022978654	0.0003080141	0.00032400555
968	2.0	0.00022984255	0.0003080239	0.00032401265
969	2.0	0.00022989897	0.00030803375	0.00032401978
970	2.0	0.0002299558	0.00030804364	0.0003240269
971	2.0	0.00023001304	0.0003080536	0.00032403407
972	2.0	0.0002300707	0.00030806358	0.00032404126
973	2.0	0.00023012878	0.0003080736	0.00032404845
974	2.0	0.00023018729	0.00030808366	0.00032405567
975	2.0	0.00023024621	0.0003080938	0.00032406292
976	2.0	0.00023030558	0.00030810398	0.00032407016
977	2.0	0.00023036537	0.0003081142	0.00032407744
978	2.0	0.00023042562	0.00030812446	0.00032408474
979	2.0	0.0002304863	0.00030813477	0.00032409208
980	2.0	0.00023054743	0.00030814516	0.0003240994
981	2.0	0.00023060902	0.00030815558	0.00032410678
982	2.0	0.00023067105	0.00030816605	0.00032411417
983	2.0	0.00023073355	0.0003081766	0.00032412156
984	2.0	0.00023079652	0.00030818715	0.00032412898
985	2.0	0.00023085997	0.0003081978	0.00032413643
986	2.0	0.00023092386	0.0003082085	0.0003241439
987	2.0	0.00023098825	0.00030821923	0.0003241514
988	2.0	0.00023105313	0.00030823002	0.00032415893
989	2.0	0.00023111848	0.00030824088	0.00032416647
990	2.0	0.00023118431	0.0003082518	0.00032417403
991	2.0	0.00023125065	0.0003082628	0.00032418163
992	2.0	0.00023131749	0.00030827383	0.00032418923
993	2.0	0.00023138484	0.0003082849	0.00032419688
994	2.0	0.00023145268	0.00030829606	0.00032420453
995	2.0	0.00023152104	0.00030830727	0.00032421222
996	2.0	0.00023158992	0.00030831853	0.00032421993
997	2.0	0.00023165932	0.00030832988	0.00032422767
998	2.0	0.00023172924	0.0003083413	0.00032423544
999	2.0	0.00023179968	0.00030835273	0.00032424324
1000	2.0	0.00023187067	0.00030836425	0.00032425107
