vvds	Id(Mn_l_0p6)	Id(Mn_l_3p0)	Id(Mn_l_6p0)
Step Information: Vgs=0  (Run: 1/6)
0.000000000000000e+000	0.000000e+000	0.000000e+000	0.000000e+000
5.000000000000000e-002	5.890342e-014	5.953374e-014	5.987310e-014
1.000000000000000e-001	1.101769e-013	1.108466e-013	1.112132e-013
1.500000000000000e-001	1.603768e-013	1.610411e-013	1.614096e-013
2.000000000000000e-001	2.104216e-013	2.110766e-013	2.114444e-013
2.500000000000000e-001	2.604424e-013	2.610878e-013	2.614548e-013
3.000000000000000e-001	3.104586e-013	3.110947e-013	3.114608e-013
3.500000000000000e-001	3.604733e-013	3.611005e-013	3.614659e-013
4.000000000000000e-001	4.104872e-013	4.111057e-013	4.114706e-013
4.500000000000000e-001	4.605005e-013	4.611107e-013	4.614750e-013
4.999999999999999e-001	5.105135e-013	5.111153e-013	5.114793e-013
5.499999999999999e-001	5.605261e-013	5.611199e-013	5.614835e-013
6.000000000000000e-001	6.105385e-013	6.111243e-013	6.114876e-013
6.500000000000000e-001	6.605509e-013	6.611285e-013	6.614916e-013
7.000000000000001e-001	7.105631e-013	7.111327e-013	7.114956e-013
7.500000000000001e-001	7.605753e-013	7.611368e-013	7.614996e-013
8.000000000000002e-001	8.105874e-013	8.111409e-013	8.115035e-013
8.500000000000002e-001	8.605997e-013	8.611449e-013	8.615075e-013
9.000000000000002e-001	9.106119e-013	9.111489e-013	9.115113e-013
9.500000000000003e-001	9.606242e-013	9.611528e-013	9.615153e-013
1.000000000000000e+000	1.010637e-012	1.011157e-012	1.011519e-012
1.050000000000000e+000	1.060649e-012	1.061160e-012	1.061523e-012
1.100000000000000e+000	1.110662e-012	1.111164e-012	1.111527e-012
1.150000000000000e+000	1.160674e-012	1.161168e-012	1.161531e-012
1.200000000000000e+000	1.210687e-012	1.211172e-012	1.211534e-012
1.250000000000000e+000	1.260700e-012	1.261176e-012	1.261538e-012
1.300000000000001e+000	1.310713e-012	1.311179e-012	1.311542e-012
1.350000000000001e+000	1.360727e-012	1.361183e-012	1.361546e-012
1.400000000000001e+000	1.410740e-012	1.411187e-012	1.411550e-012
1.450000000000001e+000	1.460754e-012	1.461191e-012	1.461554e-012
1.500000000000001e+000	1.510768e-012	1.511194e-012	1.511557e-012
1.550000000000001e+000	1.560782e-012	1.561198e-012	1.561561e-012
1.600000000000001e+000	1.610796e-012	1.611202e-012	1.611565e-012
1.650000000000001e+000	1.660811e-012	1.661206e-012	1.661569e-012
1.700000000000001e+000	1.710825e-012	1.711209e-012	1.711573e-012
1.750000000000001e+000	1.760840e-012	1.761213e-012	1.761576e-012
1.800000000000001e+000	1.810855e-012	1.811217e-012	1.811580e-012
1.850000000000001e+000	1.860871e-012	1.861220e-012	1.861584e-012
1.900000000000001e+000	1.910886e-012	1.911224e-012	1.911588e-012
1.950000000000001e+000	1.960902e-012	1.961228e-012	1.961591e-012
2.000000000000001e+000	2.010918e-012	2.011231e-012	2.011595e-012
2.050000000000001e+000	2.060934e-012	2.061235e-012	2.061599e-012
2.100000000000001e+000	2.110951e-012	2.111238e-012	2.111603e-012
2.150000000000000e+000	2.160968e-012	2.161242e-012	2.161606e-012
2.200000000000000e+000	2.210985e-012	2.211246e-012	2.211610e-012
2.250000000000000e+000	2.261002e-012	2.261250e-012	2.261614e-012
2.300000000000000e+000	2.311020e-012	2.311253e-012	2.311618e-012
2.350000000000000e+000	2.361038e-012	2.361257e-012	2.361622e-012
2.400000000000000e+000	2.411056e-012	2.411260e-012	2.411625e-012
2.449999999999999e+000	2.461075e-012	2.461264e-012	2.461629e-012
2.499999999999999e+000	2.511093e-012	2.511268e-012	2.511633e-012
2.549999999999999e+000	2.561113e-012	2.561271e-012	2.561637e-012
2.599999999999999e+000	2.611132e-012	2.611275e-012	2.611640e-012
2.649999999999999e+000	2.661152e-012	2.661279e-012	2.661644e-012
2.699999999999998e+000	2.711172e-012	2.711282e-012	2.711648e-012
2.749999999999998e+000	2.761192e-012	2.761286e-012	2.761652e-012
2.799999999999998e+000	2.811213e-012	2.811289e-012	2.811655e-012
2.849999999999998e+000	2.861234e-012	2.861293e-012	2.861659e-012
2.899999999999998e+000	2.911256e-012	2.911297e-012	2.911663e-012
2.949999999999998e+000	2.961277e-012	2.961300e-012	2.961667e-012
2.999999999999997e+000	3.011300e-012	3.011304e-012	3.011670e-012
3.049999999999997e+000	3.061322e-012	3.061308e-012	3.061674e-012
3.099999999999997e+000	3.111345e-012	3.111311e-012	3.111678e-012
3.149999999999997e+000	3.161369e-012	3.161315e-012	3.161682e-012
3.199999999999997e+000	3.211392e-012	3.211318e-012	3.211685e-012
3.249999999999996e+000	3.261417e-012	3.261322e-012	3.261689e-012
3.299999999999996e+000	3.311441e-012	3.311326e-012	3.311693e-012
3.349999999999996e+000	3.361466e-012	3.361329e-012	3.361697e-012
3.399999999999996e+000	3.411492e-012	3.411333e-012	3.411700e-012
3.449999999999996e+000	3.461518e-012	3.461336e-012	3.461704e-012
3.499999999999996e+000	3.511544e-012	3.511340e-012	3.511708e-012
3.549999999999995e+000	3.561571e-012	3.561344e-012	3.561712e-012
3.599999999999995e+000	3.611599e-012	3.611348e-012	3.611716e-012
3.649999999999995e+000	3.661627e-012	3.661351e-012	3.661719e-012
3.699999999999995e+000	3.711655e-012	3.711355e-012	3.711723e-012
3.749999999999995e+000	3.761685e-012	3.761359e-012	3.761727e-012
3.799999999999995e+000	3.811714e-012	3.811362e-012	3.811731e-012
3.849999999999994e+000	3.861745e-012	3.861366e-012	3.861735e-012
3.899999999999994e+000	3.911776e-012	3.911370e-012	3.911739e-012
3.949999999999994e+000	3.961808e-012	3.961374e-012	3.961742e-012
3.999999999999994e+000	4.011840e-012	4.011378e-012	4.011746e-012
4.049999999999994e+000	4.061874e-012	4.061381e-012	4.061750e-012
4.099999999999993e+000	4.111908e-012	4.111385e-012	4.111754e-012
4.149999999999993e+000	4.161943e-012	4.161389e-012	4.161758e-012
4.199999999999993e+000	4.211979e-012	4.211393e-012	4.211762e-012
4.249999999999993e+000	4.262016e-012	4.261397e-012	4.261766e-012
4.299999999999993e+000	4.312054e-012	4.311401e-012	4.311770e-012
4.349999999999993e+000	4.362094e-012	4.361405e-012	4.361774e-012
4.399999999999992e+000	4.412134e-012	4.411409e-012	4.411778e-012
4.449999999999992e+000	4.462175e-012	4.461413e-012	4.461782e-012
4.499999999999992e+000	4.512219e-012	4.511418e-012	4.511786e-012
4.549999999999992e+000	4.562263e-012	4.561422e-012	4.561791e-012
4.599999999999992e+000	4.612309e-012	4.611427e-012	4.611795e-012
4.649999999999992e+000	4.662357e-012	4.661431e-012	4.661799e-012
4.699999999999991e+000	4.712406e-012	4.711436e-012	4.711803e-012
4.749999999999991e+000	4.762457e-012	4.761440e-012	4.761808e-012
4.799999999999991e+000	4.812511e-012	4.811446e-012	4.811812e-012
4.849999999999991e+000	4.862566e-012	4.861450e-012	4.861817e-012
4.899999999999991e+000	4.912624e-012	4.911455e-012	4.911822e-012
4.949999999999990e+000	4.962684e-012	4.961460e-012	4.961827e-012
5.000000000000000e+000	5.012747e-012	5.011466e-012	5.011831e-012
Step Information: Vgs=1  (Run: 2/6)
0.000000000000000e+000	0.000000e+000	0.000000e+000	0.000000e+000
5.000000000000000e-002	4.664357e-006	6.764792e-006	7.212618e-006
1.000000000000000e-001	8.016936e-006	1.201536e-005	1.290424e-005
1.500000000000000e-001	1.016039e-005	1.578056e-005	1.709578e-005
2.000000000000000e-001	1.139333e-005	1.814725e-005	1.984857e-005
2.500000000000000e-001	1.215431e-005	1.937287e-005	2.135080e-005
3.000000000000000e-001	1.270554e-005	1.992868e-005	2.201779e-005
3.500000000000000e-001	1.314406e-005	2.020947e-005	2.230615e-005
4.000000000000000e-001	1.351043e-005	2.038410e-005	2.245644e-005
4.500000000000000e-001	1.382625e-005	2.050951e-005	2.255226e-005
4.999999999999999e-001	1.410484e-005	2.060727e-005	2.262212e-005
5.499999999999999e-001	1.435506e-005	2.068734e-005	2.267742e-005
6.000000000000000e-001	1.458312e-005	2.075513e-005	2.272353e-005
6.500000000000000e-001	1.479354e-005	2.081390e-005	2.276337e-005
7.000000000000001e-001	1.498968e-005	2.086581e-005	2.279868e-005
7.500000000000001e-001	1.517410e-005	2.091234e-005	2.283058e-005
8.000000000000002e-001	1.534879e-005	2.095457e-005	2.285983e-005
8.500000000000002e-001	1.551532e-005	2.099329e-005	2.288699e-005
9.000000000000002e-001	1.567492e-005	2.102911e-005	2.291244e-005
9.500000000000003e-001	1.582863e-005	2.106250e-005	2.293649e-005
1.000000000000000e+000	1.597727e-005	2.109384e-005	2.295937e-005
1.050000000000000e+000	1.612151e-005	2.112343e-005	2.298126e-005
1.100000000000000e+000	1.626194e-005	2.115150e-005	2.300232e-005
1.150000000000000e+000	1.639903e-005	2.117827e-005	2.302265e-005
1.200000000000000e+000	1.653318e-005	2.120389e-005	2.304236e-005
1.250000000000000e+000	1.666474e-005	2.122850e-005	2.306152e-005
1.300000000000001e+000	1.679400e-005	2.125223e-005	2.308020e-005
1.350000000000001e+000	1.692122e-005	2.127517e-005	2.309846e-005
1.400000000000001e+000	1.704662e-005	2.129741e-005	2.311634e-005
1.450000000000001e+000	1.717039e-005	2.131901e-005	2.313389e-005
1.500000000000001e+000	1.729270e-005	2.134005e-005	2.315114e-005
1.550000000000001e+000	1.741369e-005	2.136057e-005	2.316812e-005
1.600000000000001e+000	1.753350e-005	2.138064e-005	2.318485e-005
1.650000000000001e+000	1.765224e-005	2.140028e-005	2.320136e-005
1.700000000000001e+000	1.777001e-005	2.141953e-005	2.321768e-005
1.750000000000001e+000	1.788691e-005	2.143844e-005	2.323380e-005
1.800000000000001e+000	1.800301e-005	2.145702e-005	2.324977e-005
1.850000000000001e+000	1.811838e-005	2.147531e-005	2.326558e-005
1.900000000000001e+000	1.823310e-005	2.149333e-005	2.328125e-005
1.950000000000001e+000	1.834723e-005	2.151110e-005	2.329679e-005
2.000000000000001e+000	1.846080e-005	2.152863e-005	2.331221e-005
2.050000000000001e+000	1.857388e-005	2.154595e-005	2.332752e-005
2.100000000000001e+000	1.868651e-005	2.156307e-005	2.334273e-005
2.150000000000000e+000	1.879873e-005	2.158000e-005	2.335784e-005
2.200000000000000e+000	1.891056e-005	2.159676e-005	2.337286e-005
2.250000000000000e+000	1.902206e-005	2.161336e-005	2.338781e-005
2.300000000000000e+000	1.913324e-005	2.162980e-005	2.340267e-005
2.350000000000000e+000	1.924414e-005	2.164611e-005	2.341746e-005
2.400000000000000e+000	1.935478e-005	2.166228e-005	2.343219e-005
2.449999999999999e+000	1.946518e-005	2.167833e-005	2.344685e-005
2.499999999999999e+000	1.957537e-005	2.169427e-005	2.346145e-005
2.549999999999999e+000	1.968536e-005	2.171009e-005	2.347600e-005
2.599999999999999e+000	1.979519e-005	2.172581e-005	2.349050e-005
2.649999999999999e+000	1.990486e-005	2.174144e-005	2.350495e-005
2.699999999999998e+000	2.001439e-005	2.175697e-005	2.351935e-005
2.749999999999998e+000	2.012381e-005	2.177242e-005	2.353370e-005
2.799999999999998e+000	2.023313e-005	2.178778e-005	2.354802e-005
2.849999999999998e+000	2.034237e-005	2.180308e-005	2.356230e-005
2.899999999999998e+000	2.045155e-005	2.181830e-005	2.357655e-005
2.949999999999998e+000	2.056068e-005	2.183346e-005	2.359076e-005
2.999999999999997e+000	2.066980e-005	2.184856e-005	2.360494e-005
3.049999999999997e+000	2.077891e-005	2.186361e-005	2.361910e-005
3.099999999999997e+000	2.088806e-005	2.187861e-005	2.363323e-005
3.149999999999997e+000	2.099726e-005	2.189357e-005	2.364734e-005
3.199999999999997e+000	2.110655e-005	2.190849e-005	2.366143e-005
3.249999999999996e+000	2.121596e-005	2.192338e-005	2.367551e-005
3.299999999999996e+000	2.132554e-005	2.193825e-005	2.368958e-005
3.349999999999996e+000	2.143533e-005	2.195312e-005	2.370364e-005
3.399999999999996e+000	2.154539e-005	2.196798e-005	2.371770e-005
3.449999999999996e+000	2.165576e-005	2.198284e-005	2.373176e-005
3.499999999999996e+000	2.176653e-005	2.199773e-005	2.374584e-005
3.549999999999995e+000	2.187777e-005	2.201264e-005	2.375993e-005
3.599999999999995e+000	2.198955e-005	2.202761e-005	2.377404e-005
3.649999999999995e+000	2.210199e-005	2.204263e-005	2.378818e-005
3.699999999999995e+000	2.221518e-005	2.205774e-005	2.380237e-005
3.749999999999995e+000	2.232924e-005	2.207295e-005	2.381661e-005
3.799999999999995e+000	2.244432e-005	2.208827e-005	2.383090e-005
3.849999999999994e+000	2.256055e-005	2.210374e-005	2.384528e-005
3.899999999999994e+000	2.267811e-005	2.211938e-005	2.385973e-005
3.949999999999994e+000	2.279717e-005	2.213522e-005	2.387429e-005
3.999999999999994e+000	2.291793e-005	2.215129e-005	2.388897e-005
4.049999999999994e+000	2.304061e-005	2.216762e-005	2.390378e-005
4.099999999999993e+000	2.316545e-005	2.218425e-005	2.391875e-005
4.149999999999993e+000	2.329271e-005	2.220122e-005	2.393389e-005
4.199999999999993e+000	2.342268e-005	2.221858e-005	2.394923e-005
4.249999999999993e+000	2.355565e-005	2.223636e-005	2.396479e-005
4.299999999999993e+000	2.369197e-005	2.225463e-005	2.398059e-005
4.349999999999993e+000	2.383198e-005	2.227342e-005	2.399667e-005
4.399999999999992e+000	2.397608e-005	2.229281e-005	2.401306e-005
4.449999999999992e+000	2.412468e-005	2.231285e-005	2.402978e-005
4.499999999999992e+000	2.427822e-005	2.233360e-005	2.404687e-005
4.549999999999992e+000	2.443717e-005	2.235515e-005	2.406436e-005
4.599999999999992e+000	2.460204e-005	2.237755e-005	2.408230e-005
4.649999999999992e+000	2.477336e-005	2.240089e-005	2.410073e-005
4.699999999999991e+000	2.495172e-005	2.242524e-005	2.411968e-005
4.749999999999991e+000	2.513770e-005	2.245071e-005	2.413921e-005
4.799999999999991e+000	2.533196e-005	2.247737e-005	2.415936e-005
4.849999999999991e+000	2.553518e-005	2.250533e-005	2.418018e-005
4.899999999999991e+000	2.574806e-005	2.253468e-005	2.420172e-005
4.949999999999990e+000	2.597136e-005	2.256553e-005	2.422404e-005
5.000000000000000e+000	2.620587e-005	2.259800e-005	2.424720e-005
Step Information: Vgs=2  (Run: 3/6)
0.000000000000000e+000	0.000000e+000	0.000000e+000	0.000000e+000
5.000000000000000e-002	2.239610e-005	3.183685e-005	3.338040e-005
1.000000000000000e-001	4.356127e-005	6.208487e-005	6.515230e-005
1.500000000000000e-001	6.350171e-005	9.074683e-005	9.531725e-005
2.000000000000000e-001	8.222355e-005	1.178255e-004	1.238768e-004
2.500000000000000e-001	9.973263e-005	1.433237e-004	1.508326e-004
3.000000000000000e-001	1.160343e-004	1.672444e-004	1.761864e-004
3.500000000000000e-001	1.311328e-004	1.895904e-004	1.999397e-004
4.000000000000000e-001	1.450291e-004	2.103648e-004	2.220946e-004
4.500000000000000e-001	1.577168e-004	2.295709e-004	2.426530e-004
4.999999999999999e-001	1.691724e-004	2.472122e-004	2.616170e-004
5.499999999999999e-001	1.793412e-004	2.632927e-004	2.789895e-004
6.000000000000000e-001	1.881465e-004	2.778173e-004	2.947736e-004
6.500000000000000e-001	1.955669e-004	2.907923e-004	3.089737e-004
7.000000000000001e-001	2.017141e-004	3.022272e-004	3.215959e-004
7.500000000000001e-001	2.067965e-004	3.121369e-004	3.326498e-004
8.000000000000002e-001	2.110322e-004	3.205489e-004	3.421513e-004
8.500000000000002e-001	2.146049e-004	3.275152e-004	3.501288e-004
9.000000000000002e-001	2.176570e-004	3.331326e-004	3.566342e-004
9.500000000000003e-001	2.202961e-004	3.375611e-004	3.617622e-004
1.000000000000000e+000	2.226036e-004	3.410151e-004	3.656702e-004
1.050000000000000e+000	2.246412e-004	3.437199e-004	3.685805e-004
1.100000000000000e+000	2.264569e-004	3.458689e-004	3.707412e-004
1.150000000000000e+000	2.280878e-004	3.476083e-004	3.723718e-004
1.200000000000000e+000	2.295634e-004	3.490427e-004	3.736358e-004
1.250000000000000e+000	2.309073e-004	3.502461e-004	3.746436e-004
1.300000000000001e+000	2.321387e-004	3.512711e-004	3.754681e-004
1.350000000000001e+000	2.332729e-004	3.521559e-004	3.761576e-004
1.400000000000001e+000	2.343230e-004	3.529285e-004	3.767450e-004
1.450000000000001e+000	2.352995e-004	3.536101e-004	3.772534e-004
1.500000000000001e+000	2.362114e-004	3.542169e-004	3.776993e-004
1.550000000000001e+000	2.370663e-004	3.547616e-004	3.780951e-004
1.600000000000001e+000	2.378706e-004	3.552540e-004	3.784499e-004
1.650000000000001e+000	2.386299e-004	3.557020e-004	3.787707e-004
1.700000000000001e+000	2.393488e-004	3.561121e-004	3.790632e-004
1.750000000000001e+000	2.400314e-004	3.564894e-004	3.793318e-004
1.800000000000001e+000	2.406813e-004	3.568384e-004	3.795798e-004
1.850000000000001e+000	2.413016e-004	3.571626e-004	3.798103e-004
1.900000000000001e+000	2.418950e-004	3.574649e-004	3.800255e-004
1.950000000000001e+000	2.424640e-004	3.577480e-004	3.802275e-004
2.000000000000001e+000	2.430107e-004	3.580139e-004	3.804177e-004
2.050000000000001e+000	2.435369e-004	3.582646e-004	3.805977e-004
2.100000000000001e+000	2.440442e-004	3.585017e-004	3.807686e-004
2.150000000000000e+000	2.445344e-004	3.587265e-004	3.809313e-004
2.200000000000000e+000	2.450086e-004	3.589401e-004	3.810867e-004
2.250000000000000e+000	2.454681e-004	3.591438e-004	3.812356e-004
2.300000000000000e+000	2.459140e-004	3.593383e-004	3.813787e-004
2.350000000000000e+000	2.463472e-004	3.595245e-004	3.815164e-004
2.400000000000000e+000	2.467686e-004	3.597032e-004	3.816492e-004
2.449999999999999e+000	2.471792e-004	3.598749e-004	3.817776e-004
2.499999999999999e+000	2.475795e-004	3.600402e-004	3.819020e-004
2.549999999999999e+000	2.479703e-004	3.601996e-004	3.820227e-004
2.599999999999999e+000	2.483522e-004	3.603536e-004	3.821400e-004
2.649999999999999e+000	2.487258e-004	3.605027e-004	3.822543e-004
2.699999999999998e+000	2.490915e-004	3.606470e-004	3.823656e-004
2.749999999999998e+000	2.494499e-004	3.607871e-004	3.824743e-004
2.799999999999998e+000	2.498014e-004	3.609232e-004	3.825805e-004
2.849999999999998e+000	2.501464e-004	3.610555e-004	3.826845e-004
2.899999999999998e+000	2.504853e-004	3.611844e-004	3.827863e-004
2.949999999999998e+000	2.508184e-004	3.613100e-004	3.828862e-004
2.999999999999997e+000	2.511461e-004	3.614325e-004	3.829842e-004
3.049999999999997e+000	2.514688e-004	3.615522e-004	3.830805e-004
3.099999999999997e+000	2.517867e-004	3.616693e-004	3.831752e-004
3.149999999999997e+000	2.521001e-004	3.617838e-004	3.832684e-004
3.199999999999997e+000	2.524093e-004	3.618960e-004	3.833602e-004
3.249999999999996e+000	2.527146e-004	3.620060e-004	3.834506e-004
3.299999999999996e+000	2.530164e-004	3.621138e-004	3.835398e-004
3.349999999999996e+000	2.533149e-004	3.622198e-004	3.836278e-004
3.399999999999996e+000	2.536104e-004	3.623238e-004	3.837148e-004
3.449999999999996e+000	2.539033e-004	3.624262e-004	3.838007e-004
3.499999999999996e+000	2.541939e-004	3.625269e-004	3.838856e-004
3.549999999999995e+000	2.544827e-004	3.626260e-004	3.839696e-004
3.599999999999995e+000	2.547701e-004	3.627238e-004	3.840527e-004
3.649999999999995e+000	2.550565e-004	3.628202e-004	3.841350e-004
3.699999999999995e+000	2.553424e-004	3.629154e-004	3.842166e-004
3.749999999999995e+000	2.556285e-004	3.630095e-004	3.842975e-004
3.799999999999995e+000	2.559155e-004	3.631026e-004	3.843778e-004
3.849999999999994e+000	2.562039e-004	3.631948e-004	3.844574e-004
3.899999999999994e+000	2.564947e-004	3.632862e-004	3.845366e-004
3.949999999999994e+000	2.567887e-004	3.633770e-004	3.846153e-004
3.999999999999994e+000	2.570869e-004	3.634673e-004	3.846936e-004
4.049999999999994e+000	2.573905e-004	3.635573e-004	3.847715e-004
4.099999999999993e+000	2.577007e-004	3.636470e-004	3.848492e-004
4.149999999999993e+000	2.580188e-004	3.637368e-004	3.849268e-004
4.199999999999993e+000	2.583464e-004	3.638269e-004	3.850043e-004
4.249999999999993e+000	2.586850e-004	3.639173e-004	3.850818e-004
4.299999999999993e+000	2.590366e-004	3.640085e-004	3.851594e-004
4.349999999999993e+000	2.594031e-004	3.641007e-004	3.852373e-004
4.399999999999992e+000	2.597866e-004	3.641941e-004	3.853157e-004
4.449999999999992e+000	2.601895e-004	3.642892e-004	3.853945e-004
4.499999999999992e+000	2.606144e-004	3.643862e-004	3.854741e-004
4.549999999999992e+000	2.610639e-004	3.644857e-004	3.855546e-004
4.599999999999992e+000	2.615412e-004	3.645880e-004	3.856361e-004
4.649999999999992e+000	2.620494e-004	3.646937e-004	3.857190e-004
4.699999999999991e+000	2.625919e-004	3.648032e-004	3.858035e-004
4.749999999999991e+000	2.631724e-004	3.649171e-004	3.858897e-004
4.799999999999991e+000	2.637948e-004	3.650361e-004	3.859781e-004
4.849999999999991e+000	2.644634e-004	3.651608e-004	3.860688e-004
4.899999999999991e+000	2.651826e-004	3.652920e-004	3.861623e-004
4.949999999999990e+000	2.659571e-004	3.654305e-004	3.862589e-004
5.000000000000000e+000	2.667920e-004	3.655770e-004	3.863590e-004
Step Information: Vgs=3  (Run: 4/6)
0.000000000000000e+000	0.000000e+000	0.000000e+000	0.000000e+000
5.000000000000000e-002	3.217717e-005	5.205304e-005	5.558391e-005
1.000000000000000e-001	6.336581e-005	1.026440e-004	1.096659e-004
1.500000000000000e-001	9.356893e-005	1.517749e-004	1.622473e-004
2.000000000000000e-001	1.227895e-004	1.994479e-004	2.133292e-004
2.500000000000000e-001	1.510302e-004	2.456650e-004	2.629128e-004
3.000000000000000e-001	1.782939e-004	2.904283e-004	3.109993e-004
3.500000000000000e-001	2.045830e-004	3.337398e-004	3.575900e-004
4.000000000000000e-001	2.298995e-004	3.756016e-004	4.026860e-004
4.500000000000000e-001	2.542448e-004	4.160158e-004	4.462886e-004
4.999999999999999e-001	2.776190e-004	4.549843e-004	4.883989e-004
5.499999999999999e-001	3.000198e-004	4.925092e-004	5.290182e-004
6.000000000000000e-001	3.214407e-004	5.285924e-004	5.681476e-004
6.500000000000000e-001	3.418661e-004	5.632359e-004	6.057885e-004
7.000000000000001e-001	3.612632e-004	5.964417e-004	6.419419e-004
7.500000000000001e-001	3.795653e-004	6.282117e-004	6.766092e-004
8.000000000000002e-001	3.966465e-004	6.585476e-004	7.097914e-004
8.500000000000002e-001	4.123049e-004	6.874512e-004	7.414900e-004
9.000000000000002e-001	4.263067e-004	7.149240e-004	7.717061e-004
9.500000000000003e-001	4.385103e-004	7.409676e-004	8.004410e-004
1.000000000000000e+000	4.489606e-004	7.655829e-004	8.276959e-004
1.050000000000000e+000	4.578519e-004	7.887706e-004	8.534723e-004
1.100000000000000e+000	4.654321e-004	8.105305e-004	8.777713e-004
1.150000000000000e+000	4.719369e-004	8.308616e-004	9.005945e-004
1.200000000000000e+000	4.775657e-004	8.497607e-004	9.219432e-004
1.250000000000000e+000	4.824791e-004	8.672223e-004	9.418193e-004
1.300000000000001e+000	4.868045e-004	8.832369e-004	9.602244e-004
1.350000000000001e+000	4.906423e-004	8.977898e-004	9.771611e-004
1.400000000000001e+000	4.940723e-004	9.108620e-004	9.926322e-004
1.450000000000001e+000	4.971586e-004	9.224364e-004	1.006643e-003
1.500000000000001e+000	4.999524e-004	9.325147e-004	1.019200e-003
1.550000000000001e+000	5.024956e-004	9.411433e-004	1.030317e-003
1.600000000000001e+000	5.048225e-004	9.484314e-004	1.040019e-003
1.650000000000001e+000	5.069617e-004	9.545424e-004	1.048350e-003
1.700000000000001e+000	5.089367e-004	9.596635e-004	1.055388e-003
1.750000000000001e+000	5.107675e-004	9.639746e-004	1.061248e-003
1.800000000000001e+000	5.124707e-004	9.676318e-004	1.066084e-003
1.850000000000001e+000	5.140609e-004	9.707620e-004	1.070064e-003
1.900000000000001e+000	5.155502e-004	9.734665e-004	1.073353e-003
1.950000000000001e+000	5.169492e-004	9.758242e-004	1.076094e-003
2.000000000000001e+000	5.182670e-004	9.778971e-004	1.078401e-003
2.050000000000001e+000	5.195117e-004	9.797341e-004	1.080366e-003
2.100000000000001e+000	5.206901e-004	9.813738e-004	1.082058e-003
2.150000000000000e+000	5.218082e-004	9.828472e-004	1.083530e-003
2.200000000000000e+000	5.228716e-004	9.841792e-004	1.084824e-003
2.250000000000000e+000	5.238849e-004	9.853899e-004	1.085971e-003
2.300000000000000e+000	5.248524e-004	9.864962e-004	1.086995e-003
2.350000000000000e+000	5.257778e-004	9.875118e-004	1.087918e-003
2.400000000000000e+000	5.266645e-004	9.884480e-004	1.088755e-003
2.449999999999999e+000	5.275155e-004	9.893148e-004	1.089517e-003
2.499999999999999e+000	5.283336e-004	9.901199e-004	1.090217e-003
2.549999999999999e+000	5.291210e-004	9.908705e-004	1.090861e-003
2.599999999999999e+000	5.298802e-004	9.915726e-004	1.091458e-003
2.649999999999999e+000	5.306129e-004	9.922312e-004	1.092014e-003
2.699999999999998e+000	5.313212e-004	9.928506e-004	1.092532e-003
2.749999999999998e+000	5.320066e-004	9.934349e-004	1.093018e-003
2.799999999999998e+000	5.326706e-004	9.939873e-004	1.093475e-003
2.849999999999998e+000	5.333147e-004	9.945108e-004	1.093907e-003
2.899999999999998e+000	5.339399e-004	9.950079e-004	1.094315e-003
2.949999999999998e+000	5.345477e-004	9.954810e-004	1.094702e-003
2.999999999999997e+000	5.351389e-004	9.959321e-004	1.095071e-003
3.049999999999997e+000	5.357147e-004	9.963631e-004	1.095422e-003
3.099999999999997e+000	5.362759e-004	9.967755e-004	1.095758e-003
3.149999999999997e+000	5.368233e-004	9.971708e-004	1.096080e-003
3.199999999999997e+000	5.373578e-004	9.975502e-004	1.096389e-003
3.249999999999996e+000	5.378801e-004	9.979150e-004	1.096686e-003
3.299999999999996e+000	5.383909e-004	9.982663e-004	1.096972e-003
3.349999999999996e+000	5.388909e-004	9.986049e-004	1.097249e-003
3.399999999999996e+000	5.393809e-004	9.989318e-004	1.097516e-003
3.449999999999996e+000	5.398613e-004	9.992478e-004	1.097774e-003
3.499999999999996e+000	5.403328e-004	9.995536e-004	1.098025e-003
3.549999999999995e+000	5.407961e-004	9.998498e-004	1.098268e-003
3.599999999999995e+000	5.412518e-004	1.000137e-003	1.098504e-003
3.649999999999995e+000	5.417006e-004	1.000416e-003	1.098734e-003
3.699999999999995e+000	5.421431e-004	1.000687e-003	1.098958e-003
3.749999999999995e+000	5.425801e-004	1.000950e-003	1.099176e-003
3.799999999999995e+000	5.430125e-004	1.001207e-003	1.099390e-003
3.849999999999994e+000	5.434409e-004	1.001457e-003	1.099598e-003
3.899999999999994e+000	5.438665e-004	1.001701e-003	1.099802e-003
3.949999999999994e+000	5.442903e-004	1.001939e-003	1.100002e-003
3.999999999999994e+000	5.447133e-004	1.002172e-003	1.100197e-003
4.049999999999994e+000	5.451370e-004	1.002399e-003	1.100389e-003
4.099999999999993e+000	5.455627e-004	1.002622e-003	1.100577e-003
4.149999999999993e+000	5.459920e-004	1.002840e-003	1.100762e-003
4.199999999999993e+000	5.464267e-004	1.003054e-003	1.100943e-003
4.249999999999993e+000	5.468688e-004	1.003264e-003	1.101122e-003
4.299999999999993e+000	5.473205e-004	1.003471e-003	1.101298e-003
4.349999999999993e+000	5.477842e-004	1.003674e-003	1.101471e-003
4.399999999999992e+000	5.482626e-004	1.003874e-003	1.101642e-003
4.449999999999992e+000	5.487588e-004	1.004071e-003	1.101810e-003
4.499999999999992e+000	5.492759e-004	1.004266e-003	1.101977e-003
4.549999999999992e+000	5.498176e-004	1.004460e-003	1.102141e-003
4.599999999999992e+000	5.503878e-004	1.004651e-003	1.102304e-003
4.649999999999992e+000	5.509909e-004	1.004842e-003	1.102465e-003
4.699999999999991e+000	5.516314e-004	1.005032e-003	1.102625e-003
4.749999999999991e+000	5.523146e-004	1.005222e-003	1.102784e-003
4.799999999999991e+000	5.530460e-004	1.005413e-003	1.102942e-003
4.849999999999991e+000	5.538315e-004	1.005605e-003	1.103099e-003
4.899999999999991e+000	5.546774e-004	1.005799e-003	1.103255e-003
4.949999999999990e+000	5.555907e-004	1.005996e-003	1.103412e-003
5.000000000000000e+000	5.565789e-004	1.006196e-003	1.103569e-003
Step Information: Vgs=4  (Run: 5/6)
0.000000000000000e+000	0.000000e+000	0.000000e+000	0.000000e+000
5.000000000000000e-002	3.800037e-005	6.811730e-005	7.403211e-005
1.000000000000000e-001	7.520110e-005	1.349149e-004	1.466906e-004
1.500000000000000e-001	1.116038e-004	2.003945e-004	2.179764e-004
2.000000000000000e-001	1.472098e-004	2.645576e-004	2.878905e-004
2.500000000000000e-001	1.820208e-004	3.274058e-004	3.564339e-004
3.000000000000000e-001	2.160382e-004	3.889409e-004	4.236076e-004
3.500000000000000e-001	2.492632e-004	4.491642e-004	4.894126e-004
4.000000000000000e-001	2.816973e-004	5.080776e-004	5.538497e-004
4.500000000000000e-001	3.133416e-004	5.656824e-004	6.169201e-004
4.999999999999999e-001	3.441969e-004	6.219804e-004	6.786246e-004
5.499999999999999e-001	3.742640e-004	6.769731e-004	7.389642e-004
6.000000000000000e-001	4.035430e-004	7.306620e-004	7.979400e-004
6.500000000000000e-001	4.320333e-004	7.830488e-004	8.555528e-004
7.000000000000001e-001	4.597330e-004	8.341349e-004	9.118037e-004
7.500000000000001e-001	4.866381e-004	8.839219e-004	9.666936e-004
8.000000000000002e-001	5.127410e-004	9.324112e-004	1.020223e-003
8.500000000000002e-001	5.380275e-004	9.796044e-004	1.072394e-003
9.000000000000002e-001	5.624719e-004	1.025503e-003	1.123207e-003
9.500000000000003e-001	5.860276e-004	1.070108e-003	1.172662e-003
1.000000000000000e+000	6.086106e-004	1.113422e-003	1.220761e-003
1.050000000000000e+000	6.300771e-004	1.155444e-003	1.267505e-003
1.100000000000000e+000	6.502040e-004	1.196178e-003	1.312895e-003
1.150000000000000e+000	6.687095e-004	1.235623e-003	1.356930e-003
1.200000000000000e+000	6.853435e-004	1.273781e-003	1.399614e-003
1.250000000000000e+000	7.000024e-004	1.310653e-003	1.440945e-003
1.300000000000001e+000	7.127628e-004	1.346239e-003	1.480926e-003
1.350000000000001e+000	7.238233e-004	1.380539e-003	1.519557e-003
1.400000000000001e+000	7.334246e-004	1.413554e-003	1.556839e-003
1.450000000000001e+000	7.417986e-004	1.445282e-003	1.592772e-003
1.500000000000001e+000	7.491476e-004	1.475722e-003	1.627358e-003
1.550000000000001e+000	7.556404e-004	1.504869e-003	1.660596e-003
1.600000000000001e+000	7.614148e-004	1.532720e-003	1.692488e-003
1.650000000000001e+000	7.665830e-004	1.559265e-003	1.723034e-003
1.700000000000001e+000	7.712363e-004	1.584492e-003	1.752235e-003
1.750000000000001e+000	7.754489e-004	1.608381e-003	1.780089e-003
1.800000000000001e+000	7.792824e-004	1.630902e-003	1.806598e-003
1.850000000000001e+000	7.827873e-004	1.652013e-003	1.831759e-003
1.900000000000001e+000	7.860059e-004	1.671652e-003	1.855572e-003
1.950000000000001e+000	7.889734e-004	1.689743e-003	1.878035e-003
2.000000000000001e+000	7.917196e-004	1.706198e-003	1.899145e-003
2.050000000000001e+000	7.942702e-004	1.720949e-003	1.918895e-003
2.100000000000001e+000	7.966465e-004	1.733972e-003	1.937280e-003
2.150000000000000e+000	7.988672e-004	1.745322e-003	1.954288e-003
2.200000000000000e+000	8.009484e-004	1.755126e-003	1.969910e-003
2.250000000000000e+000	8.029040e-004	1.763563e-003	1.984130e-003
2.300000000000000e+000	8.047462e-004	1.770826e-003	1.996940e-003
2.350000000000000e+000	8.064855e-004	1.777100e-003	2.008343e-003
2.400000000000000e+000	8.081314e-004	1.782549e-003	2.018365e-003
2.449999999999999e+000	8.096920e-004	1.787312e-003	2.027071e-003
2.499999999999999e+000	8.111747e-004	1.791503e-003	2.034565e-003
2.549999999999999e+000	8.125861e-004	1.795214e-003	2.040983e-003
2.599999999999999e+000	8.139319e-004	1.798521e-003	2.046473e-003
2.649999999999999e+000	8.152172e-004	1.801486e-003	2.051180e-003
2.699999999999998e+000	8.164468e-004	1.804160e-003	2.055237e-003
2.749999999999998e+000	8.176248e-004	1.806583e-003	2.058754e-003
2.799999999999998e+000	8.187550e-004	1.808790e-003	2.061826e-003
2.849999999999998e+000	8.198409e-004	1.810809e-003	2.064528e-003
2.899999999999998e+000	8.208855e-004	1.812663e-003	2.066922e-003
2.949999999999998e+000	8.218918e-004	1.814374e-003	2.069057e-003
2.999999999999997e+000	8.228621e-004	1.815957e-003	2.070974e-003
3.049999999999997e+000	8.237989e-004	1.817427e-003	2.072705e-003
3.099999999999997e+000	8.247044e-004	1.818797e-003	2.074277e-003
3.149999999999997e+000	8.255804e-004	1.820076e-003	2.075711e-003
3.199999999999997e+000	8.264289e-004	1.821275e-003	2.077027e-003
3.249999999999996e+000	8.272514e-004	1.822402e-003	2.078239e-003
3.299999999999996e+000	8.280496e-004	1.823462e-003	2.079360e-003
3.349999999999996e+000	8.288248e-004	1.824463e-003	2.080402e-003
3.399999999999996e+000	8.295784e-004	1.825410e-003	2.081373e-003
3.449999999999996e+000	8.303116e-004	1.826307e-003	2.082280e-003
3.499999999999996e+000	8.310257e-004	1.827160e-003	2.083131e-003
3.549999999999995e+000	8.317215e-004	1.827970e-003	2.083932e-003
3.599999999999995e+000	8.324003e-004	1.828743e-003	2.084688e-003
3.649999999999995e+000	8.330632e-004	1.829480e-003	2.085403e-003
3.699999999999995e+000	8.337109e-004	1.830185e-003	2.086080e-003
3.749999999999995e+000	8.343445e-004	1.830860e-003	2.086724e-003
3.799999999999995e+000	8.349650e-004	1.831507e-003	2.087337e-003
3.849999999999994e+000	8.355733e-004	1.832128e-003	2.087922e-003
3.899999999999994e+000	8.361705e-004	1.832725e-003	2.088481e-003
3.949999999999994e+000	8.367575e-004	1.833300e-003	2.089017e-003
3.999999999999994e+000	8.373355e-004	1.833854e-003	2.089531e-003
4.049999999999994e+000	8.379057e-004	1.834389e-003	2.090025e-003
4.099999999999993e+000	8.384693e-004	1.834905e-003	2.090501e-003
4.149999999999993e+000	8.390278e-004	1.835404e-003	2.090959e-003
4.199999999999993e+000	8.395826e-004	1.835887e-003	2.091401e-003
4.249999999999993e+000	8.401355e-004	1.836355e-003	2.091829e-003
4.299999999999993e+000	8.406884e-004	1.836809e-003	2.092243e-003
4.349999999999993e+000	8.412434e-004	1.837249e-003	2.092644e-003
4.399999999999992e+000	8.418027e-004	1.837677e-003	2.093032e-003
4.449999999999992e+000	8.423692e-004	1.838093e-003	2.093410e-003
4.499999999999992e+000	8.429455e-004	1.838498e-003	2.093778e-003
4.549999999999992e+000	8.435350e-004	1.838892e-003	2.094135e-003
4.599999999999992e+000	8.441413e-004	1.839277e-003	2.094483e-003
4.649999999999992e+000	8.447682e-004	1.839652e-003	2.094822e-003
4.699999999999991e+000	8.454204e-004	1.840018e-003	2.095153e-003
4.749999999999991e+000	8.461025e-004	1.840377e-003	2.095477e-003
4.799999999999991e+000	8.468198e-004	1.840727e-003	2.095793e-003
4.849999999999991e+000	8.475783e-004	1.841071e-003	2.096102e-003
4.899999999999991e+000	8.483842e-004	1.841408e-003	2.096405e-003
4.949999999999990e+000	8.492447e-004	1.841740e-003	2.096702e-003
5.000000000000000e+000	8.501670e-004	1.842066e-003	2.096993e-003
Step Information: Vgs=5  (Run: 6/6)
0.000000000000000e+000	0.000000e+000	0.000000e+000	0.000000e+000
5.000000000000000e-002	4.149656e-005	8.047814e-005	8.881488e-005
1.000000000000000e-001	8.233751e-005	1.597764e-004	1.763876e-004
1.500000000000000e-001	1.225236e-004	2.378959e-004	2.627190e-004
2.000000000000000e-001	1.620557e-004	3.148380e-004	3.478099e-004
2.500000000000000e-001	2.009345e-004	3.906040e-004	4.316610e-004
3.000000000000000e-001	2.391608e-004	4.651950e-004	5.142732e-004
3.500000000000000e-001	2.767354e-004	5.386124e-004	5.956473e-004
4.000000000000000e-001	3.136588e-004	6.108574e-004	6.757840e-004
4.500000000000000e-001	3.499319e-004	6.819312e-004	7.546840e-004
4.999999999999999e-001	3.855551e-004	7.518350e-004	8.323484e-004
5.499999999999999e-001	4.205292e-004	8.205702e-004	9.087778e-004
6.000000000000000e-001	4.548544e-004	8.881379e-004	9.839729e-004
6.500000000000000e-001	4.885311e-004	9.545393e-004	1.057935e-003
7.000000000000001e-001	5.215595e-004	1.019776e-003	1.130664e-003
7.500000000000001e-001	5.539394e-004	1.083848e-003	1.202161e-003
8.000000000000002e-001	5.856701e-004	1.146758e-003	1.272427e-003
8.500000000000002e-001	6.167504e-004	1.208507e-003	1.341463e-003
9.000000000000002e-001	6.471782e-004	1.269095e-003	1.409270e-003
9.500000000000003e-001	6.769495e-004	1.328525e-003	1.475848e-003
1.000000000000000e+000	7.060583e-004	1.386796e-003	1.541197e-003
1.050000000000000e+000	7.344942e-004	1.443911e-003	1.605320e-003
1.100000000000000e+000	7.622404e-004	1.499870e-003	1.668216e-003
1.150000000000000e+000	7.892685e-004	1.554675e-003	1.729887e-003
1.200000000000000e+000	8.155312e-004	1.608326e-003	1.790333e-003
1.250000000000000e+000	8.409491e-004	1.660825e-003	1.849554e-003
1.300000000000001e+000	8.653928e-004	1.712173e-003	1.907552e-003
1.350000000000001e+000	8.886651e-004	1.762370e-003	1.964328e-003
1.400000000000001e+000	9.105016e-004	1.811418e-003	2.019882e-003
1.450000000000001e+000	9.306191e-004	1.859317e-003	2.074214e-003
1.500000000000001e+000	9.488070e-004	1.906069e-003	2.127327e-003
1.550000000000001e+000	9.650030e-004	1.951673e-003	2.179219e-003
1.600000000000001e+000	9.792952e-004	1.996130e-003	2.229893e-003
1.650000000000001e+000	9.918669e-004	2.039441e-003	2.279348e-003
1.700000000000001e+000	1.002936e-003	2.081605e-003	2.327585e-003
1.750000000000001e+000	1.012717e-003	2.122622e-003	2.374606e-003
1.800000000000001e+000	1.021399e-003	2.162492e-003	2.420410e-003
1.850000000000001e+000	1.029148e-003	2.201213e-003	2.464998e-003
1.900000000000001e+000	1.036101e-003	2.238782e-003	2.508370e-003
1.950000000000001e+000	1.042373e-003	2.275196e-003	2.550529e-003
2.000000000000001e+000	1.048057e-003	2.310450e-003	2.591472e-003
2.050000000000001e+000	1.053234e-003	2.344537e-003	2.631201e-003
2.100000000000001e+000	1.057969e-003	2.377445e-003	2.669717e-003
2.150000000000000e+000	1.062317e-003	2.409159e-003	2.707019e-003
2.200000000000000e+000	1.066326e-003	2.439657e-003	2.743107e-003
2.250000000000000e+000	1.070035e-003	2.468905e-003	2.777980e-003
2.300000000000000e+000	1.073478e-003	2.496859e-003	2.811638e-003
2.350000000000000e+000	1.076683e-003	2.523454e-003	2.844081e-003
2.400000000000000e+000	1.079676e-003	2.548602e-003	2.875306e-003
2.449999999999999e+000	1.082479e-003	2.572193e-003	2.905311e-003
2.499999999999999e+000	1.085109e-003	2.594095e-003	2.934092e-003
2.549999999999999e+000	1.087584e-003	2.614182e-003	2.961646e-003
2.599999999999999e+000	1.089918e-003	2.632358e-003	2.987965e-003
2.649999999999999e+000	1.092124e-003	2.648595e-003	3.013040e-003
2.699999999999998e+000	1.094212e-003	2.662949e-003	3.036859e-003
2.749999999999998e+000	1.096194e-003	2.675551e-003	3.059405e-003
2.799999999999998e+000	1.098076e-003	2.686579e-003	3.080656e-003
2.849999999999998e+000	1.099869e-003	2.696229e-003	3.100580e-003
2.899999999999998e+000	1.101578e-003	2.704693e-003	3.119143e-003
2.949999999999998e+000	1.103210e-003	2.712145e-003	3.136303e-003
2.999999999999997e+000	1.104772e-003	2.718738e-003	3.152019e-003
3.049999999999997e+000	1.106267e-003	2.724599e-003	3.166264e-003
3.099999999999997e+000	1.107700e-003	2.729838e-003	3.179037e-003
3.149999999999997e+000	1.109077e-003	2.734545e-003	3.190373e-003
3.199999999999997e+000	1.110400e-003	2.738795e-003	3.200354e-003
3.249999999999996e+000	1.111674e-003	2.742649e-003	3.209094e-003
3.299999999999996e+000	1.112901e-003	2.746160e-003	3.216731e-003
3.349999999999996e+000	1.114085e-003	2.749373e-003	3.223405e-003
3.399999999999996e+000	1.115228e-003	2.752323e-003	3.229254e-003
3.449999999999996e+000	1.116333e-003	2.755043e-003	3.234400e-003
3.499999999999996e+000	1.117402e-003	2.757558e-003	3.238949e-003
3.549999999999995e+000	1.118437e-003	2.759892e-003	3.242990e-003
3.599999999999995e+000	1.119440e-003	2.762065e-003	3.246601e-003
3.649999999999995e+000	1.120413e-003	2.764092e-003	3.249844e-003
3.699999999999995e+000	1.121357e-003	2.765989e-003	3.252772e-003
3.749999999999995e+000	1.122275e-003	2.767769e-003	3.255428e-003
3.799999999999995e+000	1.123168e-003	2.769443e-003	3.257849e-003
3.849999999999994e+000	1.124037e-003	2.771019e-003	3.260066e-003
3.899999999999994e+000	1.124883e-003	2.772509e-003	3.262103e-003
3.949999999999994e+000	1.125708e-003	2.773918e-003	3.263984e-003
3.999999999999994e+000	1.126514e-003	2.775253e-003	3.265725e-003
4.049999999999994e+000	1.127301e-003	2.776521e-003	3.267344e-003
4.099999999999993e+000	1.128071e-003	2.777728e-003	3.268853e-003
4.149999999999993e+000	1.128825e-003	2.778878e-003	3.270264e-003
4.199999999999993e+000	1.129564e-003	2.779974e-003	3.271588e-003
4.249999999999993e+000	1.130290e-003	2.781022e-003	3.272833e-003
4.299999999999993e+000	1.131005e-003	2.782025e-003	3.274006e-003
4.349999999999993e+000	1.131709e-003	2.782986e-003	3.275115e-003
4.399999999999992e+000	1.132406e-003	2.783908e-003	3.276165e-003
4.449999999999992e+000	1.133096e-003	2.784794e-003	3.277161e-003
4.499999999999992e+000	1.133782e-003	2.785645e-003	3.278108e-003
4.549999999999992e+000	1.134467e-003	2.786465e-003	3.279011e-003
4.599999999999992e+000	1.135153e-003	2.787255e-003	3.279872e-003
4.649999999999992e+000	1.135842e-003	2.788018e-003	3.280696e-003
4.699999999999991e+000	1.136539e-003	2.788753e-003	3.281485e-003
4.749999999999991e+000	1.137247e-003	2.789465e-003	3.282241e-003
4.799999999999991e+000	1.137970e-003	2.790153e-003	3.282967e-003
4.849999999999991e+000	1.138713e-003	2.790820e-003	3.283666e-003
4.899999999999991e+000	1.139481e-003	2.791466e-003	3.284339e-003
4.949999999999990e+000	1.140279e-003	2.792093e-003	3.284988e-003
5.000000000000000e+000	1.141113e-003	2.792702e-003	3.285615e-003
